{"id":"20823", "title":"Exceptions of type \"Message: JAR entry META-INF /services/* not found in /<service.jar>\" [SPR-16276]", "body":"**[Sasidhar Sekar](https://jira.spring.io/secure/ViewProfile.jspa?name=sasidharsmit)** opened **[SPR-16276](https://jira.spring.io/browse/SPR-16276?redirect=false)** and commented

Seeing more than 2 million instances of the below exceptions in springboot based microservice.

!Exception.png|thumbnail!

```java
Stack Trace	Count	Percentage(%)	Total
java.lang.Throwable.<init>(String)	1,532,051	95.618	0
   java.lang.Exception.<init>(String)	1,532,051	95.618	0
      java.io.IOException.<init>(String)	1,503,857	93.858	0
         java.io.FileNotFoundException.<init>(String)	1,503,782	93.854	0
            org.springframework.boot.loader.jar.JarURLConnection.throwFileNotFound(Object, JarFile)	1,503,782	93.854	0
               org.springframework.boot.loader.jar.JarURLConnection.connect()	1,503,782	93.854	0
                  org.springframework.boot.loader.jar.JarURLConnection.getInputStream()	1,503,782	93.854	0
                     sun.misc.URLClassPath$Loader.findResource(String, boolean)	1,503,782	93.854	0
                        sun.misc.URLClassPath$1.next()	1,503,782	93.854	0
                           sun.misc.URLClassPath$1.hasMoreElements()	1,503,782	93.854	0
                              java.net.URLClassLoader$3$1.run()	1,503,782	93.854	0
                                 java.net.URLClassLoader$3$1.run()	1,503,782	93.854	0
                                    java.security.AccessController.doPrivileged(PrivilegedAction, AccessControlContext)	1,503,782	93.854	0
                                       java.net.URLClassLoader$3.next()	1,503,782	93.854	0
                                          java.net.URLClassLoader$3.hasMoreElements()	1,503,782	93.854	0
                                             sun.misc.CompoundEnumeration.next()	1,503,782	93.854	0
                                                sun.misc.CompoundEnumeration.hasMoreElements()	1,503,782	93.854	0
                                                   sun.misc.CompoundEnumeration.next()	1,503,782	93.854	0
                                                      sun.misc.CompoundEnumeration.hasMoreElements()	1,503,782	93.854	0
                                                         java.util.ServiceLoader$LazyIterator.hasNextService()	1,503,782	93.854	0
                                                            java.util.ServiceLoader$LazyIterator.hasNext()	1,503,782	93.854	0
                                                               java.util.ServiceLoader$1.hasNext()	1,503,782	93.854	0
                                                                  javax.xml.transform.FactoryFinder$1.run()	1,046,435	65.31	0
                                                                     java.security.AccessController.doPrivileged(PrivilegedAction)	1,046,435	65.31	0
                                                                        javax.xml.transform.FactoryFinder.findServiceProvider(Class)	1,046,435	65.31	0
                                                                           javax.xml.transform.FactoryFinder.find(Class, String)	1,046,435	65.31	0
                                                                              javax.xml.transform.TransformerFactory.newInstance()	1,046,435	65.31	0
                                                                                 com.sun.xml.messaging.saaj.util.transform.EfficientStreamingTransformer.<init>()	1,046,435	65.31	0
                                                                                    com.sun.xml.messaging.saaj.util.transform.EfficientStreamingTransformer.newTransformer()	1,046,435	65.31	0
                                                                                       com.sun.xml.messaging.saaj.soap.impl.EnvelopeImpl.output(OutputStream)	589,228	36.775	0
                                                                                          com.sun.xml.messaging.saaj.soap.impl.EnvelopeImpl.output(OutputStream, boolean)	589,228	36.775	0
                                                                                             com.sun.xml.messaging.saaj.soap.SOAPPartImpl.getContentAsStream()	589,228	36.775	0
                                                                                                com.sun.xml.messaging.saaj.soap.MessageImpl.getHeaderBytes()	589,228	36.775	0
                                                                                                   com.sun.xml.messaging.saaj.soap.MessageImpl.saveChanges()	589,228	36.775	0
                                                                                                      org.springframework.ws.soap.saaj.SaajSoapMessage.writeTo(OutputStream)	589,228	36.775	0
                                                                                                         org.springframework.ws.transport.AbstractWebServiceConnection.send(WebServiceMessage)	589,228	36.775	0
                                                                                                            org.springframework.ws.client.core.WebServiceTemplate.sendRequest(WebServiceConnection, WebServiceMessage)	589,228	36.775	0
                                                                                                               org.springframework.ws.client.core.WebServiceTemplate.doSendAndReceive(MessageContext, WebServiceConnection, WebServiceMessageCallback, WebServiceMessageExtractor)	589,228	36.775	0
                                                                                                                  org.springframework.ws.client.core.WebServiceTemplate.sendAndReceive(String, WebServiceMessageCallback, WebServiceMessageExtractor)	589,228	36.775	0
                                                                                                                     org.springframework.ws.client.core.WebServiceTemplate.marshalSendAndReceive(String, Object, WebServiceMessageCallback)	589,228	36.775	0
                                                                                                                        org.springframework.ws.client.core.WebServiceTemplate.marshalSendAndReceive(Object, WebServiceMessageCallback)	589,228	36.775	0
                                                                                                                           org.springframework.ws.client.core.WebServiceTemplate.marshalSendAndReceive(Object)	589,228	36.775	0
                                                                                                                              com.hotels.booking.discos.loyalty.client.LoyaltyWebServiceGateway.sendAndReceive(AbstractLoyaltyRequest)	589,228	36.775	0
                                                                                                                                 com.hotels.booking.discos.loyalty.client.LoyaltyWebServiceGateway.retrieveRewardAdjustments(LoyaltyRewardAdjustmentsRetrievalRequest)	217,970	13.604	0
                                                                                                                                    sun.reflect.GeneratedMethodAccessor334.invoke(Object, Object[])	217,970	13.604	0
                                                                                                                                       sun.reflect.DelegatingMethodAccessorImpl.invoke(Object, Object[])	217,970	13.604	0
                                                                                                                                          java.lang.reflect.Method.invoke(Object, Object[])	217,970	13.604	0
                                                                                                                                             com.hotels.thermos.proxy.GenericProxyCircuitBreaker.execute()	217,970	13.604	0
                                                                                                                                                com.hotels.thermos.AbstractCircuitBreaker.run()	217,970	13.604	0
                                                                                                                                                   com.hotels.thermos.HystrixCommandWrapper.run()	217,970	13.604	0
                                                                                                                                                      com.netflix.hystrix.HystrixCommand$1.call(Subscriber)	217,970	13.604	0
                                                                                                                                                         com.netflix.hystrix.HystrixCommand$1.call(Object)	217,970	13.604	0
                                                                                                                                                            rx.Observable$2.call(Subscriber)	217,970	13.604	0
                                                                                                                                                               rx.Observable$2.call(Object)	217,970	13.604	0
                                                                                                                                                                  rx.Observable$2.call(Subscriber)	217,970	13.604	0
                                                                                                                                                                     rx.Observable$2.call(Object)	217,970	13.604	0
                                                                                                                                                                        rx.Observable$2.call(Subscriber)	217,970	13.604	0
                                                                                                                                                                           rx.Observable$2.call(Object)	217,970	13.604	0
```

* These exceptions do not affect the functionality of the service itself
* They are not logged in any of the application log files
* I managed to find these via flight recorder
* The consequence is that because of the huge number of exception objects created, I see a lot of memory pressure on the service - leading to full GCs

Below are details of spring/springboot versions used:

```java
<spring.boot.version>1.5.4.RELEASE</spring.boot.version>
<spring.version>4.2.7.RELEASE</spring.version>
```

I did quite a bit of searching to see if this issue is already known. While there are many similar issues, all pointing to bugs in tomcat, the below one looked the closest to my situation.

https://bz.apache.org/bugzilla/show_bug.cgi?id=61503

As per the suggestions mentioned in the above ticket, tried upgrading tomcat from 8.5.15 to 8.5.21, without much success.

Any help would be highly appreciated.


---

**Attachments:**
- [Exception.png](https://jira.spring.io/secure/attachment/25315/Exception.png) (_141.38 kB_)
", "json":"{"url":"https://api.github.com/repos/spring-projects/spring-framework/issues/20823","repository_url":"https://api.github.com/repos/spring-projects/spring-framework","labels_url":"https://api.github.com/repos/spring-projects/spring-framework/issues/20823/labels{/name}","comments_url":"https://api.github.com/repos/spring-projects/spring-framework/issues/20823/comments","events_url":"https://api.github.com/repos/spring-projects/spring-framework/issues/20823/events","html_url":"https://github.com/spring-projects/spring-framework/issues/20823","id":398219842,"node_id":"MDU6SXNzdWUzOTgyMTk4NDI=","number":20823,"title":"Exceptions of type \"Message: JAR entry META-INF /services/* not found in /<service.jar>\" [SPR-16276]","user":{"login":"spring-issuemaster","id":16028288,"node_id":"MDQ6VXNlcjE2MDI4Mjg4","avatar_url":"https://avatars2.githubusercontent.com/u/16028288?v=4","gravatar_id":"","url":"https://api.github.com/users/spring-issuemaster","html_url":"https://github.com/spring-issuemaster","followers_url":"https://api.github.com/users/spring-issuemaster/followers","following_url":"https://api.github.com/users/spring-issuemaster/following{/other_user}","gists_url":"https://api.github.com/users/spring-issuemaster/gists{/gist_id}","starred_url":"https://api.github.com/users/spring-issuemaster/starred{/owner}{/repo}","subscriptions_url":"https://api.github.com/users/spring-issuemaster/subscriptions","organizations_url":"https://api.github.com/users/spring-issuemaster/orgs","repos_url":"https://api.github.com/users/spring-issuemaster/repos","events_url":"https://api.github.com/users/spring-issuemaster/events{/privacy}","received_events_url":"https://api.github.com/users/spring-issuemaster/received_events","type":"User","site_admin":false},"labels":[{"id":1188511975,"node_id":"MDU6TGFiZWwxMTg4NTExOTc1","url":"https://api.github.com/repos/spring-projects/spring-framework/labels/status:%20invalid","name":"status: invalid","color":"fef2c0","default":false}],"state":"closed","locked":false,"assignee":{"login":"snicoll","id":490484,"node_id":"MDQ6VXNlcjQ5MDQ4NA==","avatar_url":"https://avatars0.githubusercontent.com/u/490484?v=4","gravatar_id":"","url":"https://api.github.com/users/snicoll","html_url":"https://github.com/snicoll","followers_url":"https://api.github.com/users/snicoll/followers","following_url":"https://api.github.com/users/snicoll/following{/other_user}","gists_url":"https://api.github.com/users/snicoll/gists{/gist_id}","starred_url":"https://api.github.com/users/snicoll/starred{/owner}{/repo}","subscriptions_url":"https://api.github.com/users/snicoll/subscriptions","organizations_url":"https://api.github.com/users/snicoll/orgs","repos_url":"https://api.github.com/users/snicoll/repos","events_url":"https://api.github.com/users/snicoll/events{/privacy}","received_events_url":"https://api.github.com/users/snicoll/received_events","type":"User","site_admin":false},"assignees":[{"login":"snicoll","id":490484,"node_id":"MDQ6VXNlcjQ5MDQ4NA==","avatar_url":"https://avatars0.githubusercontent.com/u/490484?v=4","gravatar_id":"","url":"https://api.github.com/users/snicoll","html_url":"https://github.com/snicoll","followers_url":"https://api.github.com/users/snicoll/followers","following_url":"https://api.github.com/users/snicoll/following{/other_user}","gists_url":"https://api.github.com/users/snicoll/gists{/gist_id}","starred_url":"https://api.github.com/users/snicoll/starred{/owner}{/repo}","subscriptions_url":"https://api.github.com/users/snicoll/subscriptions","organizations_url":"https://api.github.com/users/snicoll/orgs","repos_url":"https://api.github.com/users/snicoll/repos","events_url":"https://api.github.com/users/snicoll/events{/privacy}","received_events_url":"https://api.github.com/users/snicoll/received_events","type":"User","site_admin":false}],"milestone":null,"comments":1,"created_at":"2017-12-07T09:07:57Z","updated_at":"2019-01-12T05:19:45Z","closed_at":"2017-12-07T19:43:30Z","author_association":"COLLABORATOR","body":"**[Sasidhar Sekar](https://jira.spring.io/secure/ViewProfile.jspa?name=sasidharsmit)** opened **[SPR-16276](https://jira.spring.io/browse/SPR-16276?redirect=false)** and commented\n\nSeeing more than 2 million instances of the below exceptions in springboot based microservice.\n\n!Exception.png|thumbnail!\n\n```java\nStack Trace\tCount\tPercentage(%)\tTotal\njava.lang.Throwable.<init>(String)\t1,532,051\t95.618\t0\n   java.lang.Exception.<init>(String)\t1,532,051\t95.618\t0\n      java.io.IOException.<init>(String)\t1,503,857\t93.858\t0\n         java.io.FileNotFoundException.<init>(String)\t1,503,782\t93.854\t0\n            org.springframework.boot.loader.jar.JarURLConnection.throwFileNotFound(Object, JarFile)\t1,503,782\t93.854\t0\n               org.springframework.boot.loader.jar.JarURLConnection.connect()\t1,503,782\t93.854\t0\n                  org.springframework.boot.loader.jar.JarURLConnection.getInputStream()\t1,503,782\t93.854\t0\n                     sun.misc.URLClassPath$Loader.findResource(String, boolean)\t1,503,782\t93.854\t0\n                        sun.misc.URLClassPath$1.next()\t1,503,782\t93.854\t0\n                           sun.misc.URLClassPath$1.hasMoreElements()\t1,503,782\t93.854\t0\n                              java.net.URLClassLoader$3$1.run()\t1,503,782\t93.854\t0\n                                 java.net.URLClassLoader$3$1.run()\t1,503,782\t93.854\t0\n                                    java.security.AccessController.doPrivileged(PrivilegedAction, AccessControlContext)\t1,503,782\t93.854\t0\n                                       java.net.URLClassLoader$3.next()\t1,503,782\t93.854\t0\n                                          java.net.URLClassLoader$3.hasMoreElements()\t1,503,782\t93.854\t0\n                                             sun.misc.CompoundEnumeration.next()\t1,503,782\t93.854\t0\n                                                sun.misc.CompoundEnumeration.hasMoreElements()\t1,503,782\t93.854\t0\n                                                   sun.misc.CompoundEnumeration.next()\t1,503,782\t93.854\t0\n                                                      sun.misc.CompoundEnumeration.hasMoreElements()\t1,503,782\t93.854\t0\n                                                         java.util.ServiceLoader$LazyIterator.hasNextService()\t1,503,782\t93.854\t0\n                                                            java.util.ServiceLoader$LazyIterator.hasNext()\t1,503,782\t93.854\t0\n                                                               java.util.ServiceLoader$1.hasNext()\t1,503,782\t93.854\t0\n                                                                  javax.xml.transform.FactoryFinder$1.run()\t1,046,435\t65.31\t0\n                                                                     java.security.AccessController.doPrivileged(PrivilegedAction)\t1,046,435\t65.31\t0\n                                                                        javax.xml.transform.FactoryFinder.findServiceProvider(Class)\t1,046,435\t65.31\t0\n                                                                           javax.xml.transform.FactoryFinder.find(Class, String)\t1,046,435\t65.31\t0\n                                                                              javax.xml.transform.TransformerFactory.newInstance()\t1,046,435\t65.31\t0\n                                                                                 com.sun.xml.messaging.saaj.util.transform.EfficientStreamingTransformer.<init>()\t1,046,435\t65.31\t0\n                                                                                    com.sun.xml.messaging.saaj.util.transform.EfficientStreamingTransformer.newTransformer()\t1,046,435\t65.31\t0\n                                                                                       com.sun.xml.messaging.saaj.soap.impl.EnvelopeImpl.output(OutputStream)\t589,228\t36.775\t0\n                                                                                          com.sun.xml.messaging.saaj.soap.impl.EnvelopeImpl.output(OutputStream, boolean)\t589,228\t36.775\t0\n                                                                                             com.sun.xml.messaging.saaj.soap.SOAPPartImpl.getContentAsStream()\t589,228\t36.775\t0\n                                                                                                com.sun.xml.messaging.saaj.soap.MessageImpl.getHeaderBytes()\t589,228\t36.775\t0\n                                                                                                   com.sun.xml.messaging.saaj.soap.MessageImpl.saveChanges()\t589,228\t36.775\t0\n                                                                                                      org.springframework.ws.soap.saaj.SaajSoapMessage.writeTo(OutputStream)\t589,228\t36.775\t0\n                                                                                                         org.springframework.ws.transport.AbstractWebServiceConnection.send(WebServiceMessage)\t589,228\t36.775\t0\n                                                                                                            org.springframework.ws.client.core.WebServiceTemplate.sendRequest(WebServiceConnection, WebServiceMessage)\t589,228\t36.775\t0\n                                                                                                               org.springframework.ws.client.core.WebServiceTemplate.doSendAndReceive(MessageContext, WebServiceConnection, WebServiceMessageCallback, WebServiceMessageExtractor)\t589,228\t36.775\t0\n                                                                                                                  org.springframework.ws.client.core.WebServiceTemplate.sendAndReceive(String, WebServiceMessageCallback, WebServiceMessageExtractor)\t589,228\t36.775\t0\n                                                                                                                     org.springframework.ws.client.core.WebServiceTemplate.marshalSendAndReceive(String, Object, WebServiceMessageCallback)\t589,228\t36.775\t0\n                                                                                                                        org.springframework.ws.client.core.WebServiceTemplate.marshalSendAndReceive(Object, WebServiceMessageCallback)\t589,228\t36.775\t0\n                                                                                                                           org.springframework.ws.client.core.WebServiceTemplate.marshalSendAndReceive(Object)\t589,228\t36.775\t0\n                                                                                                                              com.hotels.booking.discos.loyalty.client.LoyaltyWebServiceGateway.sendAndReceive(AbstractLoyaltyRequest)\t589,228\t36.775\t0\n                                                                                                                                 com.hotels.booking.discos.loyalty.client.LoyaltyWebServiceGateway.retrieveRewardAdjustments(LoyaltyRewardAdjustmentsRetrievalRequest)\t217,970\t13.604\t0\n                                                                                                                                    sun.reflect.GeneratedMethodAccessor334.invoke(Object, Object[])\t217,970\t13.604\t0\n                                                                                                                                       sun.reflect.DelegatingMethodAccessorImpl.invoke(Object, Object[])\t217,970\t13.604\t0\n                                                                                                                                          java.lang.reflect.Method.invoke(Object, Object[])\t217,970\t13.604\t0\n                                                                                                                                             com.hotels.thermos.proxy.GenericProxyCircuitBreaker.execute()\t217,970\t13.604\t0\n                                                                                                                                                com.hotels.thermos.AbstractCircuitBreaker.run()\t217,970\t13.604\t0\n                                                                                                                                                   com.hotels.thermos.HystrixCommandWrapper.run()\t217,970\t13.604\t0\n                                                                                                                                                      com.netflix.hystrix.HystrixCommand$1.call(Subscriber)\t217,970\t13.604\t0\n                                                                                                                                                         com.netflix.hystrix.HystrixCommand$1.call(Object)\t217,970\t13.604\t0\n                                                                                                                                                            rx.Observable$2.call(Subscriber)\t217,970\t13.604\t0\n                                                                                                                                                               rx.Observable$2.call(Object)\t217,970\t13.604\t0\n                                                                                                                                                                  rx.Observable$2.call(Subscriber)\t217,970\t13.604\t0\n                                                                                                                                                                     rx.Observable$2.call(Object)\t217,970\t13.604\t0\n                                                                                                                                                                        rx.Observable$2.call(Subscriber)\t217,970\t13.604\t0\n                                                                                                                                                                           rx.Observable$2.call(Object)\t217,970\t13.604\t0\n```\n\n* These exceptions do not affect the functionality of the service itself\n* They are not logged in any of the application log files\n* I managed to find these via flight recorder\n* The consequence is that because of the huge number of exception objects created, I see a lot of memory pressure on the service - leading to full GCs\n\nBelow are details of spring/springboot versions used:\n\n```java\n<spring.boot.version>1.5.4.RELEASE</spring.boot.version>\n<spring.version>4.2.7.RELEASE</spring.version>\n```\n\nI did quite a bit of searching to see if this issue is already known. While there are many similar issues, all pointing to bugs in tomcat, the below one looked the closest to my situation.\n\nhttps://bz.apache.org/bugzilla/show_bug.cgi?id=61503\n\nAs per the suggestions mentioned in the above ticket, tried upgrading tomcat from 8.5.15 to 8.5.21, without much success.\n\nAny help would be highly appreciated.\n\n\n---\n\n**Attachments:**\n- [Exception.png](https://jira.spring.io/secure/attachment/25315/Exception.png) (_141.38 kB_)\n","closed_by":{"login":"spring-issuemaster","id":16028288,"node_id":"MDQ6VXNlcjE2MDI4Mjg4","avatar_url":"https://avatars2.githubusercontent.com/u/16028288?v=4","gravatar_id":"","url":"https://api.github.com/users/spring-issuemaster","html_url":"https://github.com/spring-issuemaster","followers_url":"https://api.github.com/users/spring-issuemaster/followers","following_url":"https://api.github.com/users/spring-issuemaster/following{/other_user}","gists_url":"https://api.github.com/users/spring-issuemaster/gists{/gist_id}","starred_url":"https://api.github.com/users/spring-issuemaster/starred{/owner}{/repo}","subscriptions_url":"https://api.github.com/users/spring-issuemaster/subscriptions","organizations_url":"https://api.github.com/users/spring-issuemaster/orgs","repos_url":"https://api.github.com/users/spring-issuemaster/repos","events_url":"https://api.github.com/users/spring-issuemaster/events{/privacy}","received_events_url":"https://api.github.com/users/spring-issuemaster/received_events","type":"User","site_admin":false}}", "commentIds":["453464815"], "labels":["status: invalid"]}