{"id":"3512", "title":"Building 28.0 from source fails on unpack-failureaccess-sources", "body":"When I clone the repository, checkout `28.0`, and run `mvn package`, I get:

```
[INFO] Reactor Summary:
[INFO]
[INFO] Guava Maven Parent ................................. SUCCESS [  1.140 s]
[INFO] Guava: Google Core Libraries for Java .............. SUCCESS [ 44.523 s]
[INFO] Guava BOM .......................................... SUCCESS [  0.226 s]
[INFO] Guava Testing Library .............................. SUCCESS [01:47 min]
[INFO] Guava Unit Tests ................................... SUCCESS [06:17 min]
[INFO] Guava GWT compatible libs .......................... FAILURE [  1.746 s]
[INFO] ------------------------------------------------------------------------
[INFO] BUILD FAILURE
[INFO] ------------------------------------------------------------------------
[INFO] Total time: 08:56 min
[INFO] Finished at: 2019-06-26T03:06:03-07:00
[INFO] Final Memory: 53M/2369M
[INFO] ------------------------------------------------------------------------
[ERROR] Failed to execute goal org.apache.maven.plugins:maven-dependency-plugin:3.1.1:unpack-dependencies (unpack-failureaccess-sources) on project guava-gwt: Execution unpack-failureaccess-sources of goal org.apache.maven.plugins:maven-dependency-plugin:3.1.1:unpack-dependencies failed: Plugin org.apache.maven.plugins:maven-dependency-plugin:3.1.1 or one of its dependencies could not be resolved: Could not find artifact com.google.guava:guava-tests:jar:test-sources:28.0-jre in sonatype-snapshots (https://oss.sonatype.org/content/repositories/snapshots/) -> [Help 1]
```

`sonatype-snapshots` is listed as the only plugin repository, and this repository does not contain `com.google.guava:guava-tests:jar:test-sources:28.0-jre`. Is this a problem with my configuration? Is the artifact indeed missing from the repository? Am I not supposed to build Guava myself?", "json":"{"url":"https://api.github.com/repos/google/guava/issues/3512","repository_url":"https://api.github.com/repos/google/guava","labels_url":"https://api.github.com/repos/google/guava/issues/3512/labels{/name}","comments_url":"https://api.github.com/repos/google/guava/issues/3512/comments","events_url":"https://api.github.com/repos/google/guava/issues/3512/events","html_url":"https://github.com/google/guava/issues/3512","id":460882448,"node_id":"MDU6SXNzdWU0NjA4ODI0NDg=","number":3512,"title":"Building 28.0 from source fails on unpack-failureaccess-sources","user":{"login":"MartijnDwars","id":426811,"node_id":"MDQ6VXNlcjQyNjgxMQ==","avatar_url":"https://avatars2.githubusercontent.com/u/426811?v=4","gravatar_id":"","url":"https://api.github.com/users/MartijnDwars","html_url":"https://github.com/MartijnDwars","followers_url":"https://api.github.com/users/MartijnDwars/followers","following_url":"https://api.github.com/users/MartijnDwars/following{/other_user}","gists_url":"https://api.github.com/users/MartijnDwars/gists{/gist_id}","starred_url":"https://api.github.com/users/MartijnDwars/starred{/owner}{/repo}","subscriptions_url":"https://api.github.com/users/MartijnDwars/subscriptions","organizations_url":"https://api.github.com/users/MartijnDwars/orgs","repos_url":"https://api.github.com/users/MartijnDwars/repos","events_url":"https://api.github.com/users/MartijnDwars/events{/privacy}","received_events_url":"https://api.github.com/users/MartijnDwars/received_events","type":"User","site_admin":false},"labels":[],"state":"closed","locked":false,"assignee":null,"assignees":[],"milestone":null,"comments":1,"created_at":"2019-06-26T10:13:24Z","updated_at":"2019-06-26T11:23:52Z","closed_at":"2019-06-26T11:23:52Z","author_association":"NONE","body":"When I clone the repository, checkout `28.0`, and run `mvn package`, I get:\r\n\r\n```\r\n[INFO] Reactor Summary:\r\n[INFO]\r\n[INFO] Guava Maven Parent ................................. SUCCESS [  1.140 s]\r\n[INFO] Guava: Google Core Libraries for Java .............. SUCCESS [ 44.523 s]\r\n[INFO] Guava BOM .......................................... SUCCESS [  0.226 s]\r\n[INFO] Guava Testing Library .............................. SUCCESS [01:47 min]\r\n[INFO] Guava Unit Tests ................................... SUCCESS [06:17 min]\r\n[INFO] Guava GWT compatible libs .......................... FAILURE [  1.746 s]\r\n[INFO] ------------------------------------------------------------------------\r\n[INFO] BUILD FAILURE\r\n[INFO] ------------------------------------------------------------------------\r\n[INFO] Total time: 08:56 min\r\n[INFO] Finished at: 2019-06-26T03:06:03-07:00\r\n[INFO] Final Memory: 53M/2369M\r\n[INFO] ------------------------------------------------------------------------\r\n[ERROR] Failed to execute goal org.apache.maven.plugins:maven-dependency-plugin:3.1.1:unpack-dependencies (unpack-failureaccess-sources) on project guava-gwt: Execution unpack-failureaccess-sources of goal org.apache.maven.plugins:maven-dependency-plugin:3.1.1:unpack-dependencies failed: Plugin org.apache.maven.plugins:maven-dependency-plugin:3.1.1 or one of its dependencies could not be resolved: Could not find artifact com.google.guava:guava-tests:jar:test-sources:28.0-jre in sonatype-snapshots (https://oss.sonatype.org/content/repositories/snapshots/) -> [Help 1]\r\n```\r\n\r\n`sonatype-snapshots` is listed as the only plugin repository, and this repository does not contain `com.google.guava:guava-tests:jar:test-sources:28.0-jre`. Is this a problem with my configuration? Is the artifact indeed missing from the repository? Am I not supposed to build Guava myself?","closed_by":{"login":"MartijnDwars","id":426811,"node_id":"MDQ6VXNlcjQyNjgxMQ==","avatar_url":"https://avatars2.githubusercontent.com/u/426811?v=4","gravatar_id":"","url":"https://api.github.com/users/MartijnDwars","html_url":"https://github.com/MartijnDwars","followers_url":"https://api.github.com/users/MartijnDwars/followers","following_url":"https://api.github.com/users/MartijnDwars/following{/other_user}","gists_url":"https://api.github.com/users/MartijnDwars/gists{/gist_id}","starred_url":"https://api.github.com/users/MartijnDwars/starred{/owner}{/repo}","subscriptions_url":"https://api.github.com/users/MartijnDwars/subscriptions","organizations_url":"https://api.github.com/users/MartijnDwars/orgs","repos_url":"https://api.github.com/users/MartijnDwars/repos","events_url":"https://api.github.com/users/MartijnDwars/events{/privacy}","received_events_url":"https://api.github.com/users/MartijnDwars/received_events","type":"User","site_admin":false}}", "commentIds":["505833803"], "labels":[]}