{"id":"25682", "title":"Released versions tests failure in 5.4", "body":"there is an expectation that `5.4` tests be aware of the released `5.5`. This check fails:

```
Execution failed for task ':core:verifyVersions'.
> out-of-date released versions
  Actual  :[2.0.0, 2.0.1, 2.0.2, 2.1.0, 2.1.1, 2.1.2, 2.2.0, 2.2.1, 2.2.2, 2.3.0, 2.3.1, 2.3.2, 2.3.3, 2.3.4, 2.3.5, 2.4.0, 2.4.1, 2.4.2, 2.4.3, 2.4.4, 2.4.5, 5.0.0, 5.0.1, 5.0.2, 5.1.1, 5.1.2, 5.2.0, 5.2.1, 5.2.2, 5.3.0, 5.3.1, 5.3.2, 5.3.3, 5.4.0, 5.4.1, 5.4.2, 5.4.3]
  Expected:[2.0.0, 2.0.1, 2.0.2, 2.1.0, 2.1.1, 2.1.2, 2.2.0, 2.2.1, 2.2.2, 2.3.0, 2.3.1, 2.3.2, 2.3.3, 2.3.4, 2.3.5, 2.4.0, 2.4.1, 2.4.2, 2.4.3, 2.4.4, 2.4.5, 5.0.0, 5.0.1, 5.0.2, 5.1.1, 5.1.2, 5.2.0, 5.2.1, 5.2.2, 5.3.0, 5.3.1, 5.3.2, 5.3.3, 5.4.0, 5.4.1, 5.4.2, 5.4.3, 5.5.0]
```

console logs:
https://elasticsearch-ci.elastic.co/job/elastic+elasticsearch+5.4+intake/2/console
https://elasticsearch-ci.elastic.co/job/elastic+elasticsearch+5.4+intake/3/console

guess it checks maven for all released versions... maybe it makes sense to filter until Version.CURRENT?", "json":"{"url":"https://api.github.com/repos/elastic/elasticsearch/issues/25682","repository_url":"https://api.github.com/repos/elastic/elasticsearch","labels_url":"https://api.github.com/repos/elastic/elasticsearch/issues/25682/labels{/name}","comments_url":"https://api.github.com/repos/elastic/elasticsearch/issues/25682/comments","events_url":"https://api.github.com/repos/elastic/elasticsearch/issues/25682/events","html_url":"https://github.com/elastic/elasticsearch/issues/25682","id":242433689,"node_id":"MDU6SXNzdWUyNDI0MzM2ODk=","number":25682,"title":"Released versions tests failure in 5.4","user":{"login":"talevy","id":388837,"node_id":"MDQ6VXNlcjM4ODgzNw==","avatar_url":"https://avatars0.githubusercontent.com/u/388837?v=4","gravatar_id":"","url":"https://api.github.com/users/talevy","html_url":"https://github.com/talevy","followers_url":"https://api.github.com/users/talevy/followers","following_url":"https://api.github.com/users/talevy/following{/other_user}","gists_url":"https://api.github.com/users/talevy/gists{/gist_id}","starred_url":"https://api.github.com/users/talevy/starred{/owner}{/repo}","subscriptions_url":"https://api.github.com/users/talevy/subscriptions","organizations_url":"https://api.github.com/users/talevy/orgs","repos_url":"https://api.github.com/users/talevy/repos","events_url":"https://api.github.com/users/talevy/events{/privacy}","received_events_url":"https://api.github.com/users/talevy/received_events","type":"User","site_admin":false},"labels":[{"id":60445228,"node_id":"MDU6TGFiZWw2MDQ0NTIyOA==","url":"https://api.github.com/repos/elastic/elasticsearch/labels/%3Etest","name":">test","color":"5319e7","default":false},{"id":635146979,"node_id":"MDU6TGFiZWw2MzUxNDY5Nzk=","url":"https://api.github.com/repos/elastic/elasticsearch/labels/v5.4.4","name":"v5.4.4","color":"dddddd","default":false}],"state":"closed","locked":false,"assignee":null,"assignees":[],"milestone":null,"comments":1,"created_at":"2017-07-12T16:05:07Z","updated_at":"2017-07-12T16:13:18Z","closed_at":"2017-07-12T16:08:53Z","author_association":"CONTRIBUTOR","body":"there is an expectation that `5.4` tests be aware of the released `5.5`. This check fails:\r\n\r\n```\r\nExecution failed for task ':core:verifyVersions'.\r\n> out-of-date released versions\r\n  Actual  :[2.0.0, 2.0.1, 2.0.2, 2.1.0, 2.1.1, 2.1.2, 2.2.0, 2.2.1, 2.2.2, 2.3.0, 2.3.1, 2.3.2, 2.3.3, 2.3.4, 2.3.5, 2.4.0, 2.4.1, 2.4.2, 2.4.3, 2.4.4, 2.4.5, 5.0.0, 5.0.1, 5.0.2, 5.1.1, 5.1.2, 5.2.0, 5.2.1, 5.2.2, 5.3.0, 5.3.1, 5.3.2, 5.3.3, 5.4.0, 5.4.1, 5.4.2, 5.4.3]\r\n  Expected:[2.0.0, 2.0.1, 2.0.2, 2.1.0, 2.1.1, 2.1.2, 2.2.0, 2.2.1, 2.2.2, 2.3.0, 2.3.1, 2.3.2, 2.3.3, 2.3.4, 2.3.5, 2.4.0, 2.4.1, 2.4.2, 2.4.3, 2.4.4, 2.4.5, 5.0.0, 5.0.1, 5.0.2, 5.1.1, 5.1.2, 5.2.0, 5.2.1, 5.2.2, 5.3.0, 5.3.1, 5.3.2, 5.3.3, 5.4.0, 5.4.1, 5.4.2, 5.4.3, 5.5.0]\r\n```\r\n\r\nconsole logs:\r\nhttps://elasticsearch-ci.elastic.co/job/elastic+elasticsearch+5.4+intake/2/console\r\nhttps://elasticsearch-ci.elastic.co/job/elastic+elasticsearch+5.4+intake/3/console\r\n\r\nguess it checks maven for all released versions... maybe it makes sense to filter until Version.CURRENT?","closed_by":{"login":"jasontedor","id":4744941,"node_id":"MDQ6VXNlcjQ3NDQ5NDE=","avatar_url":"https://avatars3.githubusercontent.com/u/4744941?v=4","gravatar_id":"","url":"https://api.github.com/users/jasontedor","html_url":"https://github.com/jasontedor","followers_url":"https://api.github.com/users/jasontedor/followers","following_url":"https://api.github.com/users/jasontedor/following{/other_user}","gists_url":"https://api.github.com/users/jasontedor/gists{/gist_id}","starred_url":"https://api.github.com/users/jasontedor/starred{/owner}{/repo}","subscriptions_url":"https://api.github.com/users/jasontedor/subscriptions","organizations_url":"https://api.github.com/users/jasontedor/orgs","repos_url":"https://api.github.com/users/jasontedor/repos","events_url":"https://api.github.com/users/jasontedor/events{/privacy}","received_events_url":"https://api.github.com/users/jasontedor/received_events","type":"User","site_admin":false}}", "commentIds":["314818205"], "labels":[">test","v5.4.4"]}