{"id":"25775", "title":"Cryptic error message for pipeline aggregations based on combination of nested and reverse_nested aggs", "body":"ES version **2.4.1**:

Consider the following mapping:

```json
{
    \"timestamp_source\": {
        \"type\": \"nested\",
        \"properties\": {
            \"my_timestamp_1\": {
                \"type\": \"date\"
            },
            \"my_timestamp_2\": {
                \"type\": \"date\"
            }
        }
    },
    \"quantity\": {
        \"type\": \"float\"
    }
}
```

and the following document:

```json
{
    \"timestamp_source\": [
        {
            \"my_timestamp_1\": \"2014-05-11T23:52:38+0000\",
            \"my_timestamp_2\": \"2015-05-11T23:52:38+0000\"
        },
        {
            \"my_timestamp_1\": \"2016-05-11T23:52:38+0000\",
            \"my_timestamp_2\": \"2017-05-11T23:52:38+0000\"
        }
    ],
    \"quantity\": 42
}
```

I'm after bucketing the timestamps, summing the quantities and calculating the `avg_bucket`. However the following query fails w/ a cryptic error msg:

```bash
curl -XGET 'localhost:9200/my_index/_search?pretty&size=0' -d '
{
    \"query\": {
        \"match_all\": {}
    },
    \"aggs\": {
        \"by_frequency\": {
            \"nested\": {
                \"path\": \"timestamp_source\"
            },
            \"aggs\": {
                \"by_frequency\": {
                    \"date_histogram\": {
                        \"field\": \"timestamp_source.my_timestamp_1\",
                        \"interval\": \"month\",
                        \"min_doc_count\": 0
                    },
                    \"aggs\": {
                        \"total\": {
                            \"reverse_nested\": {},
                            \"aggs\": {
                                \"total\": {
                                    \"sum\": {
                                        \"field\": \"quantity\"
                                    }
                                }
                            }
                        }
                    }
                }
            }
        },
        \"monthly_average\": {
            \"avg_bucket\": {
                \"buckets_path\": \"by_frequency>by_frequency>total>total\",
                \"gap_policy\": \"insert_zeros\"
            }
        }
    }
}
'

{
  \"error\" : {
    \"root_cause\" : [ ],
    \"type\" : \"reduce_search_phase_exception\",
    \"reason\" : \"[reduce] \",
    \"phase\" : \"fetch\",
    \"grouped\" : true,
    \"failed_shards\" : [ ],
    \"caused_by\" : {
      \"type\" : \"class_cast_exception\",
      \"reason\" : null
    }
  },
  \"status\" : 503
}
```

**Actual behaviour**

The error message isn't descriptive enough.

**Expected behaviour**

The 'reason' field explains in more detail the reasons behind failure.

Alternatively (if this query is valid), the query succeeds.

", "json":"{"url":"https://api.github.com/repos/elastic/elasticsearch/issues/25775","repository_url":"https://api.github.com/repos/elastic/elasticsearch","labels_url":"https://api.github.com/repos/elastic/elasticsearch/issues/25775/labels{/name}","comments_url":"https://api.github.com/repos/elastic/elasticsearch/issues/25775/comments","events_url":"https://api.github.com/repos/elastic/elasticsearch/issues/25775/events","html_url":"https://github.com/elastic/elasticsearch/issues/25775","id":243744167,"node_id":"MDU6SXNzdWUyNDM3NDQxNjc=","number":25775,"title":"Cryptic error message for pipeline aggregations based on combination of nested and reverse_nested aggs","user":{"login":"kujon","id":503380,"node_id":"MDQ6VXNlcjUwMzM4MA==","avatar_url":"https://avatars0.githubusercontent.com/u/503380?v=4","gravatar_id":"","url":"https://api.github.com/users/kujon","html_url":"https://github.com/kujon","followers_url":"https://api.github.com/users/kujon/followers","following_url":"https://api.github.com/users/kujon/following{/other_user}","gists_url":"https://api.github.com/users/kujon/gists{/gist_id}","starred_url":"https://api.github.com/users/kujon/starred{/owner}{/repo}","subscriptions_url":"https://api.github.com/users/kujon/subscriptions","organizations_url":"https://api.github.com/users/kujon/orgs","repos_url":"https://api.github.com/users/kujon/repos","events_url":"https://api.github.com/users/kujon/events{/privacy}","received_events_url":"https://api.github.com/users/kujon/received_events","type":"User","site_admin":false},"labels":[{"id":141141324,"node_id":"MDU6TGFiZWwxNDExNDEzMjQ=","url":"https://api.github.com/repos/elastic/elasticsearch/labels/:Analytics/Aggregations","name":":Analytics/Aggregations","color":"0e8a16","default":false},{"id":23173,"node_id":"MDU6TGFiZWwyMzE3Mw==","url":"https://api.github.com/repos/elastic/elasticsearch/labels/%3Ebug","name":">bug","color":"b60205","default":false}],"state":"closed","locked":false,"assignee":{"login":"colings86","id":236731,"node_id":"MDQ6VXNlcjIzNjczMQ==","avatar_url":"https://avatars0.githubusercontent.com/u/236731?v=4","gravatar_id":"","url":"https://api.github.com/users/colings86","html_url":"https://github.com/colings86","followers_url":"https://api.github.com/users/colings86/followers","following_url":"https://api.github.com/users/colings86/following{/other_user}","gists_url":"https://api.github.com/users/colings86/gists{/gist_id}","starred_url":"https://api.github.com/users/colings86/starred{/owner}{/repo}","subscriptions_url":"https://api.github.com/users/colings86/subscriptions","organizations_url":"https://api.github.com/users/colings86/orgs","repos_url":"https://api.github.com/users/colings86/repos","events_url":"https://api.github.com/users/colings86/events{/privacy}","received_events_url":"https://api.github.com/users/colings86/received_events","type":"User","site_admin":false},"assignees":[{"login":"colings86","id":236731,"node_id":"MDQ6VXNlcjIzNjczMQ==","avatar_url":"https://avatars0.githubusercontent.com/u/236731?v=4","gravatar_id":"","url":"https://api.github.com/users/colings86","html_url":"https://github.com/colings86","followers_url":"https://api.github.com/users/colings86/followers","following_url":"https://api.github.com/users/colings86/following{/other_user}","gists_url":"https://api.github.com/users/colings86/gists{/gist_id}","starred_url":"https://api.github.com/users/colings86/starred{/owner}{/repo}","subscriptions_url":"https://api.github.com/users/colings86/subscriptions","organizations_url":"https://api.github.com/users/colings86/orgs","repos_url":"https://api.github.com/users/colings86/repos","events_url":"https://api.github.com/users/colings86/events{/privacy}","received_events_url":"https://api.github.com/users/colings86/received_events","type":"User","site_admin":false}],"milestone":null,"comments":4,"created_at":"2017-07-18T14:51:17Z","updated_at":"2017-08-24T11:05:03Z","closed_at":"2017-08-24T11:05:03Z","author_association":"NONE","body":"ES version **2.4.1**:\r\n\r\nConsider the following mapping:\r\n\r\n```json\r\n{\r\n    \"timestamp_source\": {\r\n        \"type\": \"nested\",\r\n        \"properties\": {\r\n            \"my_timestamp_1\": {\r\n                \"type\": \"date\"\r\n            },\r\n            \"my_timestamp_2\": {\r\n                \"type\": \"date\"\r\n            }\r\n        }\r\n    },\r\n    \"quantity\": {\r\n        \"type\": \"float\"\r\n    }\r\n}\r\n```\r\n\r\nand the following document:\r\n\r\n```json\r\n{\r\n    \"timestamp_source\": [\r\n        {\r\n            \"my_timestamp_1\": \"2014-05-11T23:52:38+0000\",\r\n            \"my_timestamp_2\": \"2015-05-11T23:52:38+0000\"\r\n        },\r\n        {\r\n            \"my_timestamp_1\": \"2016-05-11T23:52:38+0000\",\r\n            \"my_timestamp_2\": \"2017-05-11T23:52:38+0000\"\r\n        }\r\n    ],\r\n    \"quantity\": 42\r\n}\r\n```\r\n\r\nI'm after bucketing the timestamps, summing the quantities and calculating the `avg_bucket`. However the following query fails w/ a cryptic error msg:\r\n\r\n```bash\r\ncurl -XGET 'localhost:9200/my_index/_search?pretty&size=0' -d '\r\n{\r\n    \"query\": {\r\n        \"match_all\": {}\r\n    },\r\n    \"aggs\": {\r\n        \"by_frequency\": {\r\n            \"nested\": {\r\n                \"path\": \"timestamp_source\"\r\n            },\r\n            \"aggs\": {\r\n                \"by_frequency\": {\r\n                    \"date_histogram\": {\r\n                        \"field\": \"timestamp_source.my_timestamp_1\",\r\n                        \"interval\": \"month\",\r\n                        \"min_doc_count\": 0\r\n                    },\r\n                    \"aggs\": {\r\n                        \"total\": {\r\n                            \"reverse_nested\": {},\r\n                            \"aggs\": {\r\n                                \"total\": {\r\n                                    \"sum\": {\r\n                                        \"field\": \"quantity\"\r\n                                    }\r\n                                }\r\n                            }\r\n                        }\r\n                    }\r\n                }\r\n            }\r\n        },\r\n        \"monthly_average\": {\r\n            \"avg_bucket\": {\r\n                \"buckets_path\": \"by_frequency>by_frequency>total>total\",\r\n                \"gap_policy\": \"insert_zeros\"\r\n            }\r\n        }\r\n    }\r\n}\r\n'\r\n\r\n{\r\n  \"error\" : {\r\n    \"root_cause\" : [ ],\r\n    \"type\" : \"reduce_search_phase_exception\",\r\n    \"reason\" : \"[reduce] \",\r\n    \"phase\" : \"fetch\",\r\n    \"grouped\" : true,\r\n    \"failed_shards\" : [ ],\r\n    \"caused_by\" : {\r\n      \"type\" : \"class_cast_exception\",\r\n      \"reason\" : null\r\n    }\r\n  },\r\n  \"status\" : 503\r\n}\r\n```\r\n\r\n**Actual behaviour**\r\n\r\nThe error message isn't descriptive enough.\r\n\r\n**Expected behaviour**\r\n\r\nThe 'reason' field explains in more detail the reasons behind failure.\r\n\r\nAlternatively (if this query is valid), the query succeeds.\r\n\r\n","closed_by":{"login":"colings86","id":236731,"node_id":"MDQ6VXNlcjIzNjczMQ==","avatar_url":"https://avatars0.githubusercontent.com/u/236731?v=4","gravatar_id":"","url":"https://api.github.com/users/colings86","html_url":"https://github.com/colings86","followers_url":"https://api.github.com/users/colings86/followers","following_url":"https://api.github.com/users/colings86/following{/other_user}","gists_url":"https://api.github.com/users/colings86/gists{/gist_id}","starred_url":"https://api.github.com/users/colings86/starred{/owner}{/repo}","subscriptions_url":"https://api.github.com/users/colings86/subscriptions","organizations_url":"https://api.github.com/users/colings86/orgs","repos_url":"https://api.github.com/users/colings86/repos","events_url":"https://api.github.com/users/colings86/events{/privacy}","received_events_url":"https://api.github.com/users/colings86/received_events","type":"User","site_admin":false}}", "commentIds":["316092845","316101780","316102930","317001941"], "labels":[":Analytics/Aggregations",">bug"]}