{"id":"26760", "title":"Painless filter returns error \"Variable [doc] is not defined.\"", "body":"<!-- Bug report -->

**Elasticsearch version** (`bin/elasticsearch --version`): master
**JVM version** (`java -version`): 1.8.0_131
**OS version** (`uname -a` if on a Unix-like system): macOS Sierra 10.12.6

**Description of the problem including expected versus actual behavior**:

In Kibana, when a user interacts with the UI to create a filter on a scripted field, we create a script filter that looks like this:

```
{
  \"script\": {
    \"script\": {
      \"inline\": \"boolean compare(Supplier s, def v) {return s.get() == v;}compare(() -> { doc['bytes'].value * 2; }, params.value);\",
      \"lang\": \"painless\",
      \"params\": {
        \"value\": 6022
      }
    }
  }
```

In this case, `doc['bytes'].value * 2;` is the user defined script. The rest we add in order to do a comparison against the value the user's script produces.

In master, the above script query is returning the following error:

```
{
  \"type\": \"query_shard_exception\",
  \"reason\": \"failed to create query: {\\n  \\\"bool\\\" : {\\n    \\\"must\\\" : [\\n      {\\n        \\\"match_all\\\" : {\\n          \\\"boost\\\" : 1.0\\n        }\\n      },\\n      {\\n        \\\"script\\\" : {\\n          \\\"script\\\" : {\\n            \\\"source\\\" : \\\"boolean compare(Supplier s, def v) {return s.get() == v;}compare(() -> { doc['bytes'].value * 2; }, params.value);\\\",\\n            \\\"lang\\\" : \\\"painless\\\",\\n            \\\"params\\\" : {\\n              \\\"value\\\" : 6022\\n            }\\n          },\\n          \\\"boost\\\" : 1.0\\n        }\\n      },\\n      {\\n        \\\"range\\\" : {\\n          \\\"@timestamp\\\" : {\\n            \\\"from\\\" : null,\\n            \\\"to\\\" : null,\\n            \\\"include_lower\\\" : true,\\n            \\\"include_upper\\\" : true,\\n            \\\"boost\\\" : 1.0\\n          }\\n        }\\n      }\\n    ],\\n    \\\"adjust_pure_negative\\\" : true,\\n    \\\"boost\\\" : 1.0\\n  }\\n}\",
  \"index_uuid\": \"nqVm9Xt2QPGXJ7M5myvrPg\",
  \"index\": \"logstash-0\",
  \"caused_by\": {
    \"type\": \"script_exception\",
    \"reason\": \"compile error\",
    \"script_stack\": [
      \"... () == v;}compare(() -> { doc['bytes'].value * 2; } ...\",
      \"                             ^---- HERE\"
    ],
    \"script\": \"boolean compare(Supplier s, def v) {return s.get() == v;}compare(() -> { doc['bytes'].value * 2; }, params.value);\",
    \"lang\": \"painless\",
    \"caused_by\": {
      \"type\": \"illegal_argument_exception\",
      \"reason\": \"Variable [doc] is not defined.\"
    }
  }
}
```

I can't reproduce in 6.0 or 5.6 so this seems to be a relatively recent change.

cc @nik9000 since he helped us put together the script originally 
", "json":"{"url":"https://api.github.com/repos/elastic/elasticsearch/issues/26760","repository_url":"https://api.github.com/repos/elastic/elasticsearch","labels_url":"https://api.github.com/repos/elastic/elasticsearch/issues/26760/labels{/name}","comments_url":"https://api.github.com/repos/elastic/elasticsearch/issues/26760/comments","events_url":"https://api.github.com/repos/elastic/elasticsearch/issues/26760/events","html_url":"https://github.com/elastic/elasticsearch/issues/26760","id":259916078,"node_id":"MDU6SXNzdWUyNTk5MTYwNzg=","number":26760,"title":"Painless filter returns error \"Variable [doc] is not defined.\"","user":{"login":"Bargs","id":6239176,"node_id":"MDQ6VXNlcjYyMzkxNzY=","avatar_url":"https://avatars3.githubusercontent.com/u/6239176?v=4","gravatar_id":"","url":"https://api.github.com/users/Bargs","html_url":"https://github.com/Bargs","followers_url":"https://api.github.com/users/Bargs/followers","following_url":"https://api.github.com/users/Bargs/following{/other_user}","gists_url":"https://api.github.com/users/Bargs/gists{/gist_id}","starred_url":"https://api.github.com/users/Bargs/starred{/owner}{/repo}","subscriptions_url":"https://api.github.com/users/Bargs/subscriptions","organizations_url":"https://api.github.com/users/Bargs/orgs","repos_url":"https://api.github.com/users/Bargs/repos","events_url":"https://api.github.com/users/Bargs/events{/privacy}","received_events_url":"https://api.github.com/users/Bargs/received_events","type":"User","site_admin":false},"labels":[{"id":146834791,"node_id":"MDU6TGFiZWwxNDY4MzQ3OTE=","url":"https://api.github.com/repos/elastic/elasticsearch/labels/:Core/Infra/Scripting","name":":Core/Infra/Scripting","color":"0e8a16","default":false},{"id":23173,"node_id":"MDU6TGFiZWwyMzE3Mw==","url":"https://api.github.com/repos/elastic/elasticsearch/labels/%3Ebug","name":">bug","color":"b60205","default":false},{"id":92913658,"node_id":"MDU6TGFiZWw5MjkxMzY1OA==","url":"https://api.github.com/repos/elastic/elasticsearch/labels/blocker","name":"blocker","color":"e11d21","default":false},{"id":654494999,"node_id":"MDU6TGFiZWw2NTQ0OTQ5OTk=","url":"https://api.github.com/repos/elastic/elasticsearch/labels/v6.1.0","name":"v6.1.0","color":"dddddd","default":false},{"id":1223177445,"node_id":"MDU6TGFiZWwxMjIzMTc3NDQ1","url":"https://api.github.com/repos/elastic/elasticsearch/labels/v7.0.0-beta1","name":"v7.0.0-beta1","color":"dddddd","default":false}],"state":"closed","locked":false,"assignee":{"login":"rjernst","id":289412,"node_id":"MDQ6VXNlcjI4OTQxMg==","avatar_url":"https://avatars3.githubusercontent.com/u/289412?v=4","gravatar_id":"","url":"https://api.github.com/users/rjernst","html_url":"https://github.com/rjernst","followers_url":"https://api.github.com/users/rjernst/followers","following_url":"https://api.github.com/users/rjernst/following{/other_user}","gists_url":"https://api.github.com/users/rjernst/gists{/gist_id}","starred_url":"https://api.github.com/users/rjernst/starred{/owner}{/repo}","subscriptions_url":"https://api.github.com/users/rjernst/subscriptions","organizations_url":"https://api.github.com/users/rjernst/orgs","repos_url":"https://api.github.com/users/rjernst/repos","events_url":"https://api.github.com/users/rjernst/events{/privacy}","received_events_url":"https://api.github.com/users/rjernst/received_events","type":"User","site_admin":false},"assignees":[{"login":"rjernst","id":289412,"node_id":"MDQ6VXNlcjI4OTQxMg==","avatar_url":"https://avatars3.githubusercontent.com/u/289412?v=4","gravatar_id":"","url":"https://api.github.com/users/rjernst","html_url":"https://github.com/rjernst","followers_url":"https://api.github.com/users/rjernst/followers","following_url":"https://api.github.com/users/rjernst/following{/other_user}","gists_url":"https://api.github.com/users/rjernst/gists{/gist_id}","starred_url":"https://api.github.com/users/rjernst/starred{/owner}{/repo}","subscriptions_url":"https://api.github.com/users/rjernst/subscriptions","organizations_url":"https://api.github.com/users/rjernst/orgs","repos_url":"https://api.github.com/users/rjernst/repos","events_url":"https://api.github.com/users/rjernst/events{/privacy}","received_events_url":"https://api.github.com/users/rjernst/received_events","type":"User","site_admin":false}],"milestone":null,"comments":9,"created_at":"2017-09-22T19:37:37Z","updated_at":"2019-02-07T10:23:46Z","closed_at":"2017-11-28T21:30:13Z","author_association":"NONE","body":"<!-- Bug report -->\r\n\r\n**Elasticsearch version** (`bin/elasticsearch --version`): master\r\n**JVM version** (`java -version`): 1.8.0_131\r\n**OS version** (`uname -a` if on a Unix-like system): macOS Sierra 10.12.6\r\n\r\n**Description of the problem including expected versus actual behavior**:\r\n\r\nIn Kibana, when a user interacts with the UI to create a filter on a scripted field, we create a script filter that looks like this:\r\n\r\n```\r\n{\r\n  \"script\": {\r\n    \"script\": {\r\n      \"inline\": \"boolean compare(Supplier s, def v) {return s.get() == v;}compare(() -> { doc['bytes'].value * 2; }, params.value);\",\r\n      \"lang\": \"painless\",\r\n      \"params\": {\r\n        \"value\": 6022\r\n      }\r\n    }\r\n  }\r\n```\r\n\r\nIn this case, `doc['bytes'].value * 2;` is the user defined script. The rest we add in order to do a comparison against the value the user's script produces.\r\n\r\nIn master, the above script query is returning the following error:\r\n\r\n```\r\n{\r\n  \"type\": \"query_shard_exception\",\r\n  \"reason\": \"failed to create query: {\\n  \\\"bool\\\" : {\\n    \\\"must\\\" : [\\n      {\\n        \\\"match_all\\\" : {\\n          \\\"boost\\\" : 1.0\\n        }\\n      },\\n      {\\n        \\\"script\\\" : {\\n          \\\"script\\\" : {\\n            \\\"source\\\" : \\\"boolean compare(Supplier s, def v) {return s.get() == v;}compare(() -> { doc['bytes'].value * 2; }, params.value);\\\",\\n            \\\"lang\\\" : \\\"painless\\\",\\n            \\\"params\\\" : {\\n              \\\"value\\\" : 6022\\n            }\\n          },\\n          \\\"boost\\\" : 1.0\\n        }\\n      },\\n      {\\n        \\\"range\\\" : {\\n          \\\"@timestamp\\\" : {\\n            \\\"from\\\" : null,\\n            \\\"to\\\" : null,\\n            \\\"include_lower\\\" : true,\\n            \\\"include_upper\\\" : true,\\n            \\\"boost\\\" : 1.0\\n          }\\n        }\\n      }\\n    ],\\n    \\\"adjust_pure_negative\\\" : true,\\n    \\\"boost\\\" : 1.0\\n  }\\n}\",\r\n  \"index_uuid\": \"nqVm9Xt2QPGXJ7M5myvrPg\",\r\n  \"index\": \"logstash-0\",\r\n  \"caused_by\": {\r\n    \"type\": \"script_exception\",\r\n    \"reason\": \"compile error\",\r\n    \"script_stack\": [\r\n      \"... () == v;}compare(() -> { doc['bytes'].value * 2; } ...\",\r\n      \"                             ^---- HERE\"\r\n    ],\r\n    \"script\": \"boolean compare(Supplier s, def v) {return s.get() == v;}compare(() -> { doc['bytes'].value * 2; }, params.value);\",\r\n    \"lang\": \"painless\",\r\n    \"caused_by\": {\r\n      \"type\": \"illegal_argument_exception\",\r\n      \"reason\": \"Variable [doc] is not defined.\"\r\n    }\r\n  }\r\n}\r\n```\r\n\r\nI can't reproduce in 6.0 or 5.6 so this seems to be a relatively recent change.\r\n\r\ncc @nik9000 since he helped us put together the script originally \r\n","closed_by":{"login":"jdconrad","id":2126764,"node_id":"MDQ6VXNlcjIxMjY3NjQ=","avatar_url":"https://avatars2.githubusercontent.com/u/2126764?v=4","gravatar_id":"","url":"https://api.github.com/users/jdconrad","html_url":"https://github.com/jdconrad","followers_url":"https://api.github.com/users/jdconrad/followers","following_url":"https://api.github.com/users/jdconrad/following{/other_user}","gists_url":"https://api.github.com/users/jdconrad/gists{/gist_id}","starred_url":"https://api.github.com/users/jdconrad/starred{/owner}{/repo}","subscriptions_url":"https://api.github.com/users/jdconrad/subscriptions","organizations_url":"https://api.github.com/users/jdconrad/orgs","repos_url":"https://api.github.com/users/jdconrad/repos","events_url":"https://api.github.com/users/jdconrad/events{/privacy}","received_events_url":"https://api.github.com/users/jdconrad/received_events","type":"User","site_admin":false}}", "commentIds":["331594505","331989265","343561687","343599413","344328374","344454079","347189777","347586334","347672801"], "labels":[":Core/Infra/Scripting",">bug","blocker","v6.1.0","v7.0.0-beta1"]}