{"id":"27506", "title":"Highlighter causing 504 gateway error", "body":"<!--

** Please read the guidelines below. **

**Elasticsearch version** (`bin/elasticsearch --version`): 5.6

**Description of the problem including expected versus actual behavior**:
Can anyone provide some help / advice / guidance on why I'm getting a 504 gateway error when running  a query against kibana with highlighting enabled? I've made a post on here
https://discuss.elastic.co/t/504-gateway-errors-when-using-postings-highlighter/108774

However I'm thinking this may be a genuine issue. If I remove the highlighter elastic sends back some results. I even changed to use fast vector by specifying offsets option in the index but that hasn;t worked either.

Here is the actual query:

GET test/_search
{
  \"size\": 500, 
   \"highlight\":{
      \"pre_tags\":[
         \"<mark>\"
      ],
      \"post_tags\":[
         \"</mark>\"
      ],
      \"order\":\"score\",
      \"fields\":{
         \"content.plain\":{
            \"fragment_size\":150,
            \"no_match_size\":150,
            \"number_of_fragments\":1,
            \"matched_fields\":[
               \"content.plain\"
            ]
         },
         \"title.plain\":{
            \"pre_tags\":[
               \"<b>\"
            ],
            \"post_tags\":[
               \"</b>\"
            ],
            \"fragment_size\":300,
            \"number_of_fragments\":0,
            \"matched_fields\":[
               \"title.plain\"
            ]
         }
      }
   },
   \"query\": {
            \"multi_match\":{
                        \"type\":\"most_fields\",
                        \"query\":\"BAR AND DEN AND 2004A\",
                        \"operator\":\"and\",
                        \"fields\":[
                           \"content\"
                        ]
                     }
   }
}

**Provide logs (if relevant)**:

", "json":"{"url":"https://api.github.com/repos/elastic/elasticsearch/issues/27506","repository_url":"https://api.github.com/repos/elastic/elasticsearch","labels_url":"https://api.github.com/repos/elastic/elasticsearch/issues/27506/labels{/name}","comments_url":"https://api.github.com/repos/elastic/elasticsearch/issues/27506/comments","events_url":"https://api.github.com/repos/elastic/elasticsearch/issues/27506/events","html_url":"https://github.com/elastic/elasticsearch/issues/27506","id":276468702,"node_id":"MDU6SXNzdWUyNzY0Njg3MDI=","number":27506,"title":"Highlighter causing 504 gateway error","user":{"login":"imranazad","id":1709630,"node_id":"MDQ6VXNlcjE3MDk2MzA=","avatar_url":"https://avatars1.githubusercontent.com/u/1709630?v=4","gravatar_id":"","url":"https://api.github.com/users/imranazad","html_url":"https://github.com/imranazad","followers_url":"https://api.github.com/users/imranazad/followers","following_url":"https://api.github.com/users/imranazad/following{/other_user}","gists_url":"https://api.github.com/users/imranazad/gists{/gist_id}","starred_url":"https://api.github.com/users/imranazad/starred{/owner}{/repo}","subscriptions_url":"https://api.github.com/users/imranazad/subscriptions","organizations_url":"https://api.github.com/users/imranazad/orgs","repos_url":"https://api.github.com/users/imranazad/repos","events_url":"https://api.github.com/users/imranazad/events{/privacy}","received_events_url":"https://api.github.com/users/imranazad/received_events","type":"User","site_admin":false},"labels":[],"state":"closed","locked":false,"assignee":null,"assignees":[],"milestone":null,"comments":0,"created_at":"2017-11-23T20:39:04Z","updated_at":"2017-11-23T20:40:06Z","closed_at":"2017-11-23T20:40:06Z","author_association":"CONTRIBUTOR","body":"<!--\r\n\r\n** Please read the guidelines below. **\r\n\r\n**Elasticsearch version** (`bin/elasticsearch --version`): 5.6\r\n\r\n**Description of the problem including expected versus actual behavior**:\r\nCan anyone provide some help / advice / guidance on why I'm getting a 504 gateway error when running  a query against kibana with highlighting enabled? I've made a post on here\r\nhttps://discuss.elastic.co/t/504-gateway-errors-when-using-postings-highlighter/108774\r\n\r\nHowever I'm thinking this may be a genuine issue. If I remove the highlighter elastic sends back some results. I even changed to use fast vector by specifying offsets option in the index but that hasn;t worked either.\r\n\r\nHere is the actual query:\r\n\r\nGET test/_search\r\n{\r\n  \"size\": 500, \r\n   \"highlight\":{\r\n      \"pre_tags\":[\r\n         \"<mark>\"\r\n      ],\r\n      \"post_tags\":[\r\n         \"</mark>\"\r\n      ],\r\n      \"order\":\"score\",\r\n      \"fields\":{\r\n         \"content.plain\":{\r\n            \"fragment_size\":150,\r\n            \"no_match_size\":150,\r\n            \"number_of_fragments\":1,\r\n            \"matched_fields\":[\r\n               \"content.plain\"\r\n            ]\r\n         },\r\n         \"title.plain\":{\r\n            \"pre_tags\":[\r\n               \"<b>\"\r\n            ],\r\n            \"post_tags\":[\r\n               \"</b>\"\r\n            ],\r\n            \"fragment_size\":300,\r\n            \"number_of_fragments\":0,\r\n            \"matched_fields\":[\r\n               \"title.plain\"\r\n            ]\r\n         }\r\n      }\r\n   },\r\n   \"query\": {\r\n            \"multi_match\":{\r\n                        \"type\":\"most_fields\",\r\n                        \"query\":\"BAR AND DEN AND 2004A\",\r\n                        \"operator\":\"and\",\r\n                        \"fields\":[\r\n                           \"content\"\r\n                        ]\r\n                     }\r\n   }\r\n}\r\n\r\n**Provide logs (if relevant)**:\r\n\r\n","closed_by":{"login":"imranazad","id":1709630,"node_id":"MDQ6VXNlcjE3MDk2MzA=","avatar_url":"https://avatars1.githubusercontent.com/u/1709630?v=4","gravatar_id":"","url":"https://api.github.com/users/imranazad","html_url":"https://github.com/imranazad","followers_url":"https://api.github.com/users/imranazad/followers","following_url":"https://api.github.com/users/imranazad/following{/other_user}","gists_url":"https://api.github.com/users/imranazad/gists{/gist_id}","starred_url":"https://api.github.com/users/imranazad/starred{/owner}{/repo}","subscriptions_url":"https://api.github.com/users/imranazad/subscriptions","organizations_url":"https://api.github.com/users/imranazad/orgs","repos_url":"https://api.github.com/users/imranazad/repos","events_url":"https://api.github.com/users/imranazad/events{/privacy}","received_events_url":"https://api.github.com/users/imranazad/received_events","type":"User","site_admin":false}}", "commentIds":[], "labels":[]}