{"id":"27544", "title":"Cumilative Sum doesn't work with other pipeline aggregations", "body":"Cumulative sum aggregation returns an error when using it with other pipeline aggregations. This happens consistently with both bucket_scripts and derivatives.

Steps to Reproduce:

1. Index some Metricbeat data
2. Run the following query:

```
GET metricbeat-*/_search
{
  \"size\": 0,
  \"query\": {
    \"range\": {
      \"@timestamp\": {
        \"gte\": \"now-15m/m\",
        \"lte\": \"now\"
      }
    }
  },
  \"aggs\": {
    \"timeseries\": {
      \"date_histogram\": {
        \"field\": \"@timestamp\",
        \"interval\": \"10s\"
      },
      \"aggs\": {
        \"maxTX\": {
          \"max\": {
            \"field\": \"system.network.out.bytes\"
          }
        },
        \"calculation\": {
          \"bucket_script\": {
            \"buckets_path\": {
              \"maxTX\": \"maxTX\"
            }, 
            \"script\": { 
              \"source\": \"params.maxTX\" 
            }
          }
        },
        \"cumsum\": {
          \"cumulative_sum\": {
            \"buckets_path\": \"calculation\"
          }
        }
      }
    }
  }
}
```
3. Receive following response:

```
{
  \"error\": {
    \"root_cause\": [],
    \"type\": \"search_phase_execution_exception\",
    \"reason\": \"\",
    \"phase\": \"fetch\",
    \"grouped\": true,
    \"failed_shards\": [],
    \"caused_by\": {
      \"type\": \"null_pointer_exception\",
      \"reason\": null
    }
  },
  \"status\": 503
}
```

", "json":"{"url":"https://api.github.com/repos/elastic/elasticsearch/issues/27544","repository_url":"https://api.github.com/repos/elastic/elasticsearch","labels_url":"https://api.github.com/repos/elastic/elasticsearch/issues/27544/labels{/name}","comments_url":"https://api.github.com/repos/elastic/elasticsearch/issues/27544/comments","events_url":"https://api.github.com/repos/elastic/elasticsearch/issues/27544/events","html_url":"https://github.com/elastic/elasticsearch/issues/27544","id":277114187,"node_id":"MDU6SXNzdWUyNzcxMTQxODc=","number":27544,"title":"Cumilative Sum doesn't work with other pipeline aggregations","user":{"login":"simianhacker","id":41702,"node_id":"MDQ6VXNlcjQxNzAy","avatar_url":"https://avatars2.githubusercontent.com/u/41702?v=4","gravatar_id":"","url":"https://api.github.com/users/simianhacker","html_url":"https://github.com/simianhacker","followers_url":"https://api.github.com/users/simianhacker/followers","following_url":"https://api.github.com/users/simianhacker/following{/other_user}","gists_url":"https://api.github.com/users/simianhacker/gists{/gist_id}","starred_url":"https://api.github.com/users/simianhacker/starred{/owner}{/repo}","subscriptions_url":"https://api.github.com/users/simianhacker/subscriptions","organizations_url":"https://api.github.com/users/simianhacker/orgs","repos_url":"https://api.github.com/users/simianhacker/repos","events_url":"https://api.github.com/users/simianhacker/events{/privacy}","received_events_url":"https://api.github.com/users/simianhacker/received_events","type":"User","site_admin":false},"labels":[{"id":141141324,"node_id":"MDU6TGFiZWwxNDExNDEzMjQ=","url":"https://api.github.com/repos/elastic/elasticsearch/labels/:Analytics/Aggregations","name":":Analytics/Aggregations","color":"0e8a16","default":false},{"id":23173,"node_id":"MDU6TGFiZWwyMzE3Mw==","url":"https://api.github.com/repos/elastic/elasticsearch/labels/%3Ebug","name":">bug","color":"b60205","default":false}],"state":"closed","locked":false,"assignee":null,"assignees":[],"milestone":null,"comments":5,"created_at":"2017-11-27T18:05:18Z","updated_at":"2018-05-02T19:22:56Z","closed_at":"2018-05-02T19:22:56Z","author_association":"MEMBER","body":"Cumulative sum aggregation returns an error when using it with other pipeline aggregations. This happens consistently with both bucket_scripts and derivatives.\r\n\r\nSteps to Reproduce:\r\n\r\n1. Index some Metricbeat data\r\n2. Run the following query:\r\n\r\n```\r\nGET metricbeat-*/_search\r\n{\r\n  \"size\": 0,\r\n  \"query\": {\r\n    \"range\": {\r\n      \"@timestamp\": {\r\n        \"gte\": \"now-15m/m\",\r\n        \"lte\": \"now\"\r\n      }\r\n    }\r\n  },\r\n  \"aggs\": {\r\n    \"timeseries\": {\r\n      \"date_histogram\": {\r\n        \"field\": \"@timestamp\",\r\n        \"interval\": \"10s\"\r\n      },\r\n      \"aggs\": {\r\n        \"maxTX\": {\r\n          \"max\": {\r\n            \"field\": \"system.network.out.bytes\"\r\n          }\r\n        },\r\n        \"calculation\": {\r\n          \"bucket_script\": {\r\n            \"buckets_path\": {\r\n              \"maxTX\": \"maxTX\"\r\n            }, \r\n            \"script\": { \r\n              \"source\": \"params.maxTX\" \r\n            }\r\n          }\r\n        },\r\n        \"cumsum\": {\r\n          \"cumulative_sum\": {\r\n            \"buckets_path\": \"calculation\"\r\n          }\r\n        }\r\n      }\r\n    }\r\n  }\r\n}\r\n```\r\n3. Receive following response:\r\n\r\n```\r\n{\r\n  \"error\": {\r\n    \"root_cause\": [],\r\n    \"type\": \"search_phase_execution_exception\",\r\n    \"reason\": \"\",\r\n    \"phase\": \"fetch\",\r\n    \"grouped\": true,\r\n    \"failed_shards\": [],\r\n    \"caused_by\": {\r\n      \"type\": \"null_pointer_exception\",\r\n      \"reason\": null\r\n    }\r\n  },\r\n  \"status\": 503\r\n}\r\n```\r\n\r\n","closed_by":{"login":"polyfractal","id":1224228,"node_id":"MDQ6VXNlcjEyMjQyMjg=","avatar_url":"https://avatars1.githubusercontent.com/u/1224228?v=4","gravatar_id":"","url":"https://api.github.com/users/polyfractal","html_url":"https://github.com/polyfractal","followers_url":"https://api.github.com/users/polyfractal/followers","following_url":"https://api.github.com/users/polyfractal/following{/other_user}","gists_url":"https://api.github.com/users/polyfractal/gists{/gist_id}","starred_url":"https://api.github.com/users/polyfractal/starred{/owner}{/repo}","subscriptions_url":"https://api.github.com/users/polyfractal/subscriptions","organizations_url":"https://api.github.com/users/polyfractal/orgs","repos_url":"https://api.github.com/users/polyfractal/repos","events_url":"https://api.github.com/users/polyfractal/events{/privacy}","received_events_url":"https://api.github.com/users/polyfractal/received_events","type":"User","site_admin":false}}", "commentIds":["347349667","347359531","347361648","347456986","374649100"], "labels":[":Analytics/Aggregations",">bug"]}