{"id":"28377", "title":"failed to start after updating java ", "body":"<!-- Bug report -->

**Elasticsearch version** (`bin/elasticsearch --version`):
Version: 2.4.6, Build: 5376dca/2017-07-18T12:17:44Z, JVM: 1.8.0_161

**Plugins installed**: []

**JVM version** (`java -version`):
java version \"1.8.0_161\"
Java(TM) SE Runtime Environment (build 1.8.0_161-b12)
Java HotSpot(TM) 64-Bit Server VM (build 25.161-b12, mixed mode)

**OS version** (`uname -a` if on a Unix-like system):
Linux dhol 4.13.0-31-generic # 34~16.04.1-Ubuntu SMP Fri Jan 19 17:11:01 UTC 2018 x86_64 x86_64 x86_64 GNU/Linux

**Provide logs (if relevant)**:

Jan 25 13:43:09 localhost systemd[1]: Starting Elasticsearch...
Jan 25 13:43:09 localhost systemd[1]: Started Elasticsearch.
Jan 25 13:43:09 localhost kernel: [ 4096.497555] BUG: unable to handle kernel paging request at 0000000006987877
Jan 25 13:43:09 localhost kernel: [ 4096.497978] IP: 0x6987877
Jan 25 13:43:09 localhost kernel: [ 4096.498385] PGD 80000003dec08067
Jan 25 13:43:09 localhost kernel: [ 4096.498386] P4D 80000003dec08067
Jan 25 13:43:09 localhost kernel: [ 4096.498788] PUD 45335f067
Jan 25 13:43:09 localhost kernel: [ 4096.499185] PMD 0
Jan 25 13:43:09 localhost kernel: [ 4096.499582]
Jan 25 13:43:09 localhost kernel: [ 4096.500359] Oops: 0010 [# 19] SMP PTI
Jan 25 13:43:09 localhost kernel: [ 4096.500746] Modules linked in: xt_owner xt_tcpudp nf_conntrack_ipv4 nf_defrag_ipv4 xt_conntrack nf_conntrack libcrc32c iptable_filter ip_tables x_tables nls_iso8859_1 snd_hda_codec_hdmi snd_hda_codec_realtek snd_hda_codec_generic snd_hda_intel snd_hda_codec snd_hda_core snd_hwdep snd_pcm intel_rapl snd_seq_midi x86_pkg_temp_thermal snd_seq_midi_event intel_powerclamp coretemp snd_rawmidi kvm_intel kvm snd_seq irqbypass snd_seq_device snd_timer crct10dif_pclmul crc32_pclmul ghash_clmulni_intel pcbc aesni_intel aes_x86_64 crypto_simd glue_helper cryptd snd intel_cstate intel_rapl_perf serio_raw soundcore mei_me mei shpchp hci_uart btbcm serdev btqca btintel bluetooth ecdh_generic intel_lpss_acpi intel_lpss mac_hid tpm_crb acpi_als acpi_pad kfifo_buf industrialio parport_pc ppdev lp parport autofs4
Jan 25 13:43:09 localhost kernel: [ 4096.503808]  mxm_wmi i915 i2c_algo_bit drm_kms_helper syscopyarea psmouse sysfillrect sysimgblt fb_sys_fops alx drm nvme ahci mdio nvme_core libahci wmi video pinctrl_sunrisepoint i2c_hid pinctrl_intel hid
Jan 25 13:43:09 localhost kernel: [ 4096.504794] CPU: 0 PID: 28844 Comm: java Tainted: G      D         4.13.0-31-generic #34~16.04.1-Ubuntu
Jan 25 13:43:09 localhost kernel: [ 4096.505300] Hardware name: MSI MS-7A57/Z270 MPOWER GAMING TITANIUM (MS-7A57), BIOS A.00 02/23/2017
Jan 25 13:43:09 localhost kernel: [ 4096.505802] task: ffff8dc21c2caf80 task.stack: ffff9c6a47de0000
Jan 25 13:43:09 localhost kernel: [ 4096.506295] RIP: 0010:0x6987877
Jan 25 13:43:09 localhost kernel: [ 4096.506778] RSP: 0018:ffff9c6a47de3f50 EFLAGS: 00010202
Jan 25 13:43:09 localhost kernel: [ 4096.507252] RAX: 00000000000003e7 RBX: 0000000000000000 RCX: 00007f5fa29e94d9
Jan 25 13:43:09 localhost kernel: [ 4096.507722] RDX: 00007f5f9c5c39b0 RSI: 000000004d73aa93 RDI: 0000000000000000
Jan 25 13:43:09 localhost kernel: [ 4096.508181] RBP: 0000000000000000 R08: 00007f5fa1e4fb64 R09: 000000000000000c
Jan 25 13:43:09 localhost kernel: [ 4096.508630] R10: 0000000006987877 R11: ffff8dc21c2caf80 R12: 0000000000000000
Jan 25 13:43:09 localhost kernel: [ 4096.509067] R13: 0000000000000000 R14: 0000000000000000 R15: 0000000000000000
Jan 25 13:43:09 localhost kernel: [ 4096.509494] FS:  00007f5fa34ec700(0000) GS:ffff8dc22ec00000(0000) knlGS:0000000000000000
Jan 25 13:43:09 localhost kernel: [ 4096.509918] CS:  0010 DS: 0000 ES: 0000 CR0: 0000000080050033
Jan 25 13:43:09 localhost kernel: [ 4096.510337] CR2: 0000000006987877 CR3: 000000015ae48003 CR4: 00000000003606f0
Jan 25 13:43:09 localhost kernel: [ 4096.510754] DR0: 0000000000000000 DR1: 0000000000000000 DR2: 0000000000000000
Jan 25 13:43:09 localhost kernel: [ 4096.511169] DR3: 0000000000000000 DR6: 00000000fffe0ff0 DR7: 0000000000000400
Jan 25 13:43:09 localhost kernel: [ 4096.511583] Call Trace:
Jan 25 13:43:09 localhost kernel: [ 4096.511993]  ? entry_SYSCALL_64_fastpath+0x33/0xa3
Jan 25 13:43:09 localhost kernel: [ 4096.512403] Code:  Bad RIP value.
Jan 25 13:43:09 localhost kernel: [ 4096.512812] RIP: 0x6987877 RSP: ffff9c6a47de3f50
Jan 25 13:43:09 localhost kernel: [ 4096.513222] CR2: 0000000006987877
Jan 25 13:43:09 localhost kernel: [ 4096.513631] ---[ end trace 71ffa03814cb197b ]---
", "json":"{"url":"https://api.github.com/repos/elastic/elasticsearch/issues/28377","repository_url":"https://api.github.com/repos/elastic/elasticsearch","labels_url":"https://api.github.com/repos/elastic/elasticsearch/issues/28377/labels{/name}","comments_url":"https://api.github.com/repos/elastic/elasticsearch/issues/28377/comments","events_url":"https://api.github.com/repos/elastic/elasticsearch/issues/28377/events","html_url":"https://github.com/elastic/elasticsearch/issues/28377","id":291576588,"node_id":"MDU6SXNzdWUyOTE1NzY1ODg=","number":28377,"title":"failed to start after updating java ","user":{"login":"GurjinderSingh","id":3470709,"node_id":"MDQ6VXNlcjM0NzA3MDk=","avatar_url":"https://avatars2.githubusercontent.com/u/3470709?v=4","gravatar_id":"","url":"https://api.github.com/users/GurjinderSingh","html_url":"https://github.com/GurjinderSingh","followers_url":"https://api.github.com/users/GurjinderSingh/followers","following_url":"https://api.github.com/users/GurjinderSingh/following{/other_user}","gists_url":"https://api.github.com/users/GurjinderSingh/gists{/gist_id}","starred_url":"https://api.github.com/users/GurjinderSingh/starred{/owner}{/repo}","subscriptions_url":"https://api.github.com/users/GurjinderSingh/subscriptions","organizations_url":"https://api.github.com/users/GurjinderSingh/orgs","repos_url":"https://api.github.com/users/GurjinderSingh/repos","events_url":"https://api.github.com/users/GurjinderSingh/events{/privacy}","received_events_url":"https://api.github.com/users/GurjinderSingh/received_events","type":"User","site_admin":false},"labels":[],"state":"closed","locked":false,"assignee":null,"assignees":[],"milestone":null,"comments":3,"created_at":"2018-01-25T13:51:33Z","updated_at":"2018-01-25T15:31:12Z","closed_at":"2018-01-25T13:53:39Z","author_association":"NONE","body":"<!-- Bug report -->\r\n\r\n**Elasticsearch version** (`bin/elasticsearch --version`):\r\nVersion: 2.4.6, Build: 5376dca/2017-07-18T12:17:44Z, JVM: 1.8.0_161\r\n\r\n**Plugins installed**: []\r\n\r\n**JVM version** (`java -version`):\r\njava version \"1.8.0_161\"\r\nJava(TM) SE Runtime Environment (build 1.8.0_161-b12)\r\nJava HotSpot(TM) 64-Bit Server VM (build 25.161-b12, mixed mode)\r\n\r\n**OS version** (`uname -a` if on a Unix-like system):\r\nLinux dhol 4.13.0-31-generic # 34~16.04.1-Ubuntu SMP Fri Jan 19 17:11:01 UTC 2018 x86_64 x86_64 x86_64 GNU/Linux\r\n\r\n**Provide logs (if relevant)**:\r\n\r\nJan 25 13:43:09 localhost systemd[1]: Starting Elasticsearch...\r\nJan 25 13:43:09 localhost systemd[1]: Started Elasticsearch.\r\nJan 25 13:43:09 localhost kernel: [ 4096.497555] BUG: unable to handle kernel paging request at 0000000006987877\r\nJan 25 13:43:09 localhost kernel: [ 4096.497978] IP: 0x6987877\r\nJan 25 13:43:09 localhost kernel: [ 4096.498385] PGD 80000003dec08067\r\nJan 25 13:43:09 localhost kernel: [ 4096.498386] P4D 80000003dec08067\r\nJan 25 13:43:09 localhost kernel: [ 4096.498788] PUD 45335f067\r\nJan 25 13:43:09 localhost kernel: [ 4096.499185] PMD 0\r\nJan 25 13:43:09 localhost kernel: [ 4096.499582]\r\nJan 25 13:43:09 localhost kernel: [ 4096.500359] Oops: 0010 [# 19] SMP PTI\r\nJan 25 13:43:09 localhost kernel: [ 4096.500746] Modules linked in: xt_owner xt_tcpudp nf_conntrack_ipv4 nf_defrag_ipv4 xt_conntrack nf_conntrack libcrc32c iptable_filter ip_tables x_tables nls_iso8859_1 snd_hda_codec_hdmi snd_hda_codec_realtek snd_hda_codec_generic snd_hda_intel snd_hda_codec snd_hda_core snd_hwdep snd_pcm intel_rapl snd_seq_midi x86_pkg_temp_thermal snd_seq_midi_event intel_powerclamp coretemp snd_rawmidi kvm_intel kvm snd_seq irqbypass snd_seq_device snd_timer crct10dif_pclmul crc32_pclmul ghash_clmulni_intel pcbc aesni_intel aes_x86_64 crypto_simd glue_helper cryptd snd intel_cstate intel_rapl_perf serio_raw soundcore mei_me mei shpchp hci_uart btbcm serdev btqca btintel bluetooth ecdh_generic intel_lpss_acpi intel_lpss mac_hid tpm_crb acpi_als acpi_pad kfifo_buf industrialio parport_pc ppdev lp parport autofs4\r\nJan 25 13:43:09 localhost kernel: [ 4096.503808]  mxm_wmi i915 i2c_algo_bit drm_kms_helper syscopyarea psmouse sysfillrect sysimgblt fb_sys_fops alx drm nvme ahci mdio nvme_core libahci wmi video pinctrl_sunrisepoint i2c_hid pinctrl_intel hid\r\nJan 25 13:43:09 localhost kernel: [ 4096.504794] CPU: 0 PID: 28844 Comm: java Tainted: G      D         4.13.0-31-generic #34~16.04.1-Ubuntu\r\nJan 25 13:43:09 localhost kernel: [ 4096.505300] Hardware name: MSI MS-7A57/Z270 MPOWER GAMING TITANIUM (MS-7A57), BIOS A.00 02/23/2017\r\nJan 25 13:43:09 localhost kernel: [ 4096.505802] task: ffff8dc21c2caf80 task.stack: ffff9c6a47de0000\r\nJan 25 13:43:09 localhost kernel: [ 4096.506295] RIP: 0010:0x6987877\r\nJan 25 13:43:09 localhost kernel: [ 4096.506778] RSP: 0018:ffff9c6a47de3f50 EFLAGS: 00010202\r\nJan 25 13:43:09 localhost kernel: [ 4096.507252] RAX: 00000000000003e7 RBX: 0000000000000000 RCX: 00007f5fa29e94d9\r\nJan 25 13:43:09 localhost kernel: [ 4096.507722] RDX: 00007f5f9c5c39b0 RSI: 000000004d73aa93 RDI: 0000000000000000\r\nJan 25 13:43:09 localhost kernel: [ 4096.508181] RBP: 0000000000000000 R08: 00007f5fa1e4fb64 R09: 000000000000000c\r\nJan 25 13:43:09 localhost kernel: [ 4096.508630] R10: 0000000006987877 R11: ffff8dc21c2caf80 R12: 0000000000000000\r\nJan 25 13:43:09 localhost kernel: [ 4096.509067] R13: 0000000000000000 R14: 0000000000000000 R15: 0000000000000000\r\nJan 25 13:43:09 localhost kernel: [ 4096.509494] FS:  00007f5fa34ec700(0000) GS:ffff8dc22ec00000(0000) knlGS:0000000000000000\r\nJan 25 13:43:09 localhost kernel: [ 4096.509918] CS:  0010 DS: 0000 ES: 0000 CR0: 0000000080050033\r\nJan 25 13:43:09 localhost kernel: [ 4096.510337] CR2: 0000000006987877 CR3: 000000015ae48003 CR4: 00000000003606f0\r\nJan 25 13:43:09 localhost kernel: [ 4096.510754] DR0: 0000000000000000 DR1: 0000000000000000 DR2: 0000000000000000\r\nJan 25 13:43:09 localhost kernel: [ 4096.511169] DR3: 0000000000000000 DR6: 00000000fffe0ff0 DR7: 0000000000000400\r\nJan 25 13:43:09 localhost kernel: [ 4096.511583] Call Trace:\r\nJan 25 13:43:09 localhost kernel: [ 4096.511993]  ? entry_SYSCALL_64_fastpath+0x33/0xa3\r\nJan 25 13:43:09 localhost kernel: [ 4096.512403] Code:  Bad RIP value.\r\nJan 25 13:43:09 localhost kernel: [ 4096.512812] RIP: 0x6987877 RSP: ffff9c6a47de3f50\r\nJan 25 13:43:09 localhost kernel: [ 4096.513222] CR2: 0000000006987877\r\nJan 25 13:43:09 localhost kernel: [ 4096.513631] ---[ end trace 71ffa03814cb197b ]---\r\n","closed_by":{"login":"jasontedor","id":4744941,"node_id":"MDQ6VXNlcjQ3NDQ5NDE=","avatar_url":"https://avatars3.githubusercontent.com/u/4744941?v=4","gravatar_id":"","url":"https://api.github.com/users/jasontedor","html_url":"https://github.com/jasontedor","followers_url":"https://api.github.com/users/jasontedor/followers","following_url":"https://api.github.com/users/jasontedor/following{/other_user}","gists_url":"https://api.github.com/users/jasontedor/gists{/gist_id}","starred_url":"https://api.github.com/users/jasontedor/starred{/owner}{/repo}","subscriptions_url":"https://api.github.com/users/jasontedor/subscriptions","organizations_url":"https://api.github.com/users/jasontedor/orgs","repos_url":"https://api.github.com/users/jasontedor/repos","events_url":"https://api.github.com/users/jasontedor/events{/privacy}","received_events_url":"https://api.github.com/users/jasontedor/received_events","type":"User","site_admin":false}}", "commentIds":["360472502","360487215","360501410"], "labels":[]}