{"id":"28413", "title":"Indexing \"\" in a geo_point field gives unexpected results", "body":"The following script creates an index with a geo_point field and then indexes `\"\"` in a document (along with a document with a valid geo_point) and then performs a geohash_grid aggregation on the index:
```

PUT test
{
  \"mappings\": {
    \"doc\": {
      \"properties\": {
        \"geo\": {
          \"type\": \"geo_point\"
        }
      }
    }
  }
}

PUT test/doc/1
{
  \"geo\": \"20.1, 40.2\"
}

PUT test/doc/2
{
  \"geo\": \"\"
}

GET test/_search
{
  \"aggs\": {
    \"geo\": {
      \"geohash_grid\": {
        \"field\": \"geo\",
        \"precision\": 3
      }
    }
  }
}
```

The output of the aggregation is:

```
  \"aggregations\": {
    \"geo\": {
      \"buckets\": [
        {
          \"key\": \"sgs\",
          \"doc_count\": 1
        },
        {
          \"key\": \"000\",
          \"doc_count\": 1
        }
      ]
    }
  }
```

The `\"\"` value in document 2 is returned for the geohash `000` which maps to the point `[-89.29687500, -179.29687500]`. This is surprising for the user and could lead to errors.

Instead I think we should reject `\"\"` in geo_point fields", "json":"{"url":"https://api.github.com/repos/elastic/elasticsearch/issues/28413","repository_url":"https://api.github.com/repos/elastic/elasticsearch","labels_url":"https://api.github.com/repos/elastic/elasticsearch/issues/28413/labels{/name}","comments_url":"https://api.github.com/repos/elastic/elasticsearch/issues/28413/comments","events_url":"https://api.github.com/repos/elastic/elasticsearch/issues/28413/events","html_url":"https://github.com/elastic/elasticsearch/issues/28413","id":292332792,"node_id":"MDU6SXNzdWUyOTIzMzI3OTI=","number":28413,"title":"Indexing \"\" in a geo_point field gives unexpected results","user":{"login":"colings86","id":236731,"node_id":"MDQ6VXNlcjIzNjczMQ==","avatar_url":"https://avatars0.githubusercontent.com/u/236731?v=4","gravatar_id":"","url":"https://api.github.com/users/colings86","html_url":"https://github.com/colings86","followers_url":"https://api.github.com/users/colings86/followers","following_url":"https://api.github.com/users/colings86/following{/other_user}","gists_url":"https://api.github.com/users/colings86/gists{/gist_id}","starred_url":"https://api.github.com/users/colings86/starred{/owner}{/repo}","subscriptions_url":"https://api.github.com/users/colings86/subscriptions","organizations_url":"https://api.github.com/users/colings86/orgs","repos_url":"https://api.github.com/users/colings86/repos","events_url":"https://api.github.com/users/colings86/events{/privacy}","received_events_url":"https://api.github.com/users/colings86/received_events","type":"User","site_admin":false},"labels":[{"id":141145460,"node_id":"MDU6TGFiZWwxNDExNDU0NjA=","url":"https://api.github.com/repos/elastic/elasticsearch/labels/:Search/Mapping","name":":Search/Mapping","color":"0e8a16","default":false},{"id":23173,"node_id":"MDU6TGFiZWwyMzE3Mw==","url":"https://api.github.com/repos/elastic/elasticsearch/labels/%3Ebug","name":">bug","color":"b60205","default":false},{"id":110815527,"node_id":"MDU6TGFiZWwxMTA4MTU1Mjc=","url":"https://api.github.com/repos/elastic/elasticsearch/labels/help%20wanted","name":"help wanted","color":"207de5","default":true}],"state":"closed","locked":false,"assignee":null,"assignees":[],"milestone":null,"comments":1,"created_at":"2018-01-29T09:14:38Z","updated_at":"2018-01-29T09:29:16Z","closed_at":"2018-01-29T09:29:16Z","author_association":"MEMBER","body":"The following script creates an index with a geo_point field and then indexes `\"\"` in a document (along with a document with a valid geo_point) and then performs a geohash_grid aggregation on the index:\r\n```\r\n\r\nPUT test\r\n{\r\n  \"mappings\": {\r\n    \"doc\": {\r\n      \"properties\": {\r\n        \"geo\": {\r\n          \"type\": \"geo_point\"\r\n        }\r\n      }\r\n    }\r\n  }\r\n}\r\n\r\nPUT test/doc/1\r\n{\r\n  \"geo\": \"20.1, 40.2\"\r\n}\r\n\r\nPUT test/doc/2\r\n{\r\n  \"geo\": \"\"\r\n}\r\n\r\nGET test/_search\r\n{\r\n  \"aggs\": {\r\n    \"geo\": {\r\n      \"geohash_grid\": {\r\n        \"field\": \"geo\",\r\n        \"precision\": 3\r\n      }\r\n    }\r\n  }\r\n}\r\n```\r\n\r\nThe output of the aggregation is:\r\n\r\n```\r\n  \"aggregations\": {\r\n    \"geo\": {\r\n      \"buckets\": [\r\n        {\r\n          \"key\": \"sgs\",\r\n          \"doc_count\": 1\r\n        },\r\n        {\r\n          \"key\": \"000\",\r\n          \"doc_count\": 1\r\n        }\r\n      ]\r\n    }\r\n  }\r\n```\r\n\r\nThe `\"\"` value in document 2 is returned for the geohash `000` which maps to the point `[-89.29687500, -179.29687500]`. This is surprising for the user and could lead to errors.\r\n\r\nInstead I think we should reject `\"\"` in geo_point fields","closed_by":{"login":"colings86","id":236731,"node_id":"MDQ6VXNlcjIzNjczMQ==","avatar_url":"https://avatars0.githubusercontent.com/u/236731?v=4","gravatar_id":"","url":"https://api.github.com/users/colings86","html_url":"https://github.com/colings86","followers_url":"https://api.github.com/users/colings86/followers","following_url":"https://api.github.com/users/colings86/following{/other_user}","gists_url":"https://api.github.com/users/colings86/gists{/gist_id}","starred_url":"https://api.github.com/users/colings86/starred{/owner}{/repo}","subscriptions_url":"https://api.github.com/users/colings86/subscriptions","organizations_url":"https://api.github.com/users/colings86/orgs","repos_url":"https://api.github.com/users/colings86/repos","events_url":"https://api.github.com/users/colings86/events{/privacy}","received_events_url":"https://api.github.com/users/colings86/received_events","type":"User","site_admin":false}}", "commentIds":["361187315"], "labels":[":Search/Mapping",">bug","help wanted"]}