{"id":"29079", "title":"Composite aggregation doesn't allow filter aggregation", "body":"<!--

** Please read the guidelines below. **

Issues that do not follow these guidelines are likely to be closed.

1.  GitHub is reserved for bug reports and feature requests. The best place to
    ask a general question is at the Elastic [forums](https://discuss.elastic.co).
    GitHub is not the place for general questions.

2.  Is this bug report or feature request for a supported OS? If not, it
    is likely to be closed.  See https://www.elastic.co/support/matrix#show_os

3.  Please fill out EITHER the feature request block or the bug report block
    below, and delete the other block.

-->
<!-- Bug report -->

**Elasticsearch version** (`bin/elasticsearch --version`): 6.2.2

I'd like to define a filters under the composite aggregation but it seems not allowed. Why not? I could really use it!

Which aggregations are allowed under the composite agg?

```
GET */_search
{
  \"size\": 0,
  \"aggs\": {
    \"data\": {
      \"composite\": {
        \"size\": 100,
        \"sources\": [
          {
            \"personname\": {
              \"terms\": {
                \"field\": \"personname.keyword\"
              }
            }
          },
          {
            \"test\": {
              \"filters\": {
                \"filters\": {
                  \"query\": {
                    \"query_string\": {
                      \"query\": \"all\"
                    }
                  }
                }
              }
            }
          }
        ]
      }
    }
  }
}
```
Error:

```
{
  \"error\": {
    \"root_cause\": [
      {
        \"type\": \"parsing_exception\",
        \"reason\": \"invalid source type: filters\",
        \"line\": 17,
        \"col\": 26
      }
    ],
    \"type\": \"parsing_exception\",
    \"reason\": \"[composite] failed to parse field [sources]\",
    \"line\": 17,
    \"col\": 26,
    \"caused_by\": {
      \"type\": \"parsing_exception\",
      \"reason\": \"invalid source type: filters\",
      \"line\": 17,
      \"col\": 26
    }
  },
  \"status\": 400
}
```
", "json":"{"url":"https://api.github.com/repos/elastic/elasticsearch/issues/29079","repository_url":"https://api.github.com/repos/elastic/elasticsearch","labels_url":"https://api.github.com/repos/elastic/elasticsearch/issues/29079/labels{/name}","comments_url":"https://api.github.com/repos/elastic/elasticsearch/issues/29079/comments","events_url":"https://api.github.com/repos/elastic/elasticsearch/issues/29079/events","html_url":"https://github.com/elastic/elasticsearch/issues/29079","id":305433925,"node_id":"MDU6SXNzdWUzMDU0MzM5MjU=","number":29079,"title":"Composite aggregation doesn't allow filter aggregation","user":{"login":"thekofimensah","id":23384471,"node_id":"MDQ6VXNlcjIzMzg0NDcx","avatar_url":"https://avatars0.githubusercontent.com/u/23384471?v=4","gravatar_id":"","url":"https://api.github.com/users/thekofimensah","html_url":"https://github.com/thekofimensah","followers_url":"https://api.github.com/users/thekofimensah/followers","following_url":"https://api.github.com/users/thekofimensah/following{/other_user}","gists_url":"https://api.github.com/users/thekofimensah/gists{/gist_id}","starred_url":"https://api.github.com/users/thekofimensah/starred{/owner}{/repo}","subscriptions_url":"https://api.github.com/users/thekofimensah/subscriptions","organizations_url":"https://api.github.com/users/thekofimensah/orgs","repos_url":"https://api.github.com/users/thekofimensah/repos","events_url":"https://api.github.com/users/thekofimensah/events{/privacy}","received_events_url":"https://api.github.com/users/thekofimensah/received_events","type":"User","site_admin":false},"labels":[{"id":141141324,"node_id":"MDU6TGFiZWwxNDExNDEzMjQ=","url":"https://api.github.com/repos/elastic/elasticsearch/labels/:Analytics/Aggregations","name":":Analytics/Aggregations","color":"0e8a16","default":false}],"state":"closed","locked":false,"assignee":null,"assignees":[],"milestone":null,"comments":8,"created_at":"2018-03-15T06:49:40Z","updated_at":"2019-06-03T19:22:41Z","closed_at":"2018-03-27T09:42:55Z","author_association":"NONE","body":"<!--\r\n\r\n** Please read the guidelines below. **\r\n\r\nIssues that do not follow these guidelines are likely to be closed.\r\n\r\n1.  GitHub is reserved for bug reports and feature requests. The best place to\r\n    ask a general question is at the Elastic [forums](https://discuss.elastic.co).\r\n    GitHub is not the place for general questions.\r\n\r\n2.  Is this bug report or feature request for a supported OS? If not, it\r\n    is likely to be closed.  See https://www.elastic.co/support/matrix#show_os\r\n\r\n3.  Please fill out EITHER the feature request block or the bug report block\r\n    below, and delete the other block.\r\n\r\n-->\r\n<!-- Bug report -->\r\n\r\n**Elasticsearch version** (`bin/elasticsearch --version`): 6.2.2\r\n\r\nI'd like to define a filters under the composite aggregation but it seems not allowed. Why not? I could really use it!\r\n\r\nWhich aggregations are allowed under the composite agg?\r\n\r\n```\r\nGET */_search\r\n{\r\n  \"size\": 0,\r\n  \"aggs\": {\r\n    \"data\": {\r\n      \"composite\": {\r\n        \"size\": 100,\r\n        \"sources\": [\r\n          {\r\n            \"personname\": {\r\n              \"terms\": {\r\n                \"field\": \"personname.keyword\"\r\n              }\r\n            }\r\n          },\r\n          {\r\n            \"test\": {\r\n              \"filters\": {\r\n                \"filters\": {\r\n                  \"query\": {\r\n                    \"query_string\": {\r\n                      \"query\": \"all\"\r\n                    }\r\n                  }\r\n                }\r\n              }\r\n            }\r\n          }\r\n        ]\r\n      }\r\n    }\r\n  }\r\n}\r\n```\r\nError:\r\n\r\n```\r\n{\r\n  \"error\": {\r\n    \"root_cause\": [\r\n      {\r\n        \"type\": \"parsing_exception\",\r\n        \"reason\": \"invalid source type: filters\",\r\n        \"line\": 17,\r\n        \"col\": 26\r\n      }\r\n    ],\r\n    \"type\": \"parsing_exception\",\r\n    \"reason\": \"[composite] failed to parse field [sources]\",\r\n    \"line\": 17,\r\n    \"col\": 26,\r\n    \"caused_by\": {\r\n      \"type\": \"parsing_exception\",\r\n      \"reason\": \"invalid source type: filters\",\r\n      \"line\": 17,\r\n      \"col\": 26\r\n    }\r\n  },\r\n  \"status\": 400\r\n}\r\n```\r\n","closed_by":{"login":"jimczi","id":15977469,"node_id":"MDQ6VXNlcjE1OTc3NDY5","avatar_url":"https://avatars0.githubusercontent.com/u/15977469?v=4","gravatar_id":"","url":"https://api.github.com/users/jimczi","html_url":"https://github.com/jimczi","followers_url":"https://api.github.com/users/jimczi/followers","following_url":"https://api.github.com/users/jimczi/following{/other_user}","gists_url":"https://api.github.com/users/jimczi/gists{/gist_id}","starred_url":"https://api.github.com/users/jimczi/starred{/owner}{/repo}","subscriptions_url":"https://api.github.com/users/jimczi/subscriptions","organizations_url":"https://api.github.com/users/jimczi/orgs","repos_url":"https://api.github.com/users/jimczi/repos","events_url":"https://api.github.com/users/jimczi/events{/privacy}","received_events_url":"https://api.github.com/users/jimczi/received_events","type":"User","site_admin":false}}", "commentIds":["373322133","373322232","373395422","373401281","373404207","373408068","376462561","498391335"], "labels":[":Analytics/Aggregations"]}