{"id":"29145", "title":"elasticsearch 6.2.1 Docker crash", "body":"Hi,

my Docker Conainer with elasticsearch 6.2.1 does not start anymore.

**Elasticsearch Version** 6.2.1

**plugins**
aggs-matrix-stats
analysis-common
ingest-common
long-expression
long-mustache
long-painless
mapper-extras
parent-join
percolator
rank-eval
reindex
repository-url
transport-netty4
tribe
ingest-geoip
ingest-user-agent

**Java** 8 Updated 161

**OS** Windows 10 1709 16299.309

**Description:**

> 
> elasticsearch_1  | [2018-03-19T20:06:29,680][INFO ][o.e.n.Node               ] node name [RP_BSlX] derived from node ID [RP_BSlX2SP-9zgwdGT7yXg]; set [node.name] to override
> elasticsearch_1  | [2018-03-19T20:06:29,681][INFO ][o.e.n.Node               ] version[6.2.1], pid[1], build[7299dc3/2018-02-07T19:34:26.990113Z], OS[Linux/4.9.60-linuxkit-aufs/amd64], JVM[Oracle Corporation/OpenJDK 64-Bit Server VM/1.8.0_161/25.161-b14]
> elasticsearch_1  | [2018-03-19T20:06:29,681][INFO ][o.e.n.Node               ] JVM arguments [-Xms1g, -Xmx1g, -XX:+UseConcMarkSweepGC, -XX:CMSInitiatingOccupancyFraction=75, -XX:+UseCMSInitiatingOccupancyOnly, -XX:+AlwaysPreTouch, -Xss1m, -Djava.awt.headless=true, -Dfile.encoding=UTF-8, -Djna.nosys=true, -XX:-OmitStackTraceInFastThrow, -Dio.netty.noUnsafe=true, -Dio.netty.noKeySetOptimization=true, -Dio.netty.recycler.maxCapacityPerThread=0, -Dlog4j.shutdownHookEnabled=false, -Dlog4j2.disable.jmx=true, -Djava.io.tmpdir=/tmp/elasticsearch.QtEC3tYE, -XX:+HeapDumpOnOutOfMemoryError, -XX:+PrintGCDetails, -XX:+PrintGCDateStamps, -XX:+PrintTenuringDistribution, -XX:+PrintGCApplicationStoppedTime, -Xloggc:logs/gc.log, -XX:+UseGCLogFileRotation, -XX:NumberOfGCLogFiles=32, -XX:GCLogFileSize=64m, -Des.cgroups.hierarchy.override=/, -Xmx256m, -Xms256m, -Des.path.home=/usr/share/elasticsearch, -Des.path.conf=/usr/share/elasticsearch/config]
> elasticsearch_1  | [2018-03-19T20:06:30,779][INFO ][o.e.p.PluginsService     ] [RP_BSlX] loaded module [aggs-matrix-stats]
> elasticsearch_1  | [2018-03-19T20:06:30,780][INFO ][o.e.p.PluginsService     ] [RP_BSlX] loaded module [analysis-common]
> elasticsearch_1  | [2018-03-19T20:06:30,781][INFO ][o.e.p.PluginsService     ] [RP_BSlX] loaded module [ingest-common]
> elasticsearch_1  | [2018-03-19T20:06:30,781][INFO ][o.e.p.PluginsService     ] [RP_BSlX] loaded module [lang-expression]
> elasticsearch_1  | [2018-03-19T20:06:30,781][INFO ][o.e.p.PluginsService     ] [RP_BSlX] loaded module [lang-mustache]
> elasticsearch_1  | [2018-03-19T20:06:30,781][INFO ][o.e.p.PluginsService     ] [RP_BSlX] loaded module [lang-painless]
> elasticsearch_1  | [2018-03-19T20:06:30,782][INFO ][o.e.p.PluginsService     ] [RP_BSlX] loaded module [mapper-extras]
> elasticsearch_1  | [2018-03-19T20:06:30,782][INFO ][o.e.p.PluginsService     ] [RP_BSlX] loaded module [parent-join]
> elasticsearch_1  | [2018-03-19T20:06:30,782][INFO ][o.e.p.PluginsService     ] [RP_BSlX] loaded module [percolator]
> elasticsearch_1  | [2018-03-19T20:06:30,782][INFO ][o.e.p.PluginsService     ] [RP_BSlX] loaded module [rank-eval]
> elasticsearch_1  | [2018-03-19T20:06:30,783][INFO ][o.e.p.PluginsService     ] [RP_BSlX] loaded module [reindex]
> elasticsearch_1  | [2018-03-19T20:06:30,783][INFO ][o.e.p.PluginsService     ] [RP_BSlX] loaded module [repository-url]
> elasticsearch_1  | [2018-03-19T20:06:30,783][INFO ][o.e.p.PluginsService     ] [RP_BSlX] loaded module [transport-netty4]
> elasticsearch_1  | [2018-03-19T20:06:30,783][INFO ][o.e.p.PluginsService     ] [RP_BSlX] loaded module [tribe]
> elasticsearch_1  | [2018-03-19T20:06:30,784][INFO ][o.e.p.PluginsService     ] [RP_BSlX] loaded plugin [ingest-geoip]
> elasticsearch_1  | [2018-03-19T20:06:30,784][INFO ][o.e.p.PluginsService     ] [RP_BSlX] loaded plugin [ingest-user-agent]
> kibana_1         | {\"type\":\"log\",\"@timestamp\":\"2018-03-19T20:06:30Z\",\"tags\":[\"warning\",\"elasticsearch\",\"admin\"],\"pid\":1,\"message\":\"Unable to revive connection: http://elasticsearch:9200/\"}
> kibana_1         | {\"type\":\"log\",\"@timestamp\":\"2018-03-19T20:06:30Z\",\"tags\":[\"warning\",\"elasticsearch\",\"admin\"],\"pid\":1,\"message\":\"No living connections\"}
> elasticsearch_1  | [2018-03-19T20:06:33,135][WARN ][o.e.b.ElasticsearchUncaughtExceptionHandler] [] uncaught exception in thread [main]
> elasticsearch_1  | org.elasticsearch.bootstrap.StartupException: java.lang.IllegalArgumentException: **Failed to parse value [fals] as only [true] or [false] are allowed.**
> elasticsearch_1  |      at org.elasticsearch.bootstrap.Elasticsearch.init(Elasticsearch.java:125) ~[elasticsearch-6.2.1.jar:6.2.1]
> elasticsearch_1  |      at org.elasticsearch.bootstrap.Elasticsearch.execute(Elasticsearch.java:112) ~[elasticsearch-6.2.1.jar:6.2.1]
> elasticsearch_1  |      at org.elasticsearch.cli.EnvironmentAwareCommand.execute(EnvironmentAwareCommand.java:86) ~[elasticsearch-6.2.1.jar:6.2.1]
> elasticsearch_1  |      at org.elasticsearch.cli.Command.mainWithoutErrorHandling(Command.java:124) ~[elasticsearch-cli-6.2.1.jar:6.2.1]
> elasticsearch_1  |      at org.elasticsearch.cli.Command.main(Command.java:90) ~[elasticsearch-cli-6.2.1.jar:6.2.1]
> elasticsearch_1  |      at org.elasticsearch.bootstrap.Elasticsearch.main(Elasticsearch.java:92) ~[elasticsearch-6.2.1.jar:6.2.1]
> elasticsearch_1  |      at org.elasticsearch.bootstrap.Elasticsearch.main(Elasticsearch.java:85) ~[elasticsearch-6.2.1.jar:6.2.1]
> elasticsearch_1  | Caused by: java.lang.IllegalArgumentException: Failed to parse value [fals] as only [true] or [false] are allowed.
> elasticsearch_1  |      at org.elasticsearch.common.Booleans.parseBoolean(Booleans.java:73) ~[elasticsearch-6.2.1.jar:6.2.1]
> elasticsearch_1  |      at org.elasticsearch.common.settings.Setting.get(Setting.java:347) ~[elasticsearch-6.2.1.jar:6.2.1]
> elasticsearch_1  |      at org.elasticsearch.common.settings.Setting.get(Setting.java:341) ~[elasticsearch-6.2.1.jar:6.2.1]
> elasticsearch_1  |      at org.elasticsearch.common.settings.AbstractScopedSettings.validate(AbstractScopedSettings.java:362) ~[elasticsearch-6.2.1.jar:6.2.1]
> elasticsearch_1  |      at org.elasticsearch.common.settings.AbstractScopedSettings.validate(AbstractScopedSettings.java:310) ~[elasticsearch-6.2.1.jar:6.2.1]
> elasticsearch_1  |      at org.elasticsearch.common.settings.AbstractScopedSettings.validate(AbstractScopedSettings.java:284) ~[elasticsearch-6.2.1.jar:6.2.1]
> elasticsearch_1  |      at org.elasticsearch.common.settings.SettingsModule.<init>(SettingsModule.java:134) ~[elasticsearch-6.2.1.jar:6.2.1]
> elasticsearch_1  |      at org.elasticsearch.node.Node.<init>(Node.java:331) ~[elasticsearch-6.2.1.jar:6.2.1]
> elasticsearch_1  |      at org.elasticsearch.node.Node.<init>(Node.java:246) ~[elasticsearch-6.2.1.jar:6.2.1]
> elasticsearch_1  |      at org.elasticsearch.bootstrap.Bootstrap$5.<init>(Bootstrap.java:213) ~[elasticsearch-6.2.1.jar:6.2.1]
> elasticsearch_1  |      at org.elasticsearch.bootstrap.Bootstrap.setup(Bootstrap.java:213) ~[elasticsearch-6.2.1.jar:6.2.1]
> elasticsearch_1  |      at org.elasticsearch.bootstrap.Bootstrap.init(Bootstrap.java:323) ~[elasticsearch-6.2.1.jar:6.2.1]
> elasticsearch_1  |      at org.elasticsearch.bootstrap.Elasticsearch.init(Elasticsearch.java:121) ~[elasticsearch-6.2.1.jar:6.2.1]
> elasticsearch_1  |      ... 6 more
> kibana_1         | {\"type\":\"log\",\"@timestamp\":\"2018-03-19T20:06:33Z\",\"tags\":[\"warning\",\"elasticsearch\",\"admin\"],\"pid\":1,\"message\":\"Unable to revive connection: http://elasticsearch:9200/\"}
> kibana_1         | {\"type\":\"log\",\"@timestamp\":\"2018-03-19T20:06:33Z\",\"tags\":[\"warning\",\"elasticsearch\",\"admin\"],\"pid\":1,\"message\":\"No living connections\"}
> dockerelkmaster_elasticsearch_1 exited with code 1

I'm grateful for any support.

Thanks.", "json":"{"url":"https://api.github.com/repos/elastic/elasticsearch/issues/29145","repository_url":"https://api.github.com/repos/elastic/elasticsearch","labels_url":"https://api.github.com/repos/elastic/elasticsearch/issues/29145/labels{/name}","comments_url":"https://api.github.com/repos/elastic/elasticsearch/issues/29145/comments","events_url":"https://api.github.com/repos/elastic/elasticsearch/issues/29145/events","html_url":"https://github.com/elastic/elasticsearch/issues/29145","id":306619579,"node_id":"MDU6SXNzdWUzMDY2MTk1Nzk=","number":29145,"title":"elasticsearch 6.2.1 Docker crash","user":{"login":"bolivia","id":5898728,"node_id":"MDQ6VXNlcjU4OTg3Mjg=","avatar_url":"https://avatars3.githubusercontent.com/u/5898728?v=4","gravatar_id":"","url":"https://api.github.com/users/bolivia","html_url":"https://github.com/bolivia","followers_url":"https://api.github.com/users/bolivia/followers","following_url":"https://api.github.com/users/bolivia/following{/other_user}","gists_url":"https://api.github.com/users/bolivia/gists{/gist_id}","starred_url":"https://api.github.com/users/bolivia/starred{/owner}{/repo}","subscriptions_url":"https://api.github.com/users/bolivia/subscriptions","organizations_url":"https://api.github.com/users/bolivia/orgs","repos_url":"https://api.github.com/users/bolivia/repos","events_url":"https://api.github.com/users/bolivia/events{/privacy}","received_events_url":"https://api.github.com/users/bolivia/received_events","type":"User","site_admin":false},"labels":[],"state":"closed","locked":false,"assignee":null,"assignees":[],"milestone":null,"comments":4,"created_at":"2018-03-19T20:20:52Z","updated_at":"2018-03-20T11:41:08Z","closed_at":"2018-03-20T00:17:57Z","author_association":"NONE","body":"Hi,\r\n\r\nmy Docker Conainer with elasticsearch 6.2.1 does not start anymore.\r\n\r\n**Elasticsearch Version** 6.2.1\r\n\r\n**plugins**\r\naggs-matrix-stats\r\nanalysis-common\r\ningest-common\r\nlong-expression\r\nlong-mustache\r\nlong-painless\r\nmapper-extras\r\nparent-join\r\npercolator\r\nrank-eval\r\nreindex\r\nrepository-url\r\ntransport-netty4\r\ntribe\r\ningest-geoip\r\ningest-user-agent\r\n\r\n**Java** 8 Updated 161\r\n\r\n**OS** Windows 10 1709 16299.309\r\n\r\n**Description:**\r\n\r\n> \r\n> elasticsearch_1  | [2018-03-19T20:06:29,680][INFO ][o.e.n.Node               ] node name [RP_BSlX] derived from node ID [RP_BSlX2SP-9zgwdGT7yXg]; set [node.name] to override\r\n> elasticsearch_1  | [2018-03-19T20:06:29,681][INFO ][o.e.n.Node               ] version[6.2.1], pid[1], build[7299dc3/2018-02-07T19:34:26.990113Z], OS[Linux/4.9.60-linuxkit-aufs/amd64], JVM[Oracle Corporation/OpenJDK 64-Bit Server VM/1.8.0_161/25.161-b14]\r\n> elasticsearch_1  | [2018-03-19T20:06:29,681][INFO ][o.e.n.Node               ] JVM arguments [-Xms1g, -Xmx1g, -XX:+UseConcMarkSweepGC, -XX:CMSInitiatingOccupancyFraction=75, -XX:+UseCMSInitiatingOccupancyOnly, -XX:+AlwaysPreTouch, -Xss1m, -Djava.awt.headless=true, -Dfile.encoding=UTF-8, -Djna.nosys=true, -XX:-OmitStackTraceInFastThrow, -Dio.netty.noUnsafe=true, -Dio.netty.noKeySetOptimization=true, -Dio.netty.recycler.maxCapacityPerThread=0, -Dlog4j.shutdownHookEnabled=false, -Dlog4j2.disable.jmx=true, -Djava.io.tmpdir=/tmp/elasticsearch.QtEC3tYE, -XX:+HeapDumpOnOutOfMemoryError, -XX:+PrintGCDetails, -XX:+PrintGCDateStamps, -XX:+PrintTenuringDistribution, -XX:+PrintGCApplicationStoppedTime, -Xloggc:logs/gc.log, -XX:+UseGCLogFileRotation, -XX:NumberOfGCLogFiles=32, -XX:GCLogFileSize=64m, -Des.cgroups.hierarchy.override=/, -Xmx256m, -Xms256m, -Des.path.home=/usr/share/elasticsearch, -Des.path.conf=/usr/share/elasticsearch/config]\r\n> elasticsearch_1  | [2018-03-19T20:06:30,779][INFO ][o.e.p.PluginsService     ] [RP_BSlX] loaded module [aggs-matrix-stats]\r\n> elasticsearch_1  | [2018-03-19T20:06:30,780][INFO ][o.e.p.PluginsService     ] [RP_BSlX] loaded module [analysis-common]\r\n> elasticsearch_1  | [2018-03-19T20:06:30,781][INFO ][o.e.p.PluginsService     ] [RP_BSlX] loaded module [ingest-common]\r\n> elasticsearch_1  | [2018-03-19T20:06:30,781][INFO ][o.e.p.PluginsService     ] [RP_BSlX] loaded module [lang-expression]\r\n> elasticsearch_1  | [2018-03-19T20:06:30,781][INFO ][o.e.p.PluginsService     ] [RP_BSlX] loaded module [lang-mustache]\r\n> elasticsearch_1  | [2018-03-19T20:06:30,781][INFO ][o.e.p.PluginsService     ] [RP_BSlX] loaded module [lang-painless]\r\n> elasticsearch_1  | [2018-03-19T20:06:30,782][INFO ][o.e.p.PluginsService     ] [RP_BSlX] loaded module [mapper-extras]\r\n> elasticsearch_1  | [2018-03-19T20:06:30,782][INFO ][o.e.p.PluginsService     ] [RP_BSlX] loaded module [parent-join]\r\n> elasticsearch_1  | [2018-03-19T20:06:30,782][INFO ][o.e.p.PluginsService     ] [RP_BSlX] loaded module [percolator]\r\n> elasticsearch_1  | [2018-03-19T20:06:30,782][INFO ][o.e.p.PluginsService     ] [RP_BSlX] loaded module [rank-eval]\r\n> elasticsearch_1  | [2018-03-19T20:06:30,783][INFO ][o.e.p.PluginsService     ] [RP_BSlX] loaded module [reindex]\r\n> elasticsearch_1  | [2018-03-19T20:06:30,783][INFO ][o.e.p.PluginsService     ] [RP_BSlX] loaded module [repository-url]\r\n> elasticsearch_1  | [2018-03-19T20:06:30,783][INFO ][o.e.p.PluginsService     ] [RP_BSlX] loaded module [transport-netty4]\r\n> elasticsearch_1  | [2018-03-19T20:06:30,783][INFO ][o.e.p.PluginsService     ] [RP_BSlX] loaded module [tribe]\r\n> elasticsearch_1  | [2018-03-19T20:06:30,784][INFO ][o.e.p.PluginsService     ] [RP_BSlX] loaded plugin [ingest-geoip]\r\n> elasticsearch_1  | [2018-03-19T20:06:30,784][INFO ][o.e.p.PluginsService     ] [RP_BSlX] loaded plugin [ingest-user-agent]\r\n> kibana_1         | {\"type\":\"log\",\"@timestamp\":\"2018-03-19T20:06:30Z\",\"tags\":[\"warning\",\"elasticsearch\",\"admin\"],\"pid\":1,\"message\":\"Unable to revive connection: http://elasticsearch:9200/\"}\r\n> kibana_1         | {\"type\":\"log\",\"@timestamp\":\"2018-03-19T20:06:30Z\",\"tags\":[\"warning\",\"elasticsearch\",\"admin\"],\"pid\":1,\"message\":\"No living connections\"}\r\n> elasticsearch_1  | [2018-03-19T20:06:33,135][WARN ][o.e.b.ElasticsearchUncaughtExceptionHandler] [] uncaught exception in thread [main]\r\n> elasticsearch_1  | org.elasticsearch.bootstrap.StartupException: java.lang.IllegalArgumentException: **Failed to parse value [fals] as only [true] or [false] are allowed.**\r\n> elasticsearch_1  |      at org.elasticsearch.bootstrap.Elasticsearch.init(Elasticsearch.java:125) ~[elasticsearch-6.2.1.jar:6.2.1]\r\n> elasticsearch_1  |      at org.elasticsearch.bootstrap.Elasticsearch.execute(Elasticsearch.java:112) ~[elasticsearch-6.2.1.jar:6.2.1]\r\n> elasticsearch_1  |      at org.elasticsearch.cli.EnvironmentAwareCommand.execute(EnvironmentAwareCommand.java:86) ~[elasticsearch-6.2.1.jar:6.2.1]\r\n> elasticsearch_1  |      at org.elasticsearch.cli.Command.mainWithoutErrorHandling(Command.java:124) ~[elasticsearch-cli-6.2.1.jar:6.2.1]\r\n> elasticsearch_1  |      at org.elasticsearch.cli.Command.main(Command.java:90) ~[elasticsearch-cli-6.2.1.jar:6.2.1]\r\n> elasticsearch_1  |      at org.elasticsearch.bootstrap.Elasticsearch.main(Elasticsearch.java:92) ~[elasticsearch-6.2.1.jar:6.2.1]\r\n> elasticsearch_1  |      at org.elasticsearch.bootstrap.Elasticsearch.main(Elasticsearch.java:85) ~[elasticsearch-6.2.1.jar:6.2.1]\r\n> elasticsearch_1  | Caused by: java.lang.IllegalArgumentException: Failed to parse value [fals] as only [true] or [false] are allowed.\r\n> elasticsearch_1  |      at org.elasticsearch.common.Booleans.parseBoolean(Booleans.java:73) ~[elasticsearch-6.2.1.jar:6.2.1]\r\n> elasticsearch_1  |      at org.elasticsearch.common.settings.Setting.get(Setting.java:347) ~[elasticsearch-6.2.1.jar:6.2.1]\r\n> elasticsearch_1  |      at org.elasticsearch.common.settings.Setting.get(Setting.java:341) ~[elasticsearch-6.2.1.jar:6.2.1]\r\n> elasticsearch_1  |      at org.elasticsearch.common.settings.AbstractScopedSettings.validate(AbstractScopedSettings.java:362) ~[elasticsearch-6.2.1.jar:6.2.1]\r\n> elasticsearch_1  |      at org.elasticsearch.common.settings.AbstractScopedSettings.validate(AbstractScopedSettings.java:310) ~[elasticsearch-6.2.1.jar:6.2.1]\r\n> elasticsearch_1  |      at org.elasticsearch.common.settings.AbstractScopedSettings.validate(AbstractScopedSettings.java:284) ~[elasticsearch-6.2.1.jar:6.2.1]\r\n> elasticsearch_1  |      at org.elasticsearch.common.settings.SettingsModule.<init>(SettingsModule.java:134) ~[elasticsearch-6.2.1.jar:6.2.1]\r\n> elasticsearch_1  |      at org.elasticsearch.node.Node.<init>(Node.java:331) ~[elasticsearch-6.2.1.jar:6.2.1]\r\n> elasticsearch_1  |      at org.elasticsearch.node.Node.<init>(Node.java:246) ~[elasticsearch-6.2.1.jar:6.2.1]\r\n> elasticsearch_1  |      at org.elasticsearch.bootstrap.Bootstrap$5.<init>(Bootstrap.java:213) ~[elasticsearch-6.2.1.jar:6.2.1]\r\n> elasticsearch_1  |      at org.elasticsearch.bootstrap.Bootstrap.setup(Bootstrap.java:213) ~[elasticsearch-6.2.1.jar:6.2.1]\r\n> elasticsearch_1  |      at org.elasticsearch.bootstrap.Bootstrap.init(Bootstrap.java:323) ~[elasticsearch-6.2.1.jar:6.2.1]\r\n> elasticsearch_1  |      at org.elasticsearch.bootstrap.Elasticsearch.init(Elasticsearch.java:121) ~[elasticsearch-6.2.1.jar:6.2.1]\r\n> elasticsearch_1  |      ... 6 more\r\n> kibana_1         | {\"type\":\"log\",\"@timestamp\":\"2018-03-19T20:06:33Z\",\"tags\":[\"warning\",\"elasticsearch\",\"admin\"],\"pid\":1,\"message\":\"Unable to revive connection: http://elasticsearch:9200/\"}\r\n> kibana_1         | {\"type\":\"log\",\"@timestamp\":\"2018-03-19T20:06:33Z\",\"tags\":[\"warning\",\"elasticsearch\",\"admin\"],\"pid\":1,\"message\":\"No living connections\"}\r\n> dockerelkmaster_elasticsearch_1 exited with code 1\r\n\r\nI'm grateful for any support.\r\n\r\nThanks.","closed_by":{"login":"jasontedor","id":4744941,"node_id":"MDQ6VXNlcjQ3NDQ5NDE=","avatar_url":"https://avatars3.githubusercontent.com/u/4744941?v=4","gravatar_id":"","url":"https://api.github.com/users/jasontedor","html_url":"https://github.com/jasontedor","followers_url":"https://api.github.com/users/jasontedor/followers","following_url":"https://api.github.com/users/jasontedor/following{/other_user}","gists_url":"https://api.github.com/users/jasontedor/gists{/gist_id}","starred_url":"https://api.github.com/users/jasontedor/starred{/owner}{/repo}","subscriptions_url":"https://api.github.com/users/jasontedor/subscriptions","organizations_url":"https://api.github.com/users/jasontedor/orgs","repos_url":"https://api.github.com/users/jasontedor/repos","events_url":"https://api.github.com/users/jasontedor/events{/privacy}","received_events_url":"https://api.github.com/users/jasontedor/received_events","type":"User","site_admin":false}}", "commentIds":["374367990","374429480","374554999","374567264"], "labels":[]}