{"id":"29965", "title":"SQL: ordering by the second field that is used in group by doesn't seem to work", "body":"*Original comment by @imotov:*

To reproduce, load test_emp and execute the following query

```
SELECT  gender, COUNT(1) FROM test_emp GROUP BY YEAR(hire_date), gender ORDER BY gender
```

The results are first sorted by year and only within each year they are sorted by `gender`:

```
    gender     |   COUNT(1)    
---------------+---------------
F              |4              
M              |7              
F              |4              
M              |7              
F              |5              
M              |10             
F              |3              
M              |6              
F              |9              
M              |4  
```", "json":"{"url":"https://api.github.com/repos/elastic/elasticsearch/issues/29965","repository_url":"https://api.github.com/repos/elastic/elasticsearch","labels_url":"https://api.github.com/repos/elastic/elasticsearch/issues/29965/labels{/name}","comments_url":"https://api.github.com/repos/elastic/elasticsearch/issues/29965/comments","events_url":"https://api.github.com/repos/elastic/elasticsearch/issues/29965/events","html_url":"https://github.com/elastic/elasticsearch/issues/29965","id":317450076,"node_id":"MDU6SXNzdWUzMTc0NTAwNzY=","number":29965,"title":"SQL: ordering by the second field that is used in group by doesn't seem to work","user":{"login":"elasticmachine","id":15837671,"node_id":"MDQ6VXNlcjE1ODM3Njcx","avatar_url":"https://avatars3.githubusercontent.com/u/15837671?v=4","gravatar_id":"","url":"https://api.github.com/users/elasticmachine","html_url":"https://github.com/elasticmachine","followers_url":"https://api.github.com/users/elasticmachine/followers","following_url":"https://api.github.com/users/elasticmachine/following{/other_user}","gists_url":"https://api.github.com/users/elasticmachine/gists{/gist_id}","starred_url":"https://api.github.com/users/elasticmachine/starred{/owner}{/repo}","subscriptions_url":"https://api.github.com/users/elasticmachine/subscriptions","organizations_url":"https://api.github.com/users/elasticmachine/orgs","repos_url":"https://api.github.com/users/elasticmachine/repos","events_url":"https://api.github.com/users/elasticmachine/events{/privacy}","received_events_url":"https://api.github.com/users/elasticmachine/received_events","type":"User","site_admin":false},"labels":[{"id":912794284,"node_id":"MDU6TGFiZWw5MTI3OTQyODQ=","url":"https://api.github.com/repos/elastic/elasticsearch/labels/:Search/SQL","name":":Search/SQL","color":"0e8a16","default":false},{"id":23173,"node_id":"MDU6TGFiZWwyMzE3Mw==","url":"https://api.github.com/repos/elastic/elasticsearch/labels/%3Ebug","name":">bug","color":"b60205","default":false}],"state":"closed","locked":false,"assignee":null,"assignees":[],"milestone":null,"comments":3,"created_at":"2017-11-15T22:14:50Z","updated_at":"2018-06-19T13:53:17Z","closed_at":"2018-06-19T13:53:17Z","author_association":"COLLABORATOR","body":"*Original comment by @imotov:*\n\nTo reproduce, load test_emp and execute the following query\r\n\r\n```\r\nSELECT  gender, COUNT(1) FROM test_emp GROUP BY YEAR(hire_date), gender ORDER BY gender\r\n```\r\n\r\nThe results are first sorted by year and only within each year they are sorted by `gender`:\r\n\r\n```\r\n    gender     |   COUNT(1)    \r\n---------------+---------------\r\nF              |4              \r\nM              |7              \r\nF              |4              \r\nM              |7              \r\nF              |5              \r\nM              |10             \r\nF              |3              \r\nM              |6              \r\nF              |9              \r\nM              |4  \r\n```","closed_by":{"login":"costin","id":76245,"node_id":"MDQ6VXNlcjc2MjQ1","avatar_url":"https://avatars3.githubusercontent.com/u/76245?v=4","gravatar_id":"","url":"https://api.github.com/users/costin","html_url":"https://github.com/costin","followers_url":"https://api.github.com/users/costin/followers","following_url":"https://api.github.com/users/costin/following{/other_user}","gists_url":"https://api.github.com/users/costin/gists{/gist_id}","starred_url":"https://api.github.com/users/costin/starred{/owner}{/repo}","subscriptions_url":"https://api.github.com/users/costin/subscriptions","organizations_url":"https://api.github.com/users/costin/orgs","repos_url":"https://api.github.com/users/costin/repos","events_url":"https://api.github.com/users/costin/events{/privacy}","received_events_url":"https://api.github.com/users/costin/received_events","type":"User","site_admin":false}}", "commentIds":["384132954","398386747","398406801"], "labels":[":Search/SQL",">bug"]}