{"id":"30148", "title":"More Like This queries return 0 results if field in source document has 0 tokens in analyzed field", "body":"**Elasticsearch version**: 6.2.4

**Plugins installed**: []

**JVM version**: 1.8.0_101

**OS version**: MacOS (Darwin Kernel Version 15.6.0)

**Description of the problem including expected versus actual behavior**:
\"More Like This\" queries do not return any results when a field on the source document produces no tokens at index time. Using a keyword field and manually specifying the analyzer at query time works as expected.

**Steps to reproduce**:
```
PUT test
{
  \"mappings\": {
    \"type\": {
      \"properties\": {
        \"myField\": {
          \"type\": \"text\"
        },
        \"empty\": {
          \"type\": \"text\"
        }
      }
    }
  }
}
```

```
POST /_bulk
{ \"index\":  { \"_index\": \"test\", \"_type\": \"type\",\"_id\":1}}
{\"myField\":\"and_foo\", \"empty\":\"\"}
{ \"index\":  { \"_index\": \"test\", \"_type\": \"type\",\"_id\":2}}
{\"myField\":\"and_foo\", \"empty\":\"\"}
```

This query correctly returns 1 result:
```
GET /_search
{
  \"query\": {
    \"more_like_this\": {
      \"fields\": [
        \"myField\"
      ],
      \"like\": [
        {
          \"_index\": \"test\",
          \"_type\": \"type\",
          \"_id\": \"1\"
        }
      ],
      \"min_term_freq\": 1,
      \"min_doc_freq\": 1
    }
  }
}
```

This query returns no results when using both fields:
```
GET /_search
{
  \"query\": {
    \"more_like_this\": {
      \"fields\": [
        \"myField\", \"empty\"
      ],
      \"like\": [
        {
          \"_index\": \"test\",
          \"_type\": \"type\",
          \"_id\": \"1\"
        }
      ],
      \"min_term_freq\": 1,
      \"min_doc_freq\": 1
    }
  }
}
```

If you update the \"empty\" field in document 1 to contain non-analyzable characters (like punctuation), the first query still gives 0 results. Changing the \"empty\" field to be a keyword field works as expected.", "json":"{"url":"https://api.github.com/repos/elastic/elasticsearch/issues/30148","repository_url":"https://api.github.com/repos/elastic/elasticsearch","labels_url":"https://api.github.com/repos/elastic/elasticsearch/issues/30148/labels{/name}","comments_url":"https://api.github.com/repos/elastic/elasticsearch/issues/30148/comments","events_url":"https://api.github.com/repos/elastic/elasticsearch/issues/30148/events","html_url":"https://github.com/elastic/elasticsearch/issues/30148","id":317761614,"node_id":"MDU6SXNzdWUzMTc3NjE2MTQ=","number":30148,"title":"More Like This queries return 0 results if field in source document has 0 tokens in analyzed field","user":{"login":"kylelyk","id":3401359,"node_id":"MDQ6VXNlcjM0MDEzNTk=","avatar_url":"https://avatars1.githubusercontent.com/u/3401359?v=4","gravatar_id":"","url":"https://api.github.com/users/kylelyk","html_url":"https://github.com/kylelyk","followers_url":"https://api.github.com/users/kylelyk/followers","following_url":"https://api.github.com/users/kylelyk/following{/other_user}","gists_url":"https://api.github.com/users/kylelyk/gists{/gist_id}","starred_url":"https://api.github.com/users/kylelyk/starred{/owner}{/repo}","subscriptions_url":"https://api.github.com/users/kylelyk/subscriptions","organizations_url":"https://api.github.com/users/kylelyk/orgs","repos_url":"https://api.github.com/users/kylelyk/repos","events_url":"https://api.github.com/users/kylelyk/events{/privacy}","received_events_url":"https://api.github.com/users/kylelyk/received_events","type":"User","site_admin":false},"labels":[{"id":146832564,"node_id":"MDU6TGFiZWwxNDY4MzI1NjQ=","url":"https://api.github.com/repos/elastic/elasticsearch/labels/:Search/Search","name":":Search/Search","color":"0e8a16","default":false},{"id":23173,"node_id":"MDU6TGFiZWwyMzE3Mw==","url":"https://api.github.com/repos/elastic/elasticsearch/labels/%3Ebug","name":">bug","color":"b60205","default":false},{"id":92913858,"node_id":"MDU6TGFiZWw5MjkxMzg1OA==","url":"https://api.github.com/repos/elastic/elasticsearch/labels/good%20first%20issue","name":"good first issue","color":"07569b","default":true}],"state":"closed","locked":false,"assignee":null,"assignees":[],"milestone":null,"comments":6,"created_at":"2018-04-25T19:25:16Z","updated_at":"2018-05-08T13:13:08Z","closed_at":"2018-05-08T13:13:08Z","author_association":"NONE","body":"**Elasticsearch version**: 6.2.4\r\n\r\n**Plugins installed**: []\r\n\r\n**JVM version**: 1.8.0_101\r\n\r\n**OS version**: MacOS (Darwin Kernel Version 15.6.0)\r\n\r\n**Description of the problem including expected versus actual behavior**:\r\n\"More Like This\" queries do not return any results when a field on the source document produces no tokens at index time. Using a keyword field and manually specifying the analyzer at query time works as expected.\r\n\r\n**Steps to reproduce**:\r\n```\r\nPUT test\r\n{\r\n  \"mappings\": {\r\n    \"type\": {\r\n      \"properties\": {\r\n        \"myField\": {\r\n          \"type\": \"text\"\r\n        },\r\n        \"empty\": {\r\n          \"type\": \"text\"\r\n        }\r\n      }\r\n    }\r\n  }\r\n}\r\n```\r\n\r\n```\r\nPOST /_bulk\r\n{ \"index\":  { \"_index\": \"test\", \"_type\": \"type\",\"_id\":1}}\r\n{\"myField\":\"and_foo\", \"empty\":\"\"}\r\n{ \"index\":  { \"_index\": \"test\", \"_type\": \"type\",\"_id\":2}}\r\n{\"myField\":\"and_foo\", \"empty\":\"\"}\r\n```\r\n\r\nThis query correctly returns 1 result:\r\n```\r\nGET /_search\r\n{\r\n  \"query\": {\r\n    \"more_like_this\": {\r\n      \"fields\": [\r\n        \"myField\"\r\n      ],\r\n      \"like\": [\r\n        {\r\n          \"_index\": \"test\",\r\n          \"_type\": \"type\",\r\n          \"_id\": \"1\"\r\n        }\r\n      ],\r\n      \"min_term_freq\": 1,\r\n      \"min_doc_freq\": 1\r\n    }\r\n  }\r\n}\r\n```\r\n\r\nThis query returns no results when using both fields:\r\n```\r\nGET /_search\r\n{\r\n  \"query\": {\r\n    \"more_like_this\": {\r\n      \"fields\": [\r\n        \"myField\", \"empty\"\r\n      ],\r\n      \"like\": [\r\n        {\r\n          \"_index\": \"test\",\r\n          \"_type\": \"type\",\r\n          \"_id\": \"1\"\r\n        }\r\n      ],\r\n      \"min_term_freq\": 1,\r\n      \"min_doc_freq\": 1\r\n    }\r\n  }\r\n}\r\n```\r\n\r\nIf you update the \"empty\" field in document 1 to contain non-analyzable characters (like punctuation), the first query still gives 0 results. Changing the \"empty\" field to be a keyword field works as expected.","closed_by":{"login":"cbuescher","id":10398885,"node_id":"MDQ6VXNlcjEwMzk4ODg1","avatar_url":"https://avatars0.githubusercontent.com/u/10398885?v=4","gravatar_id":"","url":"https://api.github.com/users/cbuescher","html_url":"https://github.com/cbuescher","followers_url":"https://api.github.com/users/cbuescher/followers","following_url":"https://api.github.com/users/cbuescher/following{/other_user}","gists_url":"https://api.github.com/users/cbuescher/gists{/gist_id}","starred_url":"https://api.github.com/users/cbuescher/starred{/owner}{/repo}","subscriptions_url":"https://api.github.com/users/cbuescher/subscriptions","organizations_url":"https://api.github.com/users/cbuescher/orgs","repos_url":"https://api.github.com/users/cbuescher/repos","events_url":"https://api.github.com/users/cbuescher/events{/privacy}","received_events_url":"https://api.github.com/users/cbuescher/received_events","type":"User","site_admin":false}}", "commentIds":["384456404","384456735","384456890","384460641","385964546","385994466"], "labels":[":Search/Search",">bug","good first issue"]}