{"id":"32570", "title":"scaled_float still has precision problem", "body":"Reproduced on Elasticsearch version 6.3.2 in Elastic Cloud

Looks like this was addressed in [https://github.com/elastic/elasticsearch/pull/27207] but problem still exists.

Steps to reproduce:

PUT testindex{  
   \"settings\":{  
      \"number_of_shards\":1
   },
   \"mappings\":{  
      \"type1\":{  
         \"properties\":{  
            \"field1\":{  
               \"type\":\"scaled_float\",
               \"scaling_factor\":100
            }
         }
      }
   }
}

PUT /testindex/type1/1?pretty{  
   \"field1\":79.99
}

GET testindex/_search{  
   \"query\":{  
      \"bool\":{  
         \"must\":[  
            {  
               \"range\":{  
                  \"field1\":{  
                     \"gte\":0,
                     \"lte\":79.99
                  }
               }
            }
         ]
      }
   }
}

Query results in 0 hits. Looks like the query is being resolved to ` field1:[0 TO 7998] `, which is incorrect. I would expect to return document

Looking at the code, could we cast dValue to a float?? `hi = Math.round(Math.floor((float)dValue));`", "json":"{"url":"https://api.github.com/repos/elastic/elasticsearch/issues/32570","repository_url":"https://api.github.com/repos/elastic/elasticsearch","labels_url":"https://api.github.com/repos/elastic/elasticsearch/issues/32570/labels{/name}","comments_url":"https://api.github.com/repos/elastic/elasticsearch/issues/32570/comments","events_url":"https://api.github.com/repos/elastic/elasticsearch/issues/32570/events","html_url":"https://github.com/elastic/elasticsearch/issues/32570","id":346818717,"node_id":"MDU6SXNzdWUzNDY4MTg3MTc=","number":32570,"title":"scaled_float still has precision problem","user":{"login":"kyreddie","id":36240414,"node_id":"MDQ6VXNlcjM2MjQwNDE0","avatar_url":"https://avatars0.githubusercontent.com/u/36240414?v=4","gravatar_id":"","url":"https://api.github.com/users/kyreddie","html_url":"https://github.com/kyreddie","followers_url":"https://api.github.com/users/kyreddie/followers","following_url":"https://api.github.com/users/kyreddie/following{/other_user}","gists_url":"https://api.github.com/users/kyreddie/gists{/gist_id}","starred_url":"https://api.github.com/users/kyreddie/starred{/owner}{/repo}","subscriptions_url":"https://api.github.com/users/kyreddie/subscriptions","organizations_url":"https://api.github.com/users/kyreddie/orgs","repos_url":"https://api.github.com/users/kyreddie/repos","events_url":"https://api.github.com/users/kyreddie/events{/privacy}","received_events_url":"https://api.github.com/users/kyreddie/received_events","type":"User","site_admin":false},"labels":[{"id":141145460,"node_id":"MDU6TGFiZWwxNDExNDU0NjA=","url":"https://api.github.com/repos/elastic/elasticsearch/labels/:Search/Mapping","name":":Search/Mapping","color":"0e8a16","default":false},{"id":23173,"node_id":"MDU6TGFiZWwyMzE3Mw==","url":"https://api.github.com/repos/elastic/elasticsearch/labels/%3Ebug","name":">bug","color":"b60205","default":false},{"id":110815527,"node_id":"MDU6TGFiZWwxMTA4MTU1Mjc=","url":"https://api.github.com/repos/elastic/elasticsearch/labels/help%20wanted","name":"help wanted","color":"207de5","default":true}],"state":"closed","locked":false,"assignee":null,"assignees":[],"milestone":null,"comments":17,"created_at":"2018-08-02T00:42:55Z","updated_at":"2019-01-11T07:07:56Z","closed_at":"2019-01-11T07:07:56Z","author_association":"NONE","body":"Reproduced on Elasticsearch version 6.3.2 in Elastic Cloud\r\n\r\nLooks like this was addressed in [https://github.com/elastic/elasticsearch/pull/27207] but problem still exists.\r\n\r\nSteps to reproduce:\r\n\r\nPUT testindex{  \r\n   \"settings\":{  \r\n      \"number_of_shards\":1\r\n   },\r\n   \"mappings\":{  \r\n      \"type1\":{  \r\n         \"properties\":{  \r\n            \"field1\":{  \r\n               \"type\":\"scaled_float\",\r\n               \"scaling_factor\":100\r\n            }\r\n         }\r\n      }\r\n   }\r\n}\r\n\r\nPUT /testindex/type1/1?pretty{  \r\n   \"field1\":79.99\r\n}\r\n\r\nGET testindex/_search{  \r\n   \"query\":{  \r\n      \"bool\":{  \r\n         \"must\":[  \r\n            {  \r\n               \"range\":{  \r\n                  \"field1\":{  \r\n                     \"gte\":0,\r\n                     \"lte\":79.99\r\n                  }\r\n               }\r\n            }\r\n         ]\r\n      }\r\n   }\r\n}\r\n\r\nQuery results in 0 hits. Looks like the query is being resolved to ` field1:[0 TO 7998] `, which is incorrect. I would expect to return document\r\n\r\nLooking at the code, could we cast dValue to a float?? `hi = Math.round(Math.floor((float)dValue));`","closed_by":{"login":"original-brownbear","id":6490959,"node_id":"MDQ6VXNlcjY0OTA5NTk=","avatar_url":"https://avatars0.githubusercontent.com/u/6490959?v=4","gravatar_id":"","url":"https://api.github.com/users/original-brownbear","html_url":"https://github.com/original-brownbear","followers_url":"https://api.github.com/users/original-brownbear/followers","following_url":"https://api.github.com/users/original-brownbear/following{/other_user}","gists_url":"https://api.github.com/users/original-brownbear/gists{/gist_id}","starred_url":"https://api.github.com/users/original-brownbear/starred{/owner}{/repo}","subscriptions_url":"https://api.github.com/users/original-brownbear/subscriptions","organizations_url":"https://api.github.com/users/original-brownbear/orgs","repos_url":"https://api.github.com/users/original-brownbear/repos","events_url":"https://api.github.com/users/original-brownbear/events{/privacy}","received_events_url":"https://api.github.com/users/original-brownbear/received_events","type":"User","site_admin":false}}", "commentIds":["409769167","409770135","410263536","410308843","410402267","412085552","412450417","412474111","412484714","412485485","412841195","412879224","416276160","420439740","420540891","426412132","426421772"], "labels":[":Search/Mapping",">bug","help wanted"]}