{"id":"33193", "title":"Painless: BWC breaking parsing change in 6.3.0 onwards", "body":"**Elasticsearch version** (`bin/elasticsearch --version`): 6.4.0/6.3.2 (works in 6.2.4)

**Description of the problem including expected versus actual behavior**:

Parsing of scripts seems to have changed from 6.2 onwards, meaning that requests and watches that worked on 6.2 will suddenly break in 6.3 and above.

**Steps to reproduce**:

Run this script field with 6.3 and you will get

```
GET _search
{
  \"script_fields\": {
    \"test\": {
      \"script\": {
        \"source\" : \"def x = 1; if (x == 1) return true\"
      }
    }
  }
}
```

This is the response

```
{
  \"error\": {
    \"root_cause\": [
      {
        \"type\": \"script_exception\",
        \"reason\": \"compile error\",
        \"script_stack\": [
          \"... ; if (x == 1) return true\",
          \"                             ^---- HERE\"
        ],
        \"script\": \"def x = 1; if (x == 1) return true\",
        \"lang\": \"painless\"
      }
    ],
    \"type\": \"search_phase_execution_exception\",
    \"reason\": \"all shards failed\",
    \"phase\": \"query\",
    \"grouped\": true,
    \"failed_shards\": [
      {
        \"shard\": 0,
        \"index\": \".kibana\",
        \"node\": \"R2u0OqZuReaW5_cuIiso7w\",
        \"reason\": {
          \"type\": \"script_exception\",
          \"reason\": \"compile error\",
          \"script_stack\": [
            \"... ; if (x == 1) return true\",
            \"                             ^---- HERE\"
          ],
          \"script\": \"def x = 1; if (x == 1) return true\",
          \"lang\": \"painless\",
          \"caused_by\": {
            \"type\": \"illegal_argument_exception\",
            \"reason\": \"unexpected token ['<EOF>'] was expecting one of [';'].\"
          }
        }
      }
    ]
  },
  \"status\": 500
}
```

This above search will work fine under 6.2.4 though. If you append a semicolon at the end of the script, this also works in 6.3.2/6.4.0.

@jdconrad can you take a look please? This is breaking BWC compat in a minor release thus I think it warrants being a blocker for now.", "json":"{"url":"https://api.github.com/repos/elastic/elasticsearch/issues/33193","repository_url":"https://api.github.com/repos/elastic/elasticsearch","labels_url":"https://api.github.com/repos/elastic/elasticsearch/issues/33193/labels{/name}","comments_url":"https://api.github.com/repos/elastic/elasticsearch/issues/33193/comments","events_url":"https://api.github.com/repos/elastic/elasticsearch/issues/33193/events","html_url":"https://github.com/elastic/elasticsearch/issues/33193","id":354616359,"node_id":"MDU6SXNzdWUzNTQ2MTYzNTk=","number":33193,"title":"Painless: BWC breaking parsing change in 6.3.0 onwards","user":{"login":"spinscale","id":667544,"node_id":"MDQ6VXNlcjY2NzU0NA==","avatar_url":"https://avatars2.githubusercontent.com/u/667544?v=4","gravatar_id":"","url":"https://api.github.com/users/spinscale","html_url":"https://github.com/spinscale","followers_url":"https://api.github.com/users/spinscale/followers","following_url":"https://api.github.com/users/spinscale/following{/other_user}","gists_url":"https://api.github.com/users/spinscale/gists{/gist_id}","starred_url":"https://api.github.com/users/spinscale/starred{/owner}{/repo}","subscriptions_url":"https://api.github.com/users/spinscale/subscriptions","organizations_url":"https://api.github.com/users/spinscale/orgs","repos_url":"https://api.github.com/users/spinscale/repos","events_url":"https://api.github.com/users/spinscale/events{/privacy}","received_events_url":"https://api.github.com/users/spinscale/received_events","type":"User","site_admin":false},"labels":[{"id":146834791,"node_id":"MDU6TGFiZWwxNDY4MzQ3OTE=","url":"https://api.github.com/repos/elastic/elasticsearch/labels/:Core/Infra/Scripting","name":":Core/Infra/Scripting","color":"0e8a16","default":false},{"id":23173,"node_id":"MDU6TGFiZWwyMzE3Mw==","url":"https://api.github.com/repos/elastic/elasticsearch/labels/%3Ebug","name":">bug","color":"b60205","default":false},{"id":30486044,"node_id":"MDU6TGFiZWwzMDQ4NjA0NA==","url":"https://api.github.com/repos/elastic/elasticsearch/labels/%3Eregression","name":">regression","color":"d7e102","default":false},{"id":92913658,"node_id":"MDU6TGFiZWw5MjkxMzY1OA==","url":"https://api.github.com/repos/elastic/elasticsearch/labels/blocker","name":"blocker","color":"e11d21","default":false}],"state":"closed","locked":false,"assignee":null,"assignees":[],"milestone":null,"comments":4,"created_at":"2018-08-28T08:04:58Z","updated_at":"2018-08-28T20:16:09Z","closed_at":"2018-08-28T20:16:09Z","author_association":"MEMBER","body":"**Elasticsearch version** (`bin/elasticsearch --version`): 6.4.0/6.3.2 (works in 6.2.4)\r\n\r\n**Description of the problem including expected versus actual behavior**:\r\n\r\nParsing of scripts seems to have changed from 6.2 onwards, meaning that requests and watches that worked on 6.2 will suddenly break in 6.3 and above.\r\n\r\n**Steps to reproduce**:\r\n\r\nRun this script field with 6.3 and you will get\r\n\r\n```\r\nGET _search\r\n{\r\n  \"script_fields\": {\r\n    \"test\": {\r\n      \"script\": {\r\n        \"source\" : \"def x = 1; if (x == 1) return true\"\r\n      }\r\n    }\r\n  }\r\n}\r\n```\r\n\r\nThis is the response\r\n\r\n```\r\n{\r\n  \"error\": {\r\n    \"root_cause\": [\r\n      {\r\n        \"type\": \"script_exception\",\r\n        \"reason\": \"compile error\",\r\n        \"script_stack\": [\r\n          \"... ; if (x == 1) return true\",\r\n          \"                             ^---- HERE\"\r\n        ],\r\n        \"script\": \"def x = 1; if (x == 1) return true\",\r\n        \"lang\": \"painless\"\r\n      }\r\n    ],\r\n    \"type\": \"search_phase_execution_exception\",\r\n    \"reason\": \"all shards failed\",\r\n    \"phase\": \"query\",\r\n    \"grouped\": true,\r\n    \"failed_shards\": [\r\n      {\r\n        \"shard\": 0,\r\n        \"index\": \".kibana\",\r\n        \"node\": \"R2u0OqZuReaW5_cuIiso7w\",\r\n        \"reason\": {\r\n          \"type\": \"script_exception\",\r\n          \"reason\": \"compile error\",\r\n          \"script_stack\": [\r\n            \"... ; if (x == 1) return true\",\r\n            \"                             ^---- HERE\"\r\n          ],\r\n          \"script\": \"def x = 1; if (x == 1) return true\",\r\n          \"lang\": \"painless\",\r\n          \"caused_by\": {\r\n            \"type\": \"illegal_argument_exception\",\r\n            \"reason\": \"unexpected token ['<EOF>'] was expecting one of [';'].\"\r\n          }\r\n        }\r\n      }\r\n    ]\r\n  },\r\n  \"status\": 500\r\n}\r\n```\r\n\r\nThis above search will work fine under 6.2.4 though. If you append a semicolon at the end of the script, this also works in 6.3.2/6.4.0.\r\n\r\n@jdconrad can you take a look please? This is breaking BWC compat in a minor release thus I think it warrants being a blocker for now.","closed_by":{"login":"jdconrad","id":2126764,"node_id":"MDQ6VXNlcjIxMjY3NjQ=","avatar_url":"https://avatars2.githubusercontent.com/u/2126764?v=4","gravatar_id":"","url":"https://api.github.com/users/jdconrad","html_url":"https://github.com/jdconrad","followers_url":"https://api.github.com/users/jdconrad/followers","following_url":"https://api.github.com/users/jdconrad/following{/other_user}","gists_url":"https://api.github.com/users/jdconrad/gists{/gist_id}","starred_url":"https://api.github.com/users/jdconrad/starred{/owner}{/repo}","subscriptions_url":"https://api.github.com/users/jdconrad/subscriptions","organizations_url":"https://api.github.com/users/jdconrad/orgs","repos_url":"https://api.github.com/users/jdconrad/repos","events_url":"https://api.github.com/users/jdconrad/events{/privacy}","received_events_url":"https://api.github.com/users/jdconrad/received_events","type":"User","site_admin":false}}", "commentIds":["416489951","416619609","416657114","416725451"], "labels":[":Core/Infra/Scripting",">bug",">regression","blocker"]}