{"id":"34170", "title":"Stemmer Token Filter error when multiple names are given", "body":"**Elasticsearch version** (`bin/elasticsearch --version`):
6.4.0
**Plugins installed**: []

**JVM version** (`java -version`):
1.8.x
**OS version** (`uname -a` if on a Unix-like system):

**Description of the problem including expected versus actual behavior**:

**Steps to reproduce**:

If you run this request to creaste a mapping, no errors occurs until you push a document to it.
I think we should fail at the time of mapping creation.

```
DELETE test2
PUT /test2
{
  \"settings\": {
    \"analysis\": {
      \"analyzer\": {
        \"my_analyzer\": {
          \"tokenizer\": \"standard\",
          \"filter\": [
            \"standard\",
            \"lowercase\",
            \"my_stemmer\"
          ]
        }
      },
      \"filter\": {
        \"my_stemmer\": {
          \"type\": \"stemmer\",
          \"name\": [
            \"english\",
            \"light_english\",
            \"minimal_english\",
            \"possessive_english\",
            \"porter2\",
            \"lovins\"
          ]
        }
      }
    }
  },
  \"mappings\": {
    \"test\": {
      \"properties\": {
        \"country\": {
          \"type\": \"text\",
          \"index\": \"true\"
        },
        \"hotel_name\": {
          \"type\": \"text\",
          \"analyzer\": \"my_analyzer\"
        },
        \"null_test\": {
          \"type\": \"text\",
          \"analyzer\": \"standard\"
        },
        \"message\": {
          \"type\": \"text\"
        },
        \"postDate\": {
          \"type\": \"date\",
          \"format\": \"strict_date_optional_time||epoch_millis\"
        },
        \"price\": {
          \"type\": \"long\"
        },
        \"user\": {
          \"type\": \"text\"
        }
      }
    }
  }
}



 

PUT test2/test/4
{
  \"hotel_name\": \"fdfa\"
}
```


```
Response

{
  \"error\": {
    \"root_cause\": [
      {
        \"type\": \"illegal_argument_exception\",
        \"reason\": \"Invalid stemmer class specified: [english, light_english, minimal_english, possessive_english, porter2, lovins]\"
      }
    ],
    \"type\": \"illegal_argument_exception\",
    \"reason\": \"Invalid stemmer class specified: [english, light_english, minimal_english, possessive_english, porter2, lovins]\",
    \"caused_by\": {
      \"type\": \"class_not_found_exception\",
      \"reason\": \"org/tartarus/snowball/ext/[english, light_english, minimal_english, possessive_english, porter2, lovins]Stemmer\"
    }
  },
  \"status\": 400
}
```



", "json":"{"url":"https://api.github.com/repos/elastic/elasticsearch/issues/34170","repository_url":"https://api.github.com/repos/elastic/elasticsearch","labels_url":"https://api.github.com/repos/elastic/elasticsearch/issues/34170/labels{/name}","comments_url":"https://api.github.com/repos/elastic/elasticsearch/issues/34170/comments","events_url":"https://api.github.com/repos/elastic/elasticsearch/issues/34170/events","html_url":"https://github.com/elastic/elasticsearch/issues/34170","id":365285217,"node_id":"MDU6SXNzdWUzNjUyODUyMTc=","number":34170,"title":"Stemmer Token Filter error when multiple names are given","user":{"login":"TomonoriSoejima","id":25199092,"node_id":"MDQ6VXNlcjI1MTk5MDky","avatar_url":"https://avatars3.githubusercontent.com/u/25199092?v=4","gravatar_id":"","url":"https://api.github.com/users/TomonoriSoejima","html_url":"https://github.com/TomonoriSoejima","followers_url":"https://api.github.com/users/TomonoriSoejima/followers","following_url":"https://api.github.com/users/TomonoriSoejima/following{/other_user}","gists_url":"https://api.github.com/users/TomonoriSoejima/gists{/gist_id}","starred_url":"https://api.github.com/users/TomonoriSoejima/starred{/owner}{/repo}","subscriptions_url":"https://api.github.com/users/TomonoriSoejima/subscriptions","organizations_url":"https://api.github.com/users/TomonoriSoejima/orgs","repos_url":"https://api.github.com/users/TomonoriSoejima/repos","events_url":"https://api.github.com/users/TomonoriSoejima/events{/privacy}","received_events_url":"https://api.github.com/users/TomonoriSoejima/received_events","type":"User","site_admin":false},"labels":[{"id":142001965,"node_id":"MDU6TGFiZWwxNDIwMDE5NjU=","url":"https://api.github.com/repos/elastic/elasticsearch/labels/:Search/Analysis","name":":Search/Analysis","color":"0e8a16","default":false},{"id":23173,"node_id":"MDU6TGFiZWwyMzE3Mw==","url":"https://api.github.com/repos/elastic/elasticsearch/labels/%3Ebug","name":">bug","color":"b60205","default":false}],"state":"closed","locked":false,"assignee":{"login":"cbuescher","id":10398885,"node_id":"MDQ6VXNlcjEwMzk4ODg1","avatar_url":"https://avatars0.githubusercontent.com/u/10398885?v=4","gravatar_id":"","url":"https://api.github.com/users/cbuescher","html_url":"https://github.com/cbuescher","followers_url":"https://api.github.com/users/cbuescher/followers","following_url":"https://api.github.com/users/cbuescher/following{/other_user}","gists_url":"https://api.github.com/users/cbuescher/gists{/gist_id}","starred_url":"https://api.github.com/users/cbuescher/starred{/owner}{/repo}","subscriptions_url":"https://api.github.com/users/cbuescher/subscriptions","organizations_url":"https://api.github.com/users/cbuescher/orgs","repos_url":"https://api.github.com/users/cbuescher/repos","events_url":"https://api.github.com/users/cbuescher/events{/privacy}","received_events_url":"https://api.github.com/users/cbuescher/received_events","type":"User","site_admin":false},"assignees":[{"login":"cbuescher","id":10398885,"node_id":"MDQ6VXNlcjEwMzk4ODg1","avatar_url":"https://avatars0.githubusercontent.com/u/10398885?v=4","gravatar_id":"","url":"https://api.github.com/users/cbuescher","html_url":"https://github.com/cbuescher","followers_url":"https://api.github.com/users/cbuescher/followers","following_url":"https://api.github.com/users/cbuescher/following{/other_user}","gists_url":"https://api.github.com/users/cbuescher/gists{/gist_id}","starred_url":"https://api.github.com/users/cbuescher/starred{/owner}{/repo}","subscriptions_url":"https://api.github.com/users/cbuescher/subscriptions","organizations_url":"https://api.github.com/users/cbuescher/orgs","repos_url":"https://api.github.com/users/cbuescher/repos","events_url":"https://api.github.com/users/cbuescher/events{/privacy}","received_events_url":"https://api.github.com/users/cbuescher/received_events","type":"User","site_admin":false}],"milestone":null,"comments":1,"created_at":"2018-10-01T01:57:54Z","updated_at":"2018-10-19T10:59:24Z","closed_at":"2018-10-19T10:59:24Z","author_association":"NONE","body":"**Elasticsearch version** (`bin/elasticsearch --version`):\r\n6.4.0\r\n**Plugins installed**: []\r\n\r\n**JVM version** (`java -version`):\r\n1.8.x\r\n**OS version** (`uname -a` if on a Unix-like system):\r\n\r\n**Description of the problem including expected versus actual behavior**:\r\n\r\n**Steps to reproduce**:\r\n\r\nIf you run this request to creaste a mapping, no errors occurs until you push a document to it.\r\nI think we should fail at the time of mapping creation.\r\n\r\n```\r\nDELETE test2\r\nPUT /test2\r\n{\r\n  \"settings\": {\r\n    \"analysis\": {\r\n      \"analyzer\": {\r\n        \"my_analyzer\": {\r\n          \"tokenizer\": \"standard\",\r\n          \"filter\": [\r\n            \"standard\",\r\n            \"lowercase\",\r\n            \"my_stemmer\"\r\n          ]\r\n        }\r\n      },\r\n      \"filter\": {\r\n        \"my_stemmer\": {\r\n          \"type\": \"stemmer\",\r\n          \"name\": [\r\n            \"english\",\r\n            \"light_english\",\r\n            \"minimal_english\",\r\n            \"possessive_english\",\r\n            \"porter2\",\r\n            \"lovins\"\r\n          ]\r\n        }\r\n      }\r\n    }\r\n  },\r\n  \"mappings\": {\r\n    \"test\": {\r\n      \"properties\": {\r\n        \"country\": {\r\n          \"type\": \"text\",\r\n          \"index\": \"true\"\r\n        },\r\n        \"hotel_name\": {\r\n          \"type\": \"text\",\r\n          \"analyzer\": \"my_analyzer\"\r\n        },\r\n        \"null_test\": {\r\n          \"type\": \"text\",\r\n          \"analyzer\": \"standard\"\r\n        },\r\n        \"message\": {\r\n          \"type\": \"text\"\r\n        },\r\n        \"postDate\": {\r\n          \"type\": \"date\",\r\n          \"format\": \"strict_date_optional_time||epoch_millis\"\r\n        },\r\n        \"price\": {\r\n          \"type\": \"long\"\r\n        },\r\n        \"user\": {\r\n          \"type\": \"text\"\r\n        }\r\n      }\r\n    }\r\n  }\r\n}\r\n\r\n\r\n\r\n \r\n\r\nPUT test2/test/4\r\n{\r\n  \"hotel_name\": \"fdfa\"\r\n}\r\n```\r\n\r\n\r\n```\r\nResponse\r\n\r\n{\r\n  \"error\": {\r\n    \"root_cause\": [\r\n      {\r\n        \"type\": \"illegal_argument_exception\",\r\n        \"reason\": \"Invalid stemmer class specified: [english, light_english, minimal_english, possessive_english, porter2, lovins]\"\r\n      }\r\n    ],\r\n    \"type\": \"illegal_argument_exception\",\r\n    \"reason\": \"Invalid stemmer class specified: [english, light_english, minimal_english, possessive_english, porter2, lovins]\",\r\n    \"caused_by\": {\r\n      \"type\": \"class_not_found_exception\",\r\n      \"reason\": \"org/tartarus/snowball/ext/[english, light_english, minimal_english, possessive_english, porter2, lovins]Stemmer\"\r\n    }\r\n  },\r\n  \"status\": 400\r\n}\r\n```\r\n\r\n\r\n\r\n","closed_by":{"login":"cbuescher","id":10398885,"node_id":"MDQ6VXNlcjEwMzk4ODg1","avatar_url":"https://avatars0.githubusercontent.com/u/10398885?v=4","gravatar_id":"","url":"https://api.github.com/users/cbuescher","html_url":"https://github.com/cbuescher","followers_url":"https://api.github.com/users/cbuescher/followers","following_url":"https://api.github.com/users/cbuescher/following{/other_user}","gists_url":"https://api.github.com/users/cbuescher/gists{/gist_id}","starred_url":"https://api.github.com/users/cbuescher/starred{/owner}{/repo}","subscriptions_url":"https://api.github.com/users/cbuescher/subscriptions","organizations_url":"https://api.github.com/users/cbuescher/orgs","repos_url":"https://api.github.com/users/cbuescher/repos","events_url":"https://api.github.com/users/cbuescher/events{/privacy}","received_events_url":"https://api.github.com/users/cbuescher/received_events","type":"User","site_admin":false}}", "commentIds":["425824307"], "labels":[":Search/Analysis",">bug"]}