{"id":"34388", "title":"DSL query slower than EDB", "body":"Here is my DSL,can I optimization
{
    index: 'xxx',
    type: 'doc',
    body: {
        \"query\": {
            \"bool\" : {
                \"filter\": [
                    {
                        \"range\": {
                            \"xxx\": {\"gt\" : start, \"lte\" : end}
                        }
                    }
                ]
            }
        },
        size :0,
        \"aggregations\": {
            \"time\": {
                \"date_histogram\" : {
                    \"field\" : \"xxx\" ,
                    \"format\": \"yyyy-MM-dd kk:mm:ss\",
                    \"interval\": \"1m\",
                    \"time_zone\": \"Asia/Shanghai\",
                    \"order\" : { \"_key\" : \"desc\" },
                    \"offset\":    \"+8h\",
                    \"min_doc_count\": 1
                },
                \"aggregations\": {
                    \"xxx\": {
                        \"terms\": {
                            \"script\": \"doc['xxx.keyword'].value + '_' +doc['xxx.keyword'].value \"
                        },
                        \"aggregations\": {
                            \"xxx\": {
                                \"terms\": {
                                    \"field\": \"xxx\"
                                },
                                \"aggregations\": {
                                    \"xxx\": {
                                        \"terms\": {
                                            \"field\": \"xxx.keyword\"

                                        },
                                        \"aggregations\": {
                                            \"xxx\": {
                                                \"terms\": {
                                                    \"field\": \"xxx.keyword\"
                                                },
                                                \"aggregations\": {
                                                    \"xxx\": {
                                                        \"avg\": {
                                                            \"field\": \"xxx\"
                                                        }
                                                    },
                                                    \"xxx\": {
                                                        \"sum\": {
                                                            \"field\": \"xxx\"
                                                        }
                                                    },
                                                    \"xxx\": {
                                                        \"sum\": {
                                                            \"field\": \"xxx\"
                                                        }
                                                    },
                                                    \"xxx\": {
                                                        \"max\": {
                                                            \"field\": \"xxx\"
                                                        }
                                                    },
                                                    \"xxx\": {
                                                        \"min\": {
                                                            \"field\": \"xxx\"
                                                        }
                                                    }
                                                }
                                            }
                                        }
                                    }
                                }
                            }
                        }
                    }
                }
            }
        }
    }
};", "json":"{"url":"https://api.github.com/repos/elastic/elasticsearch/issues/34388","repository_url":"https://api.github.com/repos/elastic/elasticsearch","labels_url":"https://api.github.com/repos/elastic/elasticsearch/issues/34388/labels{/name}","comments_url":"https://api.github.com/repos/elastic/elasticsearch/issues/34388/comments","events_url":"https://api.github.com/repos/elastic/elasticsearch/issues/34388/events","html_url":"https://github.com/elastic/elasticsearch/issues/34388","id":368932468,"node_id":"MDU6SXNzdWUzNjg5MzI0Njg=","number":34388,"title":"DSL query slower than EDB","user":{"login":"koala775","id":35438579,"node_id":"MDQ6VXNlcjM1NDM4NTc5","avatar_url":"https://avatars2.githubusercontent.com/u/35438579?v=4","gravatar_id":"","url":"https://api.github.com/users/koala775","html_url":"https://github.com/koala775","followers_url":"https://api.github.com/users/koala775/followers","following_url":"https://api.github.com/users/koala775/following{/other_user}","gists_url":"https://api.github.com/users/koala775/gists{/gist_id}","starred_url":"https://api.github.com/users/koala775/starred{/owner}{/repo}","subscriptions_url":"https://api.github.com/users/koala775/subscriptions","organizations_url":"https://api.github.com/users/koala775/orgs","repos_url":"https://api.github.com/users/koala775/repos","events_url":"https://api.github.com/users/koala775/events{/privacy}","received_events_url":"https://api.github.com/users/koala775/received_events","type":"User","site_admin":false},"labels":[],"state":"closed","locked":false,"assignee":null,"assignees":[],"milestone":null,"comments":1,"created_at":"2018-10-11T02:59:13Z","updated_at":"2018-10-11T15:59:16Z","closed_at":"2018-10-11T15:59:16Z","author_association":"NONE","body":"Here is my DSL,can I optimization\r\n{\r\n    index: 'xxx',\r\n    type: 'doc',\r\n    body: {\r\n        \"query\": {\r\n            \"bool\" : {\r\n                \"filter\": [\r\n                    {\r\n                        \"range\": {\r\n                            \"xxx\": {\"gt\" : start, \"lte\" : end}\r\n                        }\r\n                    }\r\n                ]\r\n            }\r\n        },\r\n        size :0,\r\n        \"aggregations\": {\r\n            \"time\": {\r\n                \"date_histogram\" : {\r\n                    \"field\" : \"xxx\" ,\r\n                    \"format\": \"yyyy-MM-dd kk:mm:ss\",\r\n                    \"interval\": \"1m\",\r\n                    \"time_zone\": \"Asia/Shanghai\",\r\n                    \"order\" : { \"_key\" : \"desc\" },\r\n                    \"offset\":    \"+8h\",\r\n                    \"min_doc_count\": 1\r\n                },\r\n                \"aggregations\": {\r\n                    \"xxx\": {\r\n                        \"terms\": {\r\n                            \"script\": \"doc['xxx.keyword'].value + '_' +doc['xxx.keyword'].value \"\r\n                        },\r\n                        \"aggregations\": {\r\n                            \"xxx\": {\r\n                                \"terms\": {\r\n                                    \"field\": \"xxx\"\r\n                                },\r\n                                \"aggregations\": {\r\n                                    \"xxx\": {\r\n                                        \"terms\": {\r\n                                            \"field\": \"xxx.keyword\"\r\n\r\n                                        },\r\n                                        \"aggregations\": {\r\n                                            \"xxx\": {\r\n                                                \"terms\": {\r\n                                                    \"field\": \"xxx.keyword\"\r\n                                                },\r\n                                                \"aggregations\": {\r\n                                                    \"xxx\": {\r\n                                                        \"avg\": {\r\n                                                            \"field\": \"xxx\"\r\n                                                        }\r\n                                                    },\r\n                                                    \"xxx\": {\r\n                                                        \"sum\": {\r\n                                                            \"field\": \"xxx\"\r\n                                                        }\r\n                                                    },\r\n                                                    \"xxx\": {\r\n                                                        \"sum\": {\r\n                                                            \"field\": \"xxx\"\r\n                                                        }\r\n                                                    },\r\n                                                    \"xxx\": {\r\n                                                        \"max\": {\r\n                                                            \"field\": \"xxx\"\r\n                                                        }\r\n                                                    },\r\n                                                    \"xxx\": {\r\n                                                        \"min\": {\r\n                                                            \"field\": \"xxx\"\r\n                                                        }\r\n                                                    }\r\n                                                }\r\n                                            }\r\n                                        }\r\n                                    }\r\n                                }\r\n                            }\r\n                        }\r\n                    }\r\n                }\r\n            }\r\n        }\r\n    }\r\n};","closed_by":{"login":"jasontedor","id":4744941,"node_id":"MDQ6VXNlcjQ3NDQ5NDE=","avatar_url":"https://avatars3.githubusercontent.com/u/4744941?v=4","gravatar_id":"","url":"https://api.github.com/users/jasontedor","html_url":"https://github.com/jasontedor","followers_url":"https://api.github.com/users/jasontedor/followers","following_url":"https://api.github.com/users/jasontedor/following{/other_user}","gists_url":"https://api.github.com/users/jasontedor/gists{/gist_id}","starred_url":"https://api.github.com/users/jasontedor/starred{/owner}{/repo}","subscriptions_url":"https://api.github.com/users/jasontedor/subscriptions","organizations_url":"https://api.github.com/users/jasontedor/orgs","repos_url":"https://api.github.com/users/jasontedor/repos","events_url":"https://api.github.com/users/jasontedor/events{/privacy}","received_events_url":"https://api.github.com/users/jasontedor/received_events","type":"User","site_admin":false}}", "commentIds":["429012526"], "labels":[]}