{"id":"34393", "title":"java api create termsquery error ", "body":"ES version:5.11
java8

java API:
`ArrayList list = new ArrayList();

        list.add(\"1\");
        list.add(\"2\");
        list.add(\"3\");

        Map<String,Object> map = new HashMap();
            map.put(Constants.BRAND_ID,list);
        FunctionScoreQueryBuilder.FilterFunctionBuilder filterFunctionBuilder = new FunctionScoreQueryBuilder.FilterFunctionBuilder(

                boolQuery().must(termsQuery(Constants.LEAF_ID,\"1\",\"2\",\"3\")).must(termsQuery(Constants.BRAND_ID,map.get(Constants.BRAND_ID)))
                ,  weightFactorFunction(10));
        FunctionScoreQueryBuilder.FilterFunctionBuilder[] filterFunctionBuilders = {filterFunctionBuilder};
        FunctionScoreQueryBuilder functionScoreQueryBuilder = functionScoreQuery(matchAllQuery(),filterFunctionBuilders).scoreMode(FiltersFunctionScoreQuery.ScoreMode.FIRST).boostMode(CombineFunction.REPLACE);


        System.out.println(functionScoreQueryBuilder.toString());`

shows: 
    `{
  \"function_score\" : {
    \"query\" : {
      \"match_all\" : {
        \"boost\" : 1.0
      }
    },
    \"functions\" : [
      {
        \"filter\" : {
          \"bool\" : {
            \"must\" : [
              {
                \"terms\" : {
                  \"itemCategoryLevel3\" : [
                    \"1\",
                    \"2\",
                    \"3\"
                  ],
                  \"boost\" : 1.0
                }
              },
              {
                \"terms\" : {
                  \"brandId\" : [
                    [
                      \"1\",
                      \"2\",
                      \"3\"
                    ]
                  ],
                  \"boost\" : 1.0
                }
              }
            ],
            \"disable_coord\" : false,
            \"adjust_pure_negative\" : true,
            \"boost\" : 1.0
          }
        },
        \"weight\" : 10.0
      }
    ],
    \"score_mode\" : \"first\",
    \"boost_mode\" : \"replace\",
    \"max_boost\" : 3.4028235E38,
    \"boost\" : 1.0
  }
}`

  \"itemCategoryLevel3\" : [
                    \"1\",
                    \"2\",
                    \"3\"
                  ]  this phase  part is right 

  \"brandId\" : [
                    [
                      \"1\",
                      \"2\",
                      \"3\"
                    ]
                  ]  this  phase  is wrong 
 ", "json":"{"url":"https://api.github.com/repos/elastic/elasticsearch/issues/34393","repository_url":"https://api.github.com/repos/elastic/elasticsearch","labels_url":"https://api.github.com/repos/elastic/elasticsearch/issues/34393/labels{/name}","comments_url":"https://api.github.com/repos/elastic/elasticsearch/issues/34393/comments","events_url":"https://api.github.com/repos/elastic/elasticsearch/issues/34393/events","html_url":"https://github.com/elastic/elasticsearch/issues/34393","id":369020397,"node_id":"MDU6SXNzdWUzNjkwMjAzOTc=","number":34393,"title":"java api create termsquery error ","user":{"login":"PKFresher","id":11307522,"node_id":"MDQ6VXNlcjExMzA3NTIy","avatar_url":"https://avatars1.githubusercontent.com/u/11307522?v=4","gravatar_id":"","url":"https://api.github.com/users/PKFresher","html_url":"https://github.com/PKFresher","followers_url":"https://api.github.com/users/PKFresher/followers","following_url":"https://api.github.com/users/PKFresher/following{/other_user}","gists_url":"https://api.github.com/users/PKFresher/gists{/gist_id}","starred_url":"https://api.github.com/users/PKFresher/starred{/owner}{/repo}","subscriptions_url":"https://api.github.com/users/PKFresher/subscriptions","organizations_url":"https://api.github.com/users/PKFresher/orgs","repos_url":"https://api.github.com/users/PKFresher/repos","events_url":"https://api.github.com/users/PKFresher/events{/privacy}","received_events_url":"https://api.github.com/users/PKFresher/received_events","type":"User","site_admin":false},"labels":[],"state":"closed","locked":false,"assignee":null,"assignees":[],"milestone":null,"comments":0,"created_at":"2018-10-11T09:01:24Z","updated_at":"2018-10-11T09:54:56Z","closed_at":"2018-10-11T09:54:56Z","author_association":"NONE","body":"ES version:5.11\r\njava8\r\n\r\njava API:\r\n`ArrayList list = new ArrayList();\r\n\r\n        list.add(\"1\");\r\n        list.add(\"2\");\r\n        list.add(\"3\");\r\n\r\n        Map<String,Object> map = new HashMap();\r\n            map.put(Constants.BRAND_ID,list);\r\n        FunctionScoreQueryBuilder.FilterFunctionBuilder filterFunctionBuilder = new FunctionScoreQueryBuilder.FilterFunctionBuilder(\r\n\r\n                boolQuery().must(termsQuery(Constants.LEAF_ID,\"1\",\"2\",\"3\")).must(termsQuery(Constants.BRAND_ID,map.get(Constants.BRAND_ID)))\r\n                ,  weightFactorFunction(10));\r\n        FunctionScoreQueryBuilder.FilterFunctionBuilder[] filterFunctionBuilders = {filterFunctionBuilder};\r\n        FunctionScoreQueryBuilder functionScoreQueryBuilder = functionScoreQuery(matchAllQuery(),filterFunctionBuilders).scoreMode(FiltersFunctionScoreQuery.ScoreMode.FIRST).boostMode(CombineFunction.REPLACE);\r\n\r\n\r\n        System.out.println(functionScoreQueryBuilder.toString());`\r\n\r\nshows: \r\n    `{\r\n  \"function_score\" : {\r\n    \"query\" : {\r\n      \"match_all\" : {\r\n        \"boost\" : 1.0\r\n      }\r\n    },\r\n    \"functions\" : [\r\n      {\r\n        \"filter\" : {\r\n          \"bool\" : {\r\n            \"must\" : [\r\n              {\r\n                \"terms\" : {\r\n                  \"itemCategoryLevel3\" : [\r\n                    \"1\",\r\n                    \"2\",\r\n                    \"3\"\r\n                  ],\r\n                  \"boost\" : 1.0\r\n                }\r\n              },\r\n              {\r\n                \"terms\" : {\r\n                  \"brandId\" : [\r\n                    [\r\n                      \"1\",\r\n                      \"2\",\r\n                      \"3\"\r\n                    ]\r\n                  ],\r\n                  \"boost\" : 1.0\r\n                }\r\n              }\r\n            ],\r\n            \"disable_coord\" : false,\r\n            \"adjust_pure_negative\" : true,\r\n            \"boost\" : 1.0\r\n          }\r\n        },\r\n        \"weight\" : 10.0\r\n      }\r\n    ],\r\n    \"score_mode\" : \"first\",\r\n    \"boost_mode\" : \"replace\",\r\n    \"max_boost\" : 3.4028235E38,\r\n    \"boost\" : 1.0\r\n  }\r\n}`\r\n\r\n  \"itemCategoryLevel3\" : [\r\n                    \"1\",\r\n                    \"2\",\r\n                    \"3\"\r\n                  ]  this phase  part is right \r\n\r\n  \"brandId\" : [\r\n                    [\r\n                      \"1\",\r\n                      \"2\",\r\n                      \"3\"\r\n                    ]\r\n                  ]  this  phase  is wrong \r\n ","closed_by":{"login":"PKFresher","id":11307522,"node_id":"MDQ6VXNlcjExMzA3NTIy","avatar_url":"https://avatars1.githubusercontent.com/u/11307522?v=4","gravatar_id":"","url":"https://api.github.com/users/PKFresher","html_url":"https://github.com/PKFresher","followers_url":"https://api.github.com/users/PKFresher/followers","following_url":"https://api.github.com/users/PKFresher/following{/other_user}","gists_url":"https://api.github.com/users/PKFresher/gists{/gist_id}","starred_url":"https://api.github.com/users/PKFresher/starred{/owner}{/repo}","subscriptions_url":"https://api.github.com/users/PKFresher/subscriptions","organizations_url":"https://api.github.com/users/PKFresher/orgs","repos_url":"https://api.github.com/users/PKFresher/repos","events_url":"https://api.github.com/users/PKFresher/events{/privacy}","received_events_url":"https://api.github.com/users/PKFresher/received_events","type":"User","site_admin":false}}", "commentIds":[], "labels":[]}