{"id":"35233", "title":"SQL: Nulls are returned when filtering with `!=`", "body":"```
SELECT POSITION('x',LCASE(\"first_name\")) pos, \"first_name\" FROM \"test_emp\" WHERE POSITION('x',LCASE(\"first_name\")) != 0;
```
Returns:
```
      pos:i    |  first_name:s
---------------+---------------
4              |Guoxiang       
null           |null           
null           |null           
null           |null           
null           |null           
null           |null           
null           |null           
null           |null           
null           |null           
null           |null           
null           |null           
1              |Xinglin  
```

but it should be evaluated as `null !=0 => null` and because it's in the WHERE it should become `false`", "json":"{"url":"https://api.github.com/repos/elastic/elasticsearch/issues/35233","repository_url":"https://api.github.com/repos/elastic/elasticsearch","labels_url":"https://api.github.com/repos/elastic/elasticsearch/issues/35233/labels{/name}","comments_url":"https://api.github.com/repos/elastic/elasticsearch/issues/35233/comments","events_url":"https://api.github.com/repos/elastic/elasticsearch/issues/35233/events","html_url":"https://github.com/elastic/elasticsearch/issues/35233","id":377142210,"node_id":"MDU6SXNzdWUzNzcxNDIyMTA=","number":35233,"title":"SQL: Nulls are returned when filtering with `!=`","user":{"login":"matriv","id":5058131,"node_id":"MDQ6VXNlcjUwNTgxMzE=","avatar_url":"https://avatars1.githubusercontent.com/u/5058131?v=4","gravatar_id":"","url":"https://api.github.com/users/matriv","html_url":"https://github.com/matriv","followers_url":"https://api.github.com/users/matriv/followers","following_url":"https://api.github.com/users/matriv/following{/other_user}","gists_url":"https://api.github.com/users/matriv/gists{/gist_id}","starred_url":"https://api.github.com/users/matriv/starred{/owner}{/repo}","subscriptions_url":"https://api.github.com/users/matriv/subscriptions","organizations_url":"https://api.github.com/users/matriv/orgs","repos_url":"https://api.github.com/users/matriv/repos","events_url":"https://api.github.com/users/matriv/events{/privacy}","received_events_url":"https://api.github.com/users/matriv/received_events","type":"User","site_admin":false},"labels":[{"id":912794284,"node_id":"MDU6TGFiZWw5MTI3OTQyODQ=","url":"https://api.github.com/repos/elastic/elasticsearch/labels/:Search/SQL","name":":Search/SQL","color":"0e8a16","default":false},{"id":23173,"node_id":"MDU6TGFiZWwyMzE3Mw==","url":"https://api.github.com/repos/elastic/elasticsearch/labels/%3Ebug","name":">bug","color":"b60205","default":false},{"id":962378555,"node_id":"MDU6TGFiZWw5NjIzNzg1NTU=","url":"https://api.github.com/repos/elastic/elasticsearch/labels/v6.5.0","name":"v6.5.0","color":"Dddddd","default":false},{"id":1102494662,"node_id":"MDU6TGFiZWwxMTAyNDk0NjYy","url":"https://api.github.com/repos/elastic/elasticsearch/labels/v6.6.0","name":"v6.6.0","color":"dddddd","default":false},{"id":1223177445,"node_id":"MDU6TGFiZWwxMjIzMTc3NDQ1","url":"https://api.github.com/repos/elastic/elasticsearch/labels/v7.0.0-beta1","name":"v7.0.0-beta1","color":"dddddd","default":false}],"state":"closed","locked":false,"assignee":null,"assignees":[],"milestone":null,"comments":1,"created_at":"2018-11-04T11:09:57Z","updated_at":"2019-02-07T10:34:12Z","closed_at":"2018-11-05T21:23:08Z","author_association":"CONTRIBUTOR","body":"```\r\nSELECT POSITION('x',LCASE(\"first_name\")) pos, \"first_name\" FROM \"test_emp\" WHERE POSITION('x',LCASE(\"first_name\")) != 0;\r\n```\r\nReturns:\r\n```\r\n      pos:i    |  first_name:s\r\n---------------+---------------\r\n4              |Guoxiang       \r\nnull           |null           \r\nnull           |null           \r\nnull           |null           \r\nnull           |null           \r\nnull           |null           \r\nnull           |null           \r\nnull           |null           \r\nnull           |null           \r\nnull           |null           \r\nnull           |null           \r\n1              |Xinglin  \r\n```\r\n\r\nbut it should be evaluated as `null !=0 => null` and because it's in the WHERE it should become `false`","closed_by":{"login":"matriv","id":5058131,"node_id":"MDQ6VXNlcjUwNTgxMzE=","avatar_url":"https://avatars1.githubusercontent.com/u/5058131?v=4","gravatar_id":"","url":"https://api.github.com/users/matriv","html_url":"https://github.com/matriv","followers_url":"https://api.github.com/users/matriv/followers","following_url":"https://api.github.com/users/matriv/following{/other_user}","gists_url":"https://api.github.com/users/matriv/gists{/gist_id}","starred_url":"https://api.github.com/users/matriv/starred{/owner}{/repo}","subscriptions_url":"https://api.github.com/users/matriv/subscriptions","organizations_url":"https://api.github.com/users/matriv/orgs","repos_url":"https://api.github.com/users/matriv/repos","events_url":"https://api.github.com/users/matriv/events{/privacy}","received_events_url":"https://api.github.com/users/matriv/received_events","type":"User","site_admin":false}}", "commentIds":["435660569"], "labels":[":Search/SQL",">bug","v6.5.0","v6.6.0","v7.0.0-beta1"]}