{"id":"35980", "title":"SQL: SELECTing a locally evaluated function with a condition evaluating to false doesn't work", "body":"Two scenarios are incorrect here:
1.

```
sql> SELECT PI() FROM test_emp WHERE PI()=5;
       PI
-----------------
3.141592653589793
```

this shouldn't return any values.

2. 

```
sql> SELECT PI() FROM test_emp WHERE PI()=5 LIMIT 3;                                                                                                                                               
Server error [Server encountered an error [Encountered a bug; LocalExec[PI{c}#75=3.141592653589793] is a LocalExec but is not empty]. [SqlIllegalArgumentException[Encountered a bug; LocalExec[PI{
c}#75=3.141592653589793] is a LocalExec but is not empty]                                                                                                                                          
        at org.elasticsearch.xpack.sql.planner.QueryFolder$PropagateEmptyLocal.rule(QueryFolder.java:530)                                                                                          
        at org.elasticsearch.xpack.sql.tree.Node.lambda$transformUp$11(Node.java:188)                                                                                                              
        at org.elasticsearch.xpack.sql.tree.Node.transformUp(Node.java:182)                                                                                                                        
        at org.elasticsearch.xpack.sql.tree.Node.transformUp(Node.java:188)                                                                                                                        
        at org.elasticsearch.xpack.sql.planner.QueryFolder$FoldingRule.apply(QueryFolder.java:555)                                                                                                 
        at org.elasticsearch.xpack.sql.planner.QueryFolder$FoldingRule.apply(QueryFolder.java:551)                                                                                                 
        at org.elasticsearch.xpack.sql.rule.RuleExecutor$Transformation.<init>(RuleExecutor.java:82)                                                                                               
        at org.elasticsearch.xpack.sql.rule.RuleExecutor.executeWithInfo(RuleExecutor.java:155)                                                                                                    
        at org.elasticsearch.xpack.sql.rule.RuleExecutor.execute(RuleExecutor.java:130)                                                                                                            
        at org.elasticsearch.xpack.sql.planner.QueryFolder.fold(QueryFolder.java:83)                                                                                                               
        at org.elasticsearch.xpack.sql.planner.Planner.foldPlan(Planner.java:38)                                                                                                                   
        at org.elasticsearch.xpack.sql.planner.Planner.plan(Planner.java:28)                                                                                                                       
        at org.elasticsearch.xpack.sql.session.SqlSession.lambda$physicalPlan$4(SqlSession.java:153)                                                                                               
        at org.elasticsearch.action.ActionListener$1.onResponse(ActionListener.java:60)                                                                                                            
        at org.elasticsearch.xpack.sql.session.SqlSession.lambda$optimizedPlan$3(SqlSession.java:149)                                                                                              
        at org.elasticsearch.action.ActionListener$1.onResponse(ActionListener.java:60)                                                                                                            
        at org.elasticsearch.xpack.sql.session.SqlSession.lambda$preAnalyze$2(SqlSession.java:137)                                                                                                 
        at org.elasticsearch.action.ActionListener$1.onResponse(ActionListener.java:60)                                                                                                            
        at org.elasticsearch.xpack.sql.analysis.index.IndexResolver.lambda$resolveAsMergedMapping$3(IndexResolver.java:246)                                                                        
        at org.elasticsearch.action.ActionListener$1.onResponse(ActionListener.java:60)                                                                                                            
        at org.elasticsearch.action.support.TransportAction$1.onResponse(TransportAction.java:64)                                                                                                  
        at org.elasticsearch.action.support.TransportAction$1.onResponse(TransportAction.java:60)                                                                                                  
        at org.elasticsearch.action.support.ContextPreservingActionListener.onResponse(ContextPreservingActionListener.java:43)                                                                    
        at org.elasticsearch.action.fieldcaps.TransportFieldCapabilitiesAction.lambda$doExecute$1(TransportFieldCapabilitiesAction.java:84)                                                        
        at org.elasticsearch.action.fieldcaps.TransportFieldCapabilitiesAction$1.onResponse(TransportFieldCapabilitiesAction.java:97)                                                              
        at org.elasticsearch.action.fieldcaps.TransportFieldCapabilitiesAction$1.onResponse(TransportFieldCapabilitiesAction.java:93)                                                              
        at org.elasticsearch.action.support.TransportAction$1.onResponse(TransportAction.java:64)                                                                                                  
        at org.elasticsearch.action.support.TransportAction$1.onResponse(TransportAction.java:60)                                                                                                  
        at org.elasticsearch.action.support.ContextPreservingActionListener.onResponse(ContextPreservingActionListener.java:43)                                                                    
        at org.elasticsearch.action.support.single.shard.TransportSingleShardAction$AsyncSingleAction$2.handleResponse(TransportSingleShardAction.java:271)                                        
        at org.elasticsearch.action.support.single.shard.TransportSingleShardAction$AsyncSingleAction$2.handleResponse(TransportSingleShardAction.java:255)                                        
        at org.elasticsearch.transport.TransportService$ContextRestoreResponseHandler.handleResponse(TransportService.java:1119)                                                                   
        at org.elasticsearch.transport.TransportService$DirectResponseChannel.processResponse(TransportService.java:1200)                                                                          
        at org.elasticsearch.transport.TransportService$DirectResponseChannel.sendResponse(TransportService.java:1180)                                                                             
        at org.elasticsearch.transport.TaskTransportChannel.sendResponse(TaskTransportChannel.java:54)                                                                                             
        at org.elasticsearch.action.support.HandledTransportAction$ChannelActionListener.onResponse(HandledTransportAction.java:93)                                                                
        at org.elasticsearch.action.support.HandledTransportAction$ChannelActionListener.onResponse(HandledTransportAction.java:77)                                                                
        at org.elasticsearch.action.support.single.shard.TransportSingleShardAction$1.doRun(TransportSingleShardAction.java:117)                                                                   
        at org.elasticsearch.common.util.concurrent.ThreadContext$ContextPreservingAbstractRunnable.doRun(ThreadContext.java:726)                                                                  
        at org.elasticsearch.common.util.concurrent.AbstractRunnable.run(AbstractRunnable.java:37)                                                                                                 
        at java.base/java.util.concurrent.ThreadPoolExecutor.runWorker(ThreadPoolExecutor.java:1128)                                                                                               
        at java.base/java.util.concurrent.ThreadPoolExecutor$Worker.run(ThreadPoolExecutor.java:628)                                                                                               
        at java.base/java.lang.Thread.run(Thread.java:834)                                                                                                                                         
```", "json":"{"url":"https://api.github.com/repos/elastic/elasticsearch/issues/35980","repository_url":"https://api.github.com/repos/elastic/elasticsearch","labels_url":"https://api.github.com/repos/elastic/elasticsearch/issues/35980/labels{/name}","comments_url":"https://api.github.com/repos/elastic/elasticsearch/issues/35980/comments","events_url":"https://api.github.com/repos/elastic/elasticsearch/issues/35980/events","html_url":"https://github.com/elastic/elasticsearch/issues/35980","id":385153614,"node_id":"MDU6SXNzdWUzODUxNTM2MTQ=","number":35980,"title":"SQL: SELECTing a locally evaluated function with a condition evaluating to false doesn't work","user":{"login":"astefan","id":893749,"node_id":"MDQ6VXNlcjg5Mzc0OQ==","avatar_url":"https://avatars2.githubusercontent.com/u/893749?v=4","gravatar_id":"","url":"https://api.github.com/users/astefan","html_url":"https://github.com/astefan","followers_url":"https://api.github.com/users/astefan/followers","following_url":"https://api.github.com/users/astefan/following{/other_user}","gists_url":"https://api.github.com/users/astefan/gists{/gist_id}","starred_url":"https://api.github.com/users/astefan/starred{/owner}{/repo}","subscriptions_url":"https://api.github.com/users/astefan/subscriptions","organizations_url":"https://api.github.com/users/astefan/orgs","repos_url":"https://api.github.com/users/astefan/repos","events_url":"https://api.github.com/users/astefan/events{/privacy}","received_events_url":"https://api.github.com/users/astefan/received_events","type":"User","site_admin":false},"labels":[{"id":912794284,"node_id":"MDU6TGFiZWw5MTI3OTQyODQ=","url":"https://api.github.com/repos/elastic/elasticsearch/labels/:Search/SQL","name":":Search/SQL","color":"0e8a16","default":false},{"id":23173,"node_id":"MDU6TGFiZWwyMzE3Mw==","url":"https://api.github.com/repos/elastic/elasticsearch/labels/%3Ebug","name":">bug","color":"b60205","default":false}],"state":"closed","locked":false,"assignee":{"login":"matriv","id":5058131,"node_id":"MDQ6VXNlcjUwNTgxMzE=","avatar_url":"https://avatars1.githubusercontent.com/u/5058131?v=4","gravatar_id":"","url":"https://api.github.com/users/matriv","html_url":"https://github.com/matriv","followers_url":"https://api.github.com/users/matriv/followers","following_url":"https://api.github.com/users/matriv/following{/other_user}","gists_url":"https://api.github.com/users/matriv/gists{/gist_id}","starred_url":"https://api.github.com/users/matriv/starred{/owner}{/repo}","subscriptions_url":"https://api.github.com/users/matriv/subscriptions","organizations_url":"https://api.github.com/users/matriv/orgs","repos_url":"https://api.github.com/users/matriv/repos","events_url":"https://api.github.com/users/matriv/events{/privacy}","received_events_url":"https://api.github.com/users/matriv/received_events","type":"User","site_admin":false},"assignees":[{"login":"matriv","id":5058131,"node_id":"MDQ6VXNlcjUwNTgxMzE=","avatar_url":"https://avatars1.githubusercontent.com/u/5058131?v=4","gravatar_id":"","url":"https://api.github.com/users/matriv","html_url":"https://github.com/matriv","followers_url":"https://api.github.com/users/matriv/followers","following_url":"https://api.github.com/users/matriv/following{/other_user}","gists_url":"https://api.github.com/users/matriv/gists{/gist_id}","starred_url":"https://api.github.com/users/matriv/starred{/owner}{/repo}","subscriptions_url":"https://api.github.com/users/matriv/subscriptions","organizations_url":"https://api.github.com/users/matriv/orgs","repos_url":"https://api.github.com/users/matriv/repos","events_url":"https://api.github.com/users/matriv/events{/privacy}","received_events_url":"https://api.github.com/users/matriv/received_events","type":"User","site_admin":false}],"milestone":null,"comments":1,"created_at":"2018-11-28T08:29:27Z","updated_at":"2018-12-20T07:56:08Z","closed_at":"2018-12-20T07:56:08Z","author_association":"CONTRIBUTOR","body":"Two scenarios are incorrect here:\r\n1.\r\n\r\n```\r\nsql> SELECT PI() FROM test_emp WHERE PI()=5;\r\n       PI\r\n-----------------\r\n3.141592653589793\r\n```\r\n\r\nthis shouldn't return any values.\r\n\r\n2. \r\n\r\n```\r\nsql> SELECT PI() FROM test_emp WHERE PI()=5 LIMIT 3;                                                                                                                                               \r\nServer error [Server encountered an error [Encountered a bug; LocalExec[PI{c}#75=3.141592653589793] is a LocalExec but is not empty]. [SqlIllegalArgumentException[Encountered a bug; LocalExec[PI{\r\nc}#75=3.141592653589793] is a LocalExec but is not empty]                                                                                                                                          \r\n        at org.elasticsearch.xpack.sql.planner.QueryFolder$PropagateEmptyLocal.rule(QueryFolder.java:530)                                                                                          \r\n        at org.elasticsearch.xpack.sql.tree.Node.lambda$transformUp$11(Node.java:188)                                                                                                              \r\n        at org.elasticsearch.xpack.sql.tree.Node.transformUp(Node.java:182)                                                                                                                        \r\n        at org.elasticsearch.xpack.sql.tree.Node.transformUp(Node.java:188)                                                                                                                        \r\n        at org.elasticsearch.xpack.sql.planner.QueryFolder$FoldingRule.apply(QueryFolder.java:555)                                                                                                 \r\n        at org.elasticsearch.xpack.sql.planner.QueryFolder$FoldingRule.apply(QueryFolder.java:551)                                                                                                 \r\n        at org.elasticsearch.xpack.sql.rule.RuleExecutor$Transformation.<init>(RuleExecutor.java:82)                                                                                               \r\n        at org.elasticsearch.xpack.sql.rule.RuleExecutor.executeWithInfo(RuleExecutor.java:155)                                                                                                    \r\n        at org.elasticsearch.xpack.sql.rule.RuleExecutor.execute(RuleExecutor.java:130)                                                                                                            \r\n        at org.elasticsearch.xpack.sql.planner.QueryFolder.fold(QueryFolder.java:83)                                                                                                               \r\n        at org.elasticsearch.xpack.sql.planner.Planner.foldPlan(Planner.java:38)                                                                                                                   \r\n        at org.elasticsearch.xpack.sql.planner.Planner.plan(Planner.java:28)                                                                                                                       \r\n        at org.elasticsearch.xpack.sql.session.SqlSession.lambda$physicalPlan$4(SqlSession.java:153)                                                                                               \r\n        at org.elasticsearch.action.ActionListener$1.onResponse(ActionListener.java:60)                                                                                                            \r\n        at org.elasticsearch.xpack.sql.session.SqlSession.lambda$optimizedPlan$3(SqlSession.java:149)                                                                                              \r\n        at org.elasticsearch.action.ActionListener$1.onResponse(ActionListener.java:60)                                                                                                            \r\n        at org.elasticsearch.xpack.sql.session.SqlSession.lambda$preAnalyze$2(SqlSession.java:137)                                                                                                 \r\n        at org.elasticsearch.action.ActionListener$1.onResponse(ActionListener.java:60)                                                                                                            \r\n        at org.elasticsearch.xpack.sql.analysis.index.IndexResolver.lambda$resolveAsMergedMapping$3(IndexResolver.java:246)                                                                        \r\n        at org.elasticsearch.action.ActionListener$1.onResponse(ActionListener.java:60)                                                                                                            \r\n        at org.elasticsearch.action.support.TransportAction$1.onResponse(TransportAction.java:64)                                                                                                  \r\n        at org.elasticsearch.action.support.TransportAction$1.onResponse(TransportAction.java:60)                                                                                                  \r\n        at org.elasticsearch.action.support.ContextPreservingActionListener.onResponse(ContextPreservingActionListener.java:43)                                                                    \r\n        at org.elasticsearch.action.fieldcaps.TransportFieldCapabilitiesAction.lambda$doExecute$1(TransportFieldCapabilitiesAction.java:84)                                                        \r\n        at org.elasticsearch.action.fieldcaps.TransportFieldCapabilitiesAction$1.onResponse(TransportFieldCapabilitiesAction.java:97)                                                              \r\n        at org.elasticsearch.action.fieldcaps.TransportFieldCapabilitiesAction$1.onResponse(TransportFieldCapabilitiesAction.java:93)                                                              \r\n        at org.elasticsearch.action.support.TransportAction$1.onResponse(TransportAction.java:64)                                                                                                  \r\n        at org.elasticsearch.action.support.TransportAction$1.onResponse(TransportAction.java:60)                                                                                                  \r\n        at org.elasticsearch.action.support.ContextPreservingActionListener.onResponse(ContextPreservingActionListener.java:43)                                                                    \r\n        at org.elasticsearch.action.support.single.shard.TransportSingleShardAction$AsyncSingleAction$2.handleResponse(TransportSingleShardAction.java:271)                                        \r\n        at org.elasticsearch.action.support.single.shard.TransportSingleShardAction$AsyncSingleAction$2.handleResponse(TransportSingleShardAction.java:255)                                        \r\n        at org.elasticsearch.transport.TransportService$ContextRestoreResponseHandler.handleResponse(TransportService.java:1119)                                                                   \r\n        at org.elasticsearch.transport.TransportService$DirectResponseChannel.processResponse(TransportService.java:1200)                                                                          \r\n        at org.elasticsearch.transport.TransportService$DirectResponseChannel.sendResponse(TransportService.java:1180)                                                                             \r\n        at org.elasticsearch.transport.TaskTransportChannel.sendResponse(TaskTransportChannel.java:54)                                                                                             \r\n        at org.elasticsearch.action.support.HandledTransportAction$ChannelActionListener.onResponse(HandledTransportAction.java:93)                                                                \r\n        at org.elasticsearch.action.support.HandledTransportAction$ChannelActionListener.onResponse(HandledTransportAction.java:77)                                                                \r\n        at org.elasticsearch.action.support.single.shard.TransportSingleShardAction$1.doRun(TransportSingleShardAction.java:117)                                                                   \r\n        at org.elasticsearch.common.util.concurrent.ThreadContext$ContextPreservingAbstractRunnable.doRun(ThreadContext.java:726)                                                                  \r\n        at org.elasticsearch.common.util.concurrent.AbstractRunnable.run(AbstractRunnable.java:37)                                                                                                 \r\n        at java.base/java.util.concurrent.ThreadPoolExecutor.runWorker(ThreadPoolExecutor.java:1128)                                                                                               \r\n        at java.base/java.util.concurrent.ThreadPoolExecutor$Worker.run(ThreadPoolExecutor.java:628)                                                                                               \r\n        at java.base/java.lang.Thread.run(Thread.java:834)                                                                                                                                         \r\n```","closed_by":{"login":"matriv","id":5058131,"node_id":"MDQ6VXNlcjUwNTgxMzE=","avatar_url":"https://avatars1.githubusercontent.com/u/5058131?v=4","gravatar_id":"","url":"https://api.github.com/users/matriv","html_url":"https://github.com/matriv","followers_url":"https://api.github.com/users/matriv/followers","following_url":"https://api.github.com/users/matriv/following{/other_user}","gists_url":"https://api.github.com/users/matriv/gists{/gist_id}","starred_url":"https://api.github.com/users/matriv/starred{/owner}{/repo}","subscriptions_url":"https://api.github.com/users/matriv/subscriptions","organizations_url":"https://api.github.com/users/matriv/orgs","repos_url":"https://api.github.com/users/matriv/repos","events_url":"https://api.github.com/users/matriv/events{/privacy}","received_events_url":"https://api.github.com/users/matriv/received_events","type":"User","site_admin":false}}", "commentIds":["442361607"], "labels":[":Search/SQL",">bug"]}