{"id":"36128", "title":"[Documentation] Jira example wrong in watcher action", "body":"Right now the example has:
```json
\"actions\" : {
  \"create-jira-issue\" : {
    \"transform\" : { ... },
    \"throttle_period\" : \"5m\",
    \"jira\" : {
      \"account\" : \"integration-account\", 
      \"fields\" : {
        \"issue\" : {
          \"project\" : {
            \"key\": \"PROJ\" 
          },
          \"issuetype\" : {
            \"name\": \"Bug\" 
          },
          \"summary\" : \"Encountered {{ctx.payload.hits.total}} errors in the last 5 minutes\", 
          \"description\" : \"Encountered {{ctx.payload.hits.total}} errors in the last 5 minutes (facepalm)\", 
          \"labels\" : [\"auto\"], 
          \"priority\" : {
            \"name\" : \"High\" 
          }
        }
      }
    }
  }
}
```

It should instead be:

```json
\"actions\" : {
  \"create-jira-issue\" : {
    \"transform\" : { ... },
    \"throttle_period\" : \"5m\",
    \"jira\" : {
      \"account\" : \"integration-account\", 
      \"fields\" : {
       
         \"project\" : {
            \"key\": \"PROJ\" 
          },
          \"issuetype\" : {
            \"name\": \"Bug\" 
          },
          \"summary\" : \"Encountered {{ctx.payload.hits.total}} errors in the last 5 minutes\", 
          \"description\" : \"Encountered {{ctx.payload.hits.total}} errors in the last 5 minutes (facepalm)\", 
          \"labels\" : [\"auto\"], 
          \"priority\" : {
            \"name\" : \"High\" 
          }

      }
    }
  }
}
```

not `issue` in `fields` as per https://developer.atlassian.com/server/jira/platform/jira-rest-api-examples/", "json":"{"url":"https://api.github.com/repos/elastic/elasticsearch/issues/36128","repository_url":"https://api.github.com/repos/elastic/elasticsearch","labels_url":"https://api.github.com/repos/elastic/elasticsearch/issues/36128/labels{/name}","comments_url":"https://api.github.com/repos/elastic/elasticsearch/issues/36128/comments","events_url":"https://api.github.com/repos/elastic/elasticsearch/issues/36128/events","html_url":"https://github.com/elastic/elasticsearch/issues/36128","id":386367968,"node_id":"MDU6SXNzdWUzODYzNjc5Njg=","number":36128,"title":"[Documentation] Jira example wrong in watcher action","user":{"login":"HonzaKral","id":32132,"node_id":"MDQ6VXNlcjMyMTMy","avatar_url":"https://avatars0.githubusercontent.com/u/32132?v=4","gravatar_id":"","url":"https://api.github.com/users/HonzaKral","html_url":"https://github.com/HonzaKral","followers_url":"https://api.github.com/users/HonzaKral/followers","following_url":"https://api.github.com/users/HonzaKral/following{/other_user}","gists_url":"https://api.github.com/users/HonzaKral/gists{/gist_id}","starred_url":"https://api.github.com/users/HonzaKral/starred{/owner}{/repo}","subscriptions_url":"https://api.github.com/users/HonzaKral/subscriptions","organizations_url":"https://api.github.com/users/HonzaKral/orgs","repos_url":"https://api.github.com/users/HonzaKral/repos","events_url":"https://api.github.com/users/HonzaKral/events{/privacy}","received_events_url":"https://api.github.com/users/HonzaKral/received_events","type":"User","site_admin":false},"labels":[{"id":912845062,"node_id":"MDU6TGFiZWw5MTI4NDUwNjI=","url":"https://api.github.com/repos/elastic/elasticsearch/labels/:Core/Features/Watcher","name":":Core/Features/Watcher","color":"0e8a16","default":false},{"id":23715,"node_id":"MDU6TGFiZWwyMzcxNQ==","url":"https://api.github.com/repos/elastic/elasticsearch/labels/%3Edocs","name":">docs","color":"db755e","default":false}],"state":"closed","locked":false,"assignee":null,"assignees":[],"milestone":null,"comments":2,"created_at":"2018-11-30T22:05:28Z","updated_at":"2018-12-11T21:17:59Z","closed_at":"2018-12-11T21:17:59Z","author_association":"MEMBER","body":"Right now the example has:\r\n```json\r\n\"actions\" : {\r\n  \"create-jira-issue\" : {\r\n    \"transform\" : { ... },\r\n    \"throttle_period\" : \"5m\",\r\n    \"jira\" : {\r\n      \"account\" : \"integration-account\", \r\n      \"fields\" : {\r\n        \"issue\" : {\r\n          \"project\" : {\r\n            \"key\": \"PROJ\" \r\n          },\r\n          \"issuetype\" : {\r\n            \"name\": \"Bug\" \r\n          },\r\n          \"summary\" : \"Encountered {{ctx.payload.hits.total}} errors in the last 5 minutes\", \r\n          \"description\" : \"Encountered {{ctx.payload.hits.total}} errors in the last 5 minutes (facepalm)\", \r\n          \"labels\" : [\"auto\"], \r\n          \"priority\" : {\r\n            \"name\" : \"High\" \r\n          }\r\n        }\r\n      }\r\n    }\r\n  }\r\n}\r\n```\r\n\r\nIt should instead be:\r\n\r\n```json\r\n\"actions\" : {\r\n  \"create-jira-issue\" : {\r\n    \"transform\" : { ... },\r\n    \"throttle_period\" : \"5m\",\r\n    \"jira\" : {\r\n      \"account\" : \"integration-account\", \r\n      \"fields\" : {\r\n       \r\n         \"project\" : {\r\n            \"key\": \"PROJ\" \r\n          },\r\n          \"issuetype\" : {\r\n            \"name\": \"Bug\" \r\n          },\r\n          \"summary\" : \"Encountered {{ctx.payload.hits.total}} errors in the last 5 minutes\", \r\n          \"description\" : \"Encountered {{ctx.payload.hits.total}} errors in the last 5 minutes (facepalm)\", \r\n          \"labels\" : [\"auto\"], \r\n          \"priority\" : {\r\n            \"name\" : \"High\" \r\n          }\r\n\r\n      }\r\n    }\r\n  }\r\n}\r\n```\r\n\r\nnot `issue` in `fields` as per https://developer.atlassian.com/server/jira/platform/jira-rest-api-examples/","closed_by":{"login":"jakelandis","id":976291,"node_id":"MDQ6VXNlcjk3NjI5MQ==","avatar_url":"https://avatars2.githubusercontent.com/u/976291?v=4","gravatar_id":"","url":"https://api.github.com/users/jakelandis","html_url":"https://github.com/jakelandis","followers_url":"https://api.github.com/users/jakelandis/followers","following_url":"https://api.github.com/users/jakelandis/following{/other_user}","gists_url":"https://api.github.com/users/jakelandis/gists{/gist_id}","starred_url":"https://api.github.com/users/jakelandis/starred{/owner}{/repo}","subscriptions_url":"https://api.github.com/users/jakelandis/subscriptions","organizations_url":"https://api.github.com/users/jakelandis/orgs","repos_url":"https://api.github.com/users/jakelandis/repos","events_url":"https://api.github.com/users/jakelandis/events{/privacy}","received_events_url":"https://api.github.com/users/jakelandis/received_events","type":"User","site_admin":false}}", "commentIds":["443446178","443768072"], "labels":[":Core/Features/Watcher",">docs"]}