{"id":"37965", "title":"[CI] HotThreadsIT.testHotThreadsDontFail failure on master", "body":"Logs: https://elasticsearch-ci.elastic.co/job/elastic+elasticsearch+master+multijob-unix-compatibility/os=centos/211/console

REPRODUCE WITH:
```
/gradlew :server:integTest \\
  -Dtests.seed=233C30BFCE2B7117 \\
  -Dtests.class=org.elasticsearch.action.admin.HotThreadsIT \\
  -Dtests.method=\"testHotThreadsDontFail\" \\
  -Dtests.security.manager=true \\
  -Dtests.locale=es-MX \\
  -Dtests.timezone=Asia/Yerevan \\
  -Dcompiler.java=11 \\
  -Druntime.java=8
```

Couldn't reproduce locally (100+ iterations)

```
  1> [2019-01-29T15:44:34,933][INFO ][o.e.c.c.Coordinator      ] [node_s1] setting initial configuration to VotingConfiguration{FOMFnLR6RaC0dEzMnFkJ1A,saAXE5n_SbeS_kPuGtZ9eQ,{bootstrap-placeholder}-node_s2}
  1> [2019-01-29T15:44:35,350][INFO ][o.e.c.s.MasterService    ] [node_s1] elected-as-master ([2] nodes joined)[{node_s0}{FOMFnLR6RaC0dEzMnFkJ1A}{6t1ue7wmTM626qcAoGXuVw}{127.0.0.1}{127.0.0.1:35907} elect leader, {node_s1}{saAXE5n_SbeS_kPuGtZ9eQ}{IlVsI13pT3m97zB9kigMBw}{127.0.0.1}{127.0.0.1:43437} elect leader, _BECOME_MASTER_TASK_, _FINISH_ELECTION_], node-join[{node_s2}{2TYkOhZXTt-QaPNJgYFNsw}{DbhzCUXTR7SBzAU85okUDQ}{127.0.0.1}{127.0.0.1:41242} join existing leader], term: 1, version: 1, reason: master node changed {previous [], current [{node_s1}{saAXE5n_SbeS_kPuGtZ9eQ}{IlVsI13pT3m97zB9kigMBw}{127.0.0.1}{127.0.0.1:43437}]}, added {{node_s0}{FOMFnLR6RaC0dEzMnFkJ1A}{6t1ue7wmTM626qcAoGXuVw}{127.0.0.1}{127.0.0.1:35907},{node_s2}{2TYkOhZXTt-QaPNJgYFNsw}{DbhzCUXTR7SBzAU85okUDQ}{127.0.0.1}{127.0.0.1:41242},}
  1> [2019-01-29T15:44:35,492][INFO ][o.e.c.s.ClusterApplierService] [node_s0] master node changed {previous [], current [{node_s1}{saAXE5n_SbeS_kPuGtZ9eQ}{IlVsI13pT3m97zB9kigMBw}{127.0.0.1}{127.0.0.1:43437}]}, added {{node_s1}{saAXE5n_SbeS_kPuGtZ9eQ}{IlVsI13pT3m97zB9kigMBw}{127.0.0.1}{127.0.0.1:43437},{node_s2}{2TYkOhZXTt-QaPNJgYFNsw}{DbhzCUXTR7SBzAU85okUDQ}{127.0.0.1}{127.0.0.1:41242},}, term: 1, version: 1, reason: ApplyCommitRequest{term=1, version=1, sourceNode={node_s1}{saAXE5n_SbeS_kPuGtZ9eQ}{IlVsI13pT3m97zB9kigMBw}{127.0.0.1}{127.0.0.1:43437}}
  2> REPRODUCE WITH: ./gradlew :server:integTest -Dtests.seed=233C30BFCE2B7117 -Dtests.class=org.elasticsearch.action.admin.HotThreadsIT -Dtests.method=\"testHotThreadsDontFail\" -Dtests.security.manager=true -Dtests.locale=es-MX -Dtests.timezone=Asia/Yerevan -Dcompiler.java=11 -Druntime.java=8
  1> [2019-01-29T15:44:35,494][INFO ][o.e.c.s.ClusterApplierService] [node_s2] master node changed {previous [], current [{node_s1}{saAXE5n_SbeS_kPuGtZ9eQ}{IlVsI13pT3m97zB9kigMBw}{127.0.0.1}{127.0.0.1:43437}]}, added {{node_s1}{saAXE5n_SbeS_kPuGtZ9eQ}{IlVsI13pT3m97zB9kigMBw}{127.0.0.1}{127.0.0.1:43437},{node_s0}{FOMFnLR6RaC0dEzMnFkJ1A}{6t1ue7wmTM626qcAoGXuVw}{127.0.0.1}{127.0.0.1:35907},}, term: 1, version: 1, reason: ApplyCommitRequest{term=1, version=1, sourceNode={node_s1}{saAXE5n_SbeS_kPuGtZ9eQ}{IlVsI13pT3m97zB9kigMBw}{127.0.0.1}{127.0.0.1:43437}}
  2> NOTE: leaving temporary files on disk at: /var/lib/jenkins/workspace/elastic+elasticsearch+master+multijob-unix-compatibility/os/centos/server/build/testrun/integTest/J3/temp/org.elasticsearch.action.admin.HotThreadsIT_233C30BFCE2B7117-001
  2> NOTE: test params are: codec=Asserting(Lucene80): {field1.keyword=PostingsFormat(name=Asserting), field1=PostingsFormat(name=Asserting), _id=PostingsFormat(name=Asserting)}, docValues:{field1.keyword=DocValuesFormat(name=Lucene70), _seq_no=DocValuesFormat(name=Lucene70), _primary_term=DocValuesFormat(name=Lucene70), _version=DocValuesFormat(name=Lucene70)}, maxPointsInLeafNode=128, maxMBSortInHeap=5.534645509088748, sim=Asserting(org.apache.lucene.search.similarities.AssertingSimilarity@7769dd0e), locale=es-MX, timezone=Asia/Yerevan
  2> NOTE: Linux 2.6.32-754.10.1.el6.x86_64 amd64/Oracle Corporation 1.8.0_202 (64-bit)/cpus=16,threads=1,free=465545688,total=513802240
  1> [2019-01-29T15:44:35,497][INFO ][o.e.n.Node               ] [integ_1] started
  2> NOTE: All tests run in this JVM: [HotThreadsIT]
  1> [2019-01-29T15:44:35,497][INFO ][o.e.n.Node               ] [integ_3] started
  1> [2019-01-29T15:44:35,504][INFO ][o.e.c.s.ClusterApplierService] [node_s1] master node changed {previous [], current [{node_s1}{saAXE5n_SbeS_kPuGtZ9eQ}{IlVsI13pT3m97zB9kigMBw}{127.0.0.1}{127.0.0.1:43437}]}, added {{node_s0}{FOMFnLR6RaC0dEzMnFkJ1A}{6t1ue7wmTM626qcAoGXuVw}{127.0.0.1}{127.0.0.1:35907},{node_s2}{2TYkOhZXTt-QaPNJgYFNsw}{DbhzCUXTR7SBzAU85okUDQ}{127.0.0.1}{127.0.0.1:41242},}, term: 1, version: 1, reason: Publication{term=1, version=1}
  1> [2019-01-29T15:44:35,516][INFO ][o.e.n.Node               ] [integ_2] started
  1> [2019-01-29T15:44:35,544][INFO ][o.e.c.s.MasterService    ] [node_s1] node-join[{node_sc3}{aV_f9mFyTOWlZhplwSEfxQ}{qceQ1ZilTLikPSqFG3IJ4w}{127.0.0.1}{127.0.0.1:45343} join existing leader], term: 1, version: 2, reason: added {{node_sc3}{aV_f9mFyTOWlZhplwSEfxQ}{qceQ1ZilTLikPSqFG3IJ4w}{127.0.0.1}{127.0.0.1:45343},}
  1> [2019-01-29T15:44:35,578][INFO ][o.e.c.s.ClusterApplierService] [node_s2] added {{node_sc3}{aV_f9mFyTOWlZhplwSEfxQ}{qceQ1ZilTLikPSqFG3IJ4w}{127.0.0.1}{127.0.0.1:45343},}, term: 1, version: 2, reason: ApplyCommitRequest{term=1, version=2, sourceNode={node_s1}{saAXE5n_SbeS_kPuGtZ9eQ}{IlVsI13pT3m97zB9kigMBw}{127.0.0.1}{127.0.0.1:43437}}
  1> [2019-01-29T15:44:35,578][INFO ][o.e.c.s.ClusterApplierService] [node_sc3] master node changed {previous [], current [{node_s1}{saAXE5n_SbeS_kPuGtZ9eQ}{IlVsI13pT3m97zB9kigMBw}{127.0.0.1}{127.0.0.1:43437}]}, added {{node_s1}{saAXE5n_SbeS_kPuGtZ9eQ}{IlVsI13pT3m97zB9kigMBw}{127.0.0.1}{127.0.0.1:43437},{node_s0}{FOMFnLR6RaC0dEzMnFkJ1A}{6t1ue7wmTM626qcAoGXuVw}{127.0.0.1}{127.0.0.1:35907},{node_s2}{2TYkOhZXTt-QaPNJgYFNsw}{DbhzCUXTR7SBzAU85okUDQ}{127.0.0.1}{127.0.0.1:41242},}, term: 1, version: 2, reason: ApplyCommitRequest{term=1, version=2, sourceNode={node_s1}{saAXE5n_SbeS_kPuGtZ9eQ}{IlVsI13pT3m97zB9kigMBw}{127.0.0.1}{127.0.0.1:43437}}
  1> [2019-01-29T15:44:35,579][INFO ][o.e.n.Node               ] [integ_4] started
  1> [2019-01-29T15:44:35,580][INFO ][o.e.c.s.ClusterApplierService] [node_s0] added {{node_sc3}{aV_f9mFyTOWlZhplwSEfxQ}{qceQ1ZilTLikPSqFG3IJ4w}{127.0.0.1}{127.0.0.1:45343},}, term: 1, version: 2, reason: ApplyCommitRequest{term=1, version=2, sourceNode={node_s1}{saAXE5n_SbeS_kPuGtZ9eQ}{IlVsI13pT3m97zB9kigMBw}{127.0.0.1}{127.0.0.1:43437}}
  1> [2019-01-29T15:44:35,633][INFO ][o.e.c.s.ClusterApplierService] [node_s1] added {{node_sc3}{aV_f9mFyTOWlZhplwSEfxQ}{qceQ1ZilTLikPSqFG3IJ4w}{127.0.0.1}{127.0.0.1:45343},}, term: 1, version: 2, reason: Publication{term=1, version=2}
  1> [2019-01-29T15:44:35,750][INFO ][o.e.g.GatewayService     ] [node_s1] recovered [0] indices into cluster_state
  1> [2019-01-29T15:44:36,331][INFO ][o.e.c.m.MetaDataIndexTemplateService] [node_s1] adding template [random_index_template] for index patterns [*]
  1> [2019-01-29T15:44:36,402][INFO ][o.e.a.a.HotThreadsIT     ] [testHotThreadsDontFail] [HotThreadsIT#testHotThreadsDontFail]: all set up test
  1> [2019-01-29T15:44:36,416][INFO ][o.e.a.a.HotThreadsIT     ] [testHotThreadsDontFail] using custom data_path for index: [HudQrFRmGG]
  1> [2019-01-29T15:44:36,455][INFO ][o.e.c.m.MetaDataCreateIndexService] [node_s1] [test] creating index, cause [api], templates [random_index_template], shards [6]/[1], mappings []
  1> [2019-01-29T15:44:37,806][INFO ][o.e.a.a.HotThreadsIT     ] [testHotThreadsDontFail] Index [3] docs async: [true] bulk: [false]
  1> [2019-01-29T15:44:38,270][INFO ][o.e.c.r.a.AllocationService] [node_s1] Cluster health status changed from [YELLOW] to [GREEN] (reason: [shards started [[test][5], [test][1], [test][0], [test][3], [test][2]] ...]).
  1> [2019-01-29T15:44:38,427][INFO ][o.e.c.m.MetaDataMappingService] [node_s1] [test/Xna3aYPaSLezRRHL3OvARQ] create_mapping [type1]
  1> [2019-01-29T15:44:40,095][INFO ][o.e.p.PluginsService     ] [testHotThreadsDontFail] no modules loaded
  1> [2019-01-29T15:44:40,095][INFO ][o.e.p.PluginsService     ] [testHotThreadsDontFail] loaded plugin [org.elasticsearch.transport.nio.MockNioTransportPlugin]
  1> [2019-01-29T15:44:40,318][INFO ][o.e.p.PluginsService     ] [testHotThreadsDontFail] no modules loaded
  1> [2019-01-29T15:44:40,318][INFO ][o.e.p.PluginsService     ] [testHotThreadsDontFail] loaded plugin [org.elasticsearch.transport.nio.MockNioTransportPlugin]
  1> [2019-01-29T15:45:10,475][INFO ][o.e.a.a.HotThreadsIT     ] [testHotThreadsDontFail] [HotThreadsIT#testHotThreadsDontFail]: cleaning up after test
  1> [2019-01-29T15:45:10,487][WARN ][o.e.t.OutboundHandler    ] [node_s1] send message failed [channel: NioSocketChannel{localAddress=/127.0.0.1:43437, remoteAddress=/127.0.0.1:57414}]
  1> java.io.IOException: Connection reset by peer
  1> 	at sun.nio.ch.FileDispatcherImpl.write0(Native Method) ~[?:?]
  1> 	at sun.nio.ch.SocketDispatcher.write(SocketDispatcher.java:47) ~[?:?]
  1> 	at sun.nio.ch.IOUtil.writeFromNativeBuffer(IOUtil.java:93) ~[?:?]
  1> 	at sun.nio.ch.IOUtil.write(IOUtil.java:51) ~[?:?]
  1> 	at sun.nio.ch.SocketChannelImpl.write(SocketChannelImpl.java:471) ~[?:?]
  1> 	at org.elasticsearch.nio.SocketChannelContext.flushToChannel(SocketChannelContext.java:336) ~[elasticsearch-nio-7.0.0-SNAPSHOT.jar:7.0.0-SNAPSHOT]
  1> 	at org.elasticsearch.nio.BytesChannelContext.singleFlush(BytesChannelContext.java:87) ~[elasticsearch-nio-7.0.0-SNAPSHOT.jar:7.0.0-SNAPSHOT]
  1> 	at org.elasticsearch.nio.BytesChannelContext.flushChannel(BytesChannelContext.java:59) ~[elasticsearch-nio-7.0.0-SNAPSHOT.jar:7.0.0-SNAPSHOT]
  1> 	at org.elasticsearch.nio.EventHandler.handleWrite(EventHandler.java:139) ~[elasticsearch-nio-7.0.0-SNAPSHOT.jar:7.0.0-SNAPSHOT]
  1> 	at org.elasticsearch.nio.NioSelector.handleWrite(NioSelector.java:390) ~[elasticsearch-nio-7.0.0-SNAPSHOT.jar:7.0.0-SNAPSHOT]
  1> 	at org.elasticsearch.nio.NioSelector.writeToChannel(NioSelector.java:339) ~[elasticsearch-nio-7.0.0-SNAPSHOT.jar:7.0.0-SNAPSHOT]
  1> 	at org.elasticsearch.nio.SocketChannelContext.sendMessage(SocketChannelContext.java:143) ~[elasticsearch-nio-7.0.0-SNAPSHOT.jar:7.0.0-SNAPSHOT]
  1> 	at org.elasticsearch.transport.nio.MockNioTransport$MockSocketChannel.sendMessage(MockNioTransport.java:314) ~[framework-7.0.0-SNAPSHOT.jar:7.0.0-SNAPSHOT]
  1> 	at org.elasticsearch.transport.OutboundHandler.internalSendMessage(OutboundHandler.java:80) ~[main/:?]
  1> 	at org.elasticsearch.transport.OutboundHandler.sendMessage(OutboundHandler.java:70) ~[main/:?]
  1> 	at org.elasticsearch.transport.TcpTransport.sendResponse(TcpTransport.java:737) ~[main/:?]
  1> 	at org.elasticsearch.transport.TcpTransport.lambda$new$1(TcpTransport.java:162) ~[main/:?]
  1> 	at org.elasticsearch.transport.TransportHandshaker.handleHandshake(TransportHandshaker.java:98) ~[main/:?]
  1> 	at org.elasticsearch.transport.TcpTransport.handleRequest(TcpTransport.java:1018) ~[main/:?]
  1> 	at org.elasticsearch.transport.TcpTransport.messageReceived(TcpTransport.java:921) ~[main/:?]
  1> 	at org.elasticsearch.transport.TcpTransport.inboundMessage(TcpTransport.java:752) ~[main/:?]
  1> 	at org.elasticsearch.transport.TcpTransport.consumeNetworkReads(TcpTransport.java:779) ~[main/:?]
  1> 	at org.elasticsearch.transport.nio.MockNioTransport$MockTcpReadWriteHandler.consumeReads(MockNioTransport.java:241) ~[framework-7.0.0-SNAPSHOT.jar:7.0.0-SNAPSHOT]
  1> 	at org.elasticsearch.nio.SocketChannelContext.handleReadBytes(SocketChannelContext.java:213) ~[elasticsearch-nio-7.0.0-SNAPSHOT.jar:7.0.0-SNAPSHOT]
  1> 	at org.elasticsearch.nio.BytesChannelContext.read(BytesChannelContext.java:47) ~[elasticsearch-nio-7.0.0-SNAPSHOT.jar:7.0.0-SNAPSHOT]
  1> 	at org.elasticsearch.nio.EventHandler.handleRead(EventHandler.java:119) ~[elasticsearch-nio-7.0.0-SNAPSHOT.jar:7.0.0-SNAPSHOT]
  1> 	at org.elasticsearch.nio.NioSelector.handleRead(NioSelector.java:398) ~[elasticsearch-nio-7.0.0-SNAPSHOT.jar:7.0.0-SNAPSHOT]
  1> 	at org.elasticsearch.nio.NioSelector.processKey(NioSelector.java:246) ~[elasticsearch-nio-7.0.0-SNAPSHOT.jar:7.0.0-SNAPSHOT]
  1> 	at org.elasticsearch.nio.NioSelector.singleLoop(NioSelector.java:172) ~[elasticsearch-nio-7.0.0-SNAPSHOT.jar:7.0.0-SNAPSHOT]
  1> 	at org.elasticsearch.nio.NioSelector.runLoop(NioSelector.java:129) ~[elasticsearch-nio-7.0.0-SNAPSHOT.jar:7.0.0-SNAPSHOT]
  1> 	at java.lang.Thread.run(Thread.java:748) [?:1.8.0_202]
  1> [2019-01-29T15:45:10,495][WARN ][o.e.t.TransportService   ] [node_s1] Received response for a request that has timed out, sent [30076ms] ago, timed out [0ms] ago, action [internal:coordination/fault_detection/follower_check], node [{node_s0}{FOMFnLR6RaC0dEzMnFkJ1A}{6t1ue7wmTM626qcAoGXuVw}{127.0.0.1}{127.0.0.1:35907}], id [146]
  1> [2019-01-29T15:45:10,655][INFO ][o.e.c.m.MetaDataDeleteIndexService] [node_s1] [test/Xna3aYPaSLezRRHL3OvARQ] deleting index
  1> [2019-01-29T15:45:11,051][INFO ][o.e.c.m.MetaDataIndexTemplateService] [node_s1] removing template [random_index_template]
  1> [2019-01-29T15:45:11,084][INFO ][o.e.p.PluginsService     ] [testHotThreadsDontFail] no modules loaded
  1> [2019-01-29T15:45:11,085][INFO ][o.e.p.PluginsService     ] [testHotThreadsDontFail] loaded plugin [org.elasticsearch.transport.nio.MockNioTransportPlugin]
  1> [2019-01-29T15:45:11,176][INFO ][o.e.a.a.HotThreadsIT     ] [testHotThreadsDontFail] [HotThreadsIT#testHotThreadsDontFail]: cleaned up after test
  1> [2019-01-29T15:45:11,177][INFO ][o.e.a.a.HotThreadsIT     ] [testHotThreadsDontFail] after test
ERROR   44.7s J3 | HotThreadsIT.testHotThreadsDontFail <<< FAILURES!
   > Throwable #1: NoNodeAvailableException[None of the configured nodes are available: [{#transport#-1}{EF_FcOpLTPeZQ_LUVd5MNA}{127.0.0.1}{127.0.0.1:43437}]]
   > 	at __randomizedtesting.SeedInfo.seed([233C30BFCE2B7117:71D6155E6A3F7E85]:0)
   > 	at org.elasticsearch.client.transport.TransportClientNodesService.ensureNodesAreAvailable(TransportClientNodesService.java:351)
   > 	at org.elasticsearch.client.transport.TransportClientNodesService.execute(TransportClientNodesService.java:249)
   > 	at org.elasticsearch.client.transport.TransportProxyClient.execute(TransportProxyClient.java:57)
   > 	at org.elasticsearch.client.transport.TransportClient.doExecute(TransportClient.java:386)
   > 	at org.elasticsearch.client.support.AbstractClient.execute(AbstractClient.java:393)
   > 	at org.elasticsearch.client.support.AbstractClient.execute(AbstractClient.java:382)
   > 	at org.elasticsearch.action.ActionRequestBuilder.execute(ActionRequestBuilder.java:45)
   > 	at org.elasticsearch.action.ActionRequestBuilder.get(ActionRequestBuilder.java:52)
   > 	at org.elasticsearch.action.admin.HotThreadsIT.testHotThreadsDontFail(HotThreadsIT.java:125)
   > 	at java.lang.Thread.run(Thread.java:748)
```
", "json":"{"url":"https://api.github.com/repos/elastic/elasticsearch/issues/37965","repository_url":"https://api.github.com/repos/elastic/elasticsearch","labels_url":"https://api.github.com/repos/elastic/elasticsearch/issues/37965/labels{/name}","comments_url":"https://api.github.com/repos/elastic/elasticsearch/issues/37965/comments","events_url":"https://api.github.com/repos/elastic/elasticsearch/issues/37965/events","html_url":"https://github.com/elastic/elasticsearch/issues/37965","id":404262383,"node_id":"MDU6SXNzdWU0MDQyNjIzODM=","number":37965,"title":"[CI] HotThreadsIT.testHotThreadsDontFail failure on master","user":{"login":"matriv","id":5058131,"node_id":"MDQ6VXNlcjUwNTgxMzE=","avatar_url":"https://avatars1.githubusercontent.com/u/5058131?v=4","gravatar_id":"","url":"https://api.github.com/users/matriv","html_url":"https://github.com/matriv","followers_url":"https://api.github.com/users/matriv/followers","following_url":"https://api.github.com/users/matriv/following{/other_user}","gists_url":"https://api.github.com/users/matriv/gists{/gist_id}","starred_url":"https://api.github.com/users/matriv/starred{/owner}{/repo}","subscriptions_url":"https://api.github.com/users/matriv/subscriptions","organizations_url":"https://api.github.com/users/matriv/orgs","repos_url":"https://api.github.com/users/matriv/repos","events_url":"https://api.github.com/users/matriv/events{/privacy}","received_events_url":"https://api.github.com/users/matriv/received_events","type":"User","site_admin":false},"labels":[{"id":144797810,"node_id":"MDU6TGFiZWwxNDQ3OTc4MTA=","url":"https://api.github.com/repos/elastic/elasticsearch/labels/:Core/Infra/Core","name":":Core/Infra/Core","color":"0e8a16","default":false},{"id":146854632,"node_id":"MDU6TGFiZWwxNDY4NTQ2MzI=","url":"https://api.github.com/repos/elastic/elasticsearch/labels/:Distributed/Network","name":":Distributed/Network","color":"0e8a16","default":false},{"id":148612629,"node_id":"MDU6TGFiZWwxNDg2MTI2Mjk=","url":"https://api.github.com/repos/elastic/elasticsearch/labels/%3Etest-failure","name":">test-failure","color":"207de5","default":false}],"state":"closed","locked":false,"assignee":{"login":"original-brownbear","id":6490959,"node_id":"MDQ6VXNlcjY0OTA5NTk=","avatar_url":"https://avatars0.githubusercontent.com/u/6490959?v=4","gravatar_id":"","url":"https://api.github.com/users/original-brownbear","html_url":"https://github.com/original-brownbear","followers_url":"https://api.github.com/users/original-brownbear/followers","following_url":"https://api.github.com/users/original-brownbear/following{/other_user}","gists_url":"https://api.github.com/users/original-brownbear/gists{/gist_id}","starred_url":"https://api.github.com/users/original-brownbear/starred{/owner}{/repo}","subscriptions_url":"https://api.github.com/users/original-brownbear/subscriptions","organizations_url":"https://api.github.com/users/original-brownbear/orgs","repos_url":"https://api.github.com/users/original-brownbear/repos","events_url":"https://api.github.com/users/original-brownbear/events{/privacy}","received_events_url":"https://api.github.com/users/original-brownbear/received_events","type":"User","site_admin":false},"assignees":[{"login":"original-brownbear","id":6490959,"node_id":"MDQ6VXNlcjY0OTA5NTk=","avatar_url":"https://avatars0.githubusercontent.com/u/6490959?v=4","gravatar_id":"","url":"https://api.github.com/users/original-brownbear","html_url":"https://github.com/original-brownbear","followers_url":"https://api.github.com/users/original-brownbear/followers","following_url":"https://api.github.com/users/original-brownbear/following{/other_user}","gists_url":"https://api.github.com/users/original-brownbear/gists{/gist_id}","starred_url":"https://api.github.com/users/original-brownbear/starred{/owner}{/repo}","subscriptions_url":"https://api.github.com/users/original-brownbear/subscriptions","organizations_url":"https://api.github.com/users/original-brownbear/orgs","repos_url":"https://api.github.com/users/original-brownbear/repos","events_url":"https://api.github.com/users/original-brownbear/events{/privacy}","received_events_url":"https://api.github.com/users/original-brownbear/received_events","type":"User","site_admin":false}],"milestone":null,"comments":10,"created_at":"2019-01-29T12:13:29Z","updated_at":"2019-02-21T13:20:00Z","closed_at":"2019-02-21T13:20:00Z","author_association":"CONTRIBUTOR","body":"Logs: https://elasticsearch-ci.elastic.co/job/elastic+elasticsearch+master+multijob-unix-compatibility/os=centos/211/console\r\n\r\nREPRODUCE WITH:\r\n```\r\n/gradlew :server:integTest \\\r\n  -Dtests.seed=233C30BFCE2B7117 \\\r\n  -Dtests.class=org.elasticsearch.action.admin.HotThreadsIT \\\r\n  -Dtests.method=\"testHotThreadsDontFail\" \\\r\n  -Dtests.security.manager=true \\\r\n  -Dtests.locale=es-MX \\\r\n  -Dtests.timezone=Asia/Yerevan \\\r\n  -Dcompiler.java=11 \\\r\n  -Druntime.java=8\r\n```\r\n\r\nCouldn't reproduce locally (100+ iterations)\r\n\r\n```\r\n  1> [2019-01-29T15:44:34,933][INFO ][o.e.c.c.Coordinator      ] [node_s1] setting initial configuration to VotingConfiguration{FOMFnLR6RaC0dEzMnFkJ1A,saAXE5n_SbeS_kPuGtZ9eQ,{bootstrap-placeholder}-node_s2}\r\n  1> [2019-01-29T15:44:35,350][INFO ][o.e.c.s.MasterService    ] [node_s1] elected-as-master ([2] nodes joined)[{node_s0}{FOMFnLR6RaC0dEzMnFkJ1A}{6t1ue7wmTM626qcAoGXuVw}{127.0.0.1}{127.0.0.1:35907} elect leader, {node_s1}{saAXE5n_SbeS_kPuGtZ9eQ}{IlVsI13pT3m97zB9kigMBw}{127.0.0.1}{127.0.0.1:43437} elect leader, _BECOME_MASTER_TASK_, _FINISH_ELECTION_], node-join[{node_s2}{2TYkOhZXTt-QaPNJgYFNsw}{DbhzCUXTR7SBzAU85okUDQ}{127.0.0.1}{127.0.0.1:41242} join existing leader], term: 1, version: 1, reason: master node changed {previous [], current [{node_s1}{saAXE5n_SbeS_kPuGtZ9eQ}{IlVsI13pT3m97zB9kigMBw}{127.0.0.1}{127.0.0.1:43437}]}, added {{node_s0}{FOMFnLR6RaC0dEzMnFkJ1A}{6t1ue7wmTM626qcAoGXuVw}{127.0.0.1}{127.0.0.1:35907},{node_s2}{2TYkOhZXTt-QaPNJgYFNsw}{DbhzCUXTR7SBzAU85okUDQ}{127.0.0.1}{127.0.0.1:41242},}\r\n  1> [2019-01-29T15:44:35,492][INFO ][o.e.c.s.ClusterApplierService] [node_s0] master node changed {previous [], current [{node_s1}{saAXE5n_SbeS_kPuGtZ9eQ}{IlVsI13pT3m97zB9kigMBw}{127.0.0.1}{127.0.0.1:43437}]}, added {{node_s1}{saAXE5n_SbeS_kPuGtZ9eQ}{IlVsI13pT3m97zB9kigMBw}{127.0.0.1}{127.0.0.1:43437},{node_s2}{2TYkOhZXTt-QaPNJgYFNsw}{DbhzCUXTR7SBzAU85okUDQ}{127.0.0.1}{127.0.0.1:41242},}, term: 1, version: 1, reason: ApplyCommitRequest{term=1, version=1, sourceNode={node_s1}{saAXE5n_SbeS_kPuGtZ9eQ}{IlVsI13pT3m97zB9kigMBw}{127.0.0.1}{127.0.0.1:43437}}\r\n  2> REPRODUCE WITH: ./gradlew :server:integTest -Dtests.seed=233C30BFCE2B7117 -Dtests.class=org.elasticsearch.action.admin.HotThreadsIT -Dtests.method=\"testHotThreadsDontFail\" -Dtests.security.manager=true -Dtests.locale=es-MX -Dtests.timezone=Asia/Yerevan -Dcompiler.java=11 -Druntime.java=8\r\n  1> [2019-01-29T15:44:35,494][INFO ][o.e.c.s.ClusterApplierService] [node_s2] master node changed {previous [], current [{node_s1}{saAXE5n_SbeS_kPuGtZ9eQ}{IlVsI13pT3m97zB9kigMBw}{127.0.0.1}{127.0.0.1:43437}]}, added {{node_s1}{saAXE5n_SbeS_kPuGtZ9eQ}{IlVsI13pT3m97zB9kigMBw}{127.0.0.1}{127.0.0.1:43437},{node_s0}{FOMFnLR6RaC0dEzMnFkJ1A}{6t1ue7wmTM626qcAoGXuVw}{127.0.0.1}{127.0.0.1:35907},}, term: 1, version: 1, reason: ApplyCommitRequest{term=1, version=1, sourceNode={node_s1}{saAXE5n_SbeS_kPuGtZ9eQ}{IlVsI13pT3m97zB9kigMBw}{127.0.0.1}{127.0.0.1:43437}}\r\n  2> NOTE: leaving temporary files on disk at: /var/lib/jenkins/workspace/elastic+elasticsearch+master+multijob-unix-compatibility/os/centos/server/build/testrun/integTest/J3/temp/org.elasticsearch.action.admin.HotThreadsIT_233C30BFCE2B7117-001\r\n  2> NOTE: test params are: codec=Asserting(Lucene80): {field1.keyword=PostingsFormat(name=Asserting), field1=PostingsFormat(name=Asserting), _id=PostingsFormat(name=Asserting)}, docValues:{field1.keyword=DocValuesFormat(name=Lucene70), _seq_no=DocValuesFormat(name=Lucene70), _primary_term=DocValuesFormat(name=Lucene70), _version=DocValuesFormat(name=Lucene70)}, maxPointsInLeafNode=128, maxMBSortInHeap=5.534645509088748, sim=Asserting(org.apache.lucene.search.similarities.AssertingSimilarity@7769dd0e), locale=es-MX, timezone=Asia/Yerevan\r\n  2> NOTE: Linux 2.6.32-754.10.1.el6.x86_64 amd64/Oracle Corporation 1.8.0_202 (64-bit)/cpus=16,threads=1,free=465545688,total=513802240\r\n  1> [2019-01-29T15:44:35,497][INFO ][o.e.n.Node               ] [integ_1] started\r\n  2> NOTE: All tests run in this JVM: [HotThreadsIT]\r\n  1> [2019-01-29T15:44:35,497][INFO ][o.e.n.Node               ] [integ_3] started\r\n  1> [2019-01-29T15:44:35,504][INFO ][o.e.c.s.ClusterApplierService] [node_s1] master node changed {previous [], current [{node_s1}{saAXE5n_SbeS_kPuGtZ9eQ}{IlVsI13pT3m97zB9kigMBw}{127.0.0.1}{127.0.0.1:43437}]}, added {{node_s0}{FOMFnLR6RaC0dEzMnFkJ1A}{6t1ue7wmTM626qcAoGXuVw}{127.0.0.1}{127.0.0.1:35907},{node_s2}{2TYkOhZXTt-QaPNJgYFNsw}{DbhzCUXTR7SBzAU85okUDQ}{127.0.0.1}{127.0.0.1:41242},}, term: 1, version: 1, reason: Publication{term=1, version=1}\r\n  1> [2019-01-29T15:44:35,516][INFO ][o.e.n.Node               ] [integ_2] started\r\n  1> [2019-01-29T15:44:35,544][INFO ][o.e.c.s.MasterService    ] [node_s1] node-join[{node_sc3}{aV_f9mFyTOWlZhplwSEfxQ}{qceQ1ZilTLikPSqFG3IJ4w}{127.0.0.1}{127.0.0.1:45343} join existing leader], term: 1, version: 2, reason: added {{node_sc3}{aV_f9mFyTOWlZhplwSEfxQ}{qceQ1ZilTLikPSqFG3IJ4w}{127.0.0.1}{127.0.0.1:45343},}\r\n  1> [2019-01-29T15:44:35,578][INFO ][o.e.c.s.ClusterApplierService] [node_s2] added {{node_sc3}{aV_f9mFyTOWlZhplwSEfxQ}{qceQ1ZilTLikPSqFG3IJ4w}{127.0.0.1}{127.0.0.1:45343},}, term: 1, version: 2, reason: ApplyCommitRequest{term=1, version=2, sourceNode={node_s1}{saAXE5n_SbeS_kPuGtZ9eQ}{IlVsI13pT3m97zB9kigMBw}{127.0.0.1}{127.0.0.1:43437}}\r\n  1> [2019-01-29T15:44:35,578][INFO ][o.e.c.s.ClusterApplierService] [node_sc3] master node changed {previous [], current [{node_s1}{saAXE5n_SbeS_kPuGtZ9eQ}{IlVsI13pT3m97zB9kigMBw}{127.0.0.1}{127.0.0.1:43437}]}, added {{node_s1}{saAXE5n_SbeS_kPuGtZ9eQ}{IlVsI13pT3m97zB9kigMBw}{127.0.0.1}{127.0.0.1:43437},{node_s0}{FOMFnLR6RaC0dEzMnFkJ1A}{6t1ue7wmTM626qcAoGXuVw}{127.0.0.1}{127.0.0.1:35907},{node_s2}{2TYkOhZXTt-QaPNJgYFNsw}{DbhzCUXTR7SBzAU85okUDQ}{127.0.0.1}{127.0.0.1:41242},}, term: 1, version: 2, reason: ApplyCommitRequest{term=1, version=2, sourceNode={node_s1}{saAXE5n_SbeS_kPuGtZ9eQ}{IlVsI13pT3m97zB9kigMBw}{127.0.0.1}{127.0.0.1:43437}}\r\n  1> [2019-01-29T15:44:35,579][INFO ][o.e.n.Node               ] [integ_4] started\r\n  1> [2019-01-29T15:44:35,580][INFO ][o.e.c.s.ClusterApplierService] [node_s0] added {{node_sc3}{aV_f9mFyTOWlZhplwSEfxQ}{qceQ1ZilTLikPSqFG3IJ4w}{127.0.0.1}{127.0.0.1:45343},}, term: 1, version: 2, reason: ApplyCommitRequest{term=1, version=2, sourceNode={node_s1}{saAXE5n_SbeS_kPuGtZ9eQ}{IlVsI13pT3m97zB9kigMBw}{127.0.0.1}{127.0.0.1:43437}}\r\n  1> [2019-01-29T15:44:35,633][INFO ][o.e.c.s.ClusterApplierService] [node_s1] added {{node_sc3}{aV_f9mFyTOWlZhplwSEfxQ}{qceQ1ZilTLikPSqFG3IJ4w}{127.0.0.1}{127.0.0.1:45343},}, term: 1, version: 2, reason: Publication{term=1, version=2}\r\n  1> [2019-01-29T15:44:35,750][INFO ][o.e.g.GatewayService     ] [node_s1] recovered [0] indices into cluster_state\r\n  1> [2019-01-29T15:44:36,331][INFO ][o.e.c.m.MetaDataIndexTemplateService] [node_s1] adding template [random_index_template] for index patterns [*]\r\n  1> [2019-01-29T15:44:36,402][INFO ][o.e.a.a.HotThreadsIT     ] [testHotThreadsDontFail] [HotThreadsIT#testHotThreadsDontFail]: all set up test\r\n  1> [2019-01-29T15:44:36,416][INFO ][o.e.a.a.HotThreadsIT     ] [testHotThreadsDontFail] using custom data_path for index: [HudQrFRmGG]\r\n  1> [2019-01-29T15:44:36,455][INFO ][o.e.c.m.MetaDataCreateIndexService] [node_s1] [test] creating index, cause [api], templates [random_index_template], shards [6]/[1], mappings []\r\n  1> [2019-01-29T15:44:37,806][INFO ][o.e.a.a.HotThreadsIT     ] [testHotThreadsDontFail] Index [3] docs async: [true] bulk: [false]\r\n  1> [2019-01-29T15:44:38,270][INFO ][o.e.c.r.a.AllocationService] [node_s1] Cluster health status changed from [YELLOW] to [GREEN] (reason: [shards started [[test][5], [test][1], [test][0], [test][3], [test][2]] ...]).\r\n  1> [2019-01-29T15:44:38,427][INFO ][o.e.c.m.MetaDataMappingService] [node_s1] [test/Xna3aYPaSLezRRHL3OvARQ] create_mapping [type1]\r\n  1> [2019-01-29T15:44:40,095][INFO ][o.e.p.PluginsService     ] [testHotThreadsDontFail] no modules loaded\r\n  1> [2019-01-29T15:44:40,095][INFO ][o.e.p.PluginsService     ] [testHotThreadsDontFail] loaded plugin [org.elasticsearch.transport.nio.MockNioTransportPlugin]\r\n  1> [2019-01-29T15:44:40,318][INFO ][o.e.p.PluginsService     ] [testHotThreadsDontFail] no modules loaded\r\n  1> [2019-01-29T15:44:40,318][INFO ][o.e.p.PluginsService     ] [testHotThreadsDontFail] loaded plugin [org.elasticsearch.transport.nio.MockNioTransportPlugin]\r\n  1> [2019-01-29T15:45:10,475][INFO ][o.e.a.a.HotThreadsIT     ] [testHotThreadsDontFail] [HotThreadsIT#testHotThreadsDontFail]: cleaning up after test\r\n  1> [2019-01-29T15:45:10,487][WARN ][o.e.t.OutboundHandler    ] [node_s1] send message failed [channel: NioSocketChannel{localAddress=/127.0.0.1:43437, remoteAddress=/127.0.0.1:57414}]\r\n  1> java.io.IOException: Connection reset by peer\r\n  1> \tat sun.nio.ch.FileDispatcherImpl.write0(Native Method) ~[?:?]\r\n  1> \tat sun.nio.ch.SocketDispatcher.write(SocketDispatcher.java:47) ~[?:?]\r\n  1> \tat sun.nio.ch.IOUtil.writeFromNativeBuffer(IOUtil.java:93) ~[?:?]\r\n  1> \tat sun.nio.ch.IOUtil.write(IOUtil.java:51) ~[?:?]\r\n  1> \tat sun.nio.ch.SocketChannelImpl.write(SocketChannelImpl.java:471) ~[?:?]\r\n  1> \tat org.elasticsearch.nio.SocketChannelContext.flushToChannel(SocketChannelContext.java:336) ~[elasticsearch-nio-7.0.0-SNAPSHOT.jar:7.0.0-SNAPSHOT]\r\n  1> \tat org.elasticsearch.nio.BytesChannelContext.singleFlush(BytesChannelContext.java:87) ~[elasticsearch-nio-7.0.0-SNAPSHOT.jar:7.0.0-SNAPSHOT]\r\n  1> \tat org.elasticsearch.nio.BytesChannelContext.flushChannel(BytesChannelContext.java:59) ~[elasticsearch-nio-7.0.0-SNAPSHOT.jar:7.0.0-SNAPSHOT]\r\n  1> \tat org.elasticsearch.nio.EventHandler.handleWrite(EventHandler.java:139) ~[elasticsearch-nio-7.0.0-SNAPSHOT.jar:7.0.0-SNAPSHOT]\r\n  1> \tat org.elasticsearch.nio.NioSelector.handleWrite(NioSelector.java:390) ~[elasticsearch-nio-7.0.0-SNAPSHOT.jar:7.0.0-SNAPSHOT]\r\n  1> \tat org.elasticsearch.nio.NioSelector.writeToChannel(NioSelector.java:339) ~[elasticsearch-nio-7.0.0-SNAPSHOT.jar:7.0.0-SNAPSHOT]\r\n  1> \tat org.elasticsearch.nio.SocketChannelContext.sendMessage(SocketChannelContext.java:143) ~[elasticsearch-nio-7.0.0-SNAPSHOT.jar:7.0.0-SNAPSHOT]\r\n  1> \tat org.elasticsearch.transport.nio.MockNioTransport$MockSocketChannel.sendMessage(MockNioTransport.java:314) ~[framework-7.0.0-SNAPSHOT.jar:7.0.0-SNAPSHOT]\r\n  1> \tat org.elasticsearch.transport.OutboundHandler.internalSendMessage(OutboundHandler.java:80) ~[main/:?]\r\n  1> \tat org.elasticsearch.transport.OutboundHandler.sendMessage(OutboundHandler.java:70) ~[main/:?]\r\n  1> \tat org.elasticsearch.transport.TcpTransport.sendResponse(TcpTransport.java:737) ~[main/:?]\r\n  1> \tat org.elasticsearch.transport.TcpTransport.lambda$new$1(TcpTransport.java:162) ~[main/:?]\r\n  1> \tat org.elasticsearch.transport.TransportHandshaker.handleHandshake(TransportHandshaker.java:98) ~[main/:?]\r\n  1> \tat org.elasticsearch.transport.TcpTransport.handleRequest(TcpTransport.java:1018) ~[main/:?]\r\n  1> \tat org.elasticsearch.transport.TcpTransport.messageReceived(TcpTransport.java:921) ~[main/:?]\r\n  1> \tat org.elasticsearch.transport.TcpTransport.inboundMessage(TcpTransport.java:752) ~[main/:?]\r\n  1> \tat org.elasticsearch.transport.TcpTransport.consumeNetworkReads(TcpTransport.java:779) ~[main/:?]\r\n  1> \tat org.elasticsearch.transport.nio.MockNioTransport$MockTcpReadWriteHandler.consumeReads(MockNioTransport.java:241) ~[framework-7.0.0-SNAPSHOT.jar:7.0.0-SNAPSHOT]\r\n  1> \tat org.elasticsearch.nio.SocketChannelContext.handleReadBytes(SocketChannelContext.java:213) ~[elasticsearch-nio-7.0.0-SNAPSHOT.jar:7.0.0-SNAPSHOT]\r\n  1> \tat org.elasticsearch.nio.BytesChannelContext.read(BytesChannelContext.java:47) ~[elasticsearch-nio-7.0.0-SNAPSHOT.jar:7.0.0-SNAPSHOT]\r\n  1> \tat org.elasticsearch.nio.EventHandler.handleRead(EventHandler.java:119) ~[elasticsearch-nio-7.0.0-SNAPSHOT.jar:7.0.0-SNAPSHOT]\r\n  1> \tat org.elasticsearch.nio.NioSelector.handleRead(NioSelector.java:398) ~[elasticsearch-nio-7.0.0-SNAPSHOT.jar:7.0.0-SNAPSHOT]\r\n  1> \tat org.elasticsearch.nio.NioSelector.processKey(NioSelector.java:246) ~[elasticsearch-nio-7.0.0-SNAPSHOT.jar:7.0.0-SNAPSHOT]\r\n  1> \tat org.elasticsearch.nio.NioSelector.singleLoop(NioSelector.java:172) ~[elasticsearch-nio-7.0.0-SNAPSHOT.jar:7.0.0-SNAPSHOT]\r\n  1> \tat org.elasticsearch.nio.NioSelector.runLoop(NioSelector.java:129) ~[elasticsearch-nio-7.0.0-SNAPSHOT.jar:7.0.0-SNAPSHOT]\r\n  1> \tat java.lang.Thread.run(Thread.java:748) [?:1.8.0_202]\r\n  1> [2019-01-29T15:45:10,495][WARN ][o.e.t.TransportService   ] [node_s1] Received response for a request that has timed out, sent [30076ms] ago, timed out [0ms] ago, action [internal:coordination/fault_detection/follower_check], node [{node_s0}{FOMFnLR6RaC0dEzMnFkJ1A}{6t1ue7wmTM626qcAoGXuVw}{127.0.0.1}{127.0.0.1:35907}], id [146]\r\n  1> [2019-01-29T15:45:10,655][INFO ][o.e.c.m.MetaDataDeleteIndexService] [node_s1] [test/Xna3aYPaSLezRRHL3OvARQ] deleting index\r\n  1> [2019-01-29T15:45:11,051][INFO ][o.e.c.m.MetaDataIndexTemplateService] [node_s1] removing template [random_index_template]\r\n  1> [2019-01-29T15:45:11,084][INFO ][o.e.p.PluginsService     ] [testHotThreadsDontFail] no modules loaded\r\n  1> [2019-01-29T15:45:11,085][INFO ][o.e.p.PluginsService     ] [testHotThreadsDontFail] loaded plugin [org.elasticsearch.transport.nio.MockNioTransportPlugin]\r\n  1> [2019-01-29T15:45:11,176][INFO ][o.e.a.a.HotThreadsIT     ] [testHotThreadsDontFail] [HotThreadsIT#testHotThreadsDontFail]: cleaned up after test\r\n  1> [2019-01-29T15:45:11,177][INFO ][o.e.a.a.HotThreadsIT     ] [testHotThreadsDontFail] after test\r\nERROR   44.7s J3 | HotThreadsIT.testHotThreadsDontFail <<< FAILURES!\r\n   > Throwable #1: NoNodeAvailableException[None of the configured nodes are available: [{#transport#-1}{EF_FcOpLTPeZQ_LUVd5MNA}{127.0.0.1}{127.0.0.1:43437}]]\r\n   > \tat __randomizedtesting.SeedInfo.seed([233C30BFCE2B7117:71D6155E6A3F7E85]:0)\r\n   > \tat org.elasticsearch.client.transport.TransportClientNodesService.ensureNodesAreAvailable(TransportClientNodesService.java:351)\r\n   > \tat org.elasticsearch.client.transport.TransportClientNodesService.execute(TransportClientNodesService.java:249)\r\n   > \tat org.elasticsearch.client.transport.TransportProxyClient.execute(TransportProxyClient.java:57)\r\n   > \tat org.elasticsearch.client.transport.TransportClient.doExecute(TransportClient.java:386)\r\n   > \tat org.elasticsearch.client.support.AbstractClient.execute(AbstractClient.java:393)\r\n   > \tat org.elasticsearch.client.support.AbstractClient.execute(AbstractClient.java:382)\r\n   > \tat org.elasticsearch.action.ActionRequestBuilder.execute(ActionRequestBuilder.java:45)\r\n   > \tat org.elasticsearch.action.ActionRequestBuilder.get(ActionRequestBuilder.java:52)\r\n   > \tat org.elasticsearch.action.admin.HotThreadsIT.testHotThreadsDontFail(HotThreadsIT.java:125)\r\n   > \tat java.lang.Thread.run(Thread.java:748)\r\n```\r\n","closed_by":{"login":"original-brownbear","id":6490959,"node_id":"MDQ6VXNlcjY0OTA5NTk=","avatar_url":"https://avatars0.githubusercontent.com/u/6490959?v=4","gravatar_id":"","url":"https://api.github.com/users/original-brownbear","html_url":"https://github.com/original-brownbear","followers_url":"https://api.github.com/users/original-brownbear/followers","following_url":"https://api.github.com/users/original-brownbear/following{/other_user}","gists_url":"https://api.github.com/users/original-brownbear/gists{/gist_id}","starred_url":"https://api.github.com/users/original-brownbear/starred{/owner}{/repo}","subscriptions_url":"https://api.github.com/users/original-brownbear/subscriptions","organizations_url":"https://api.github.com/users/original-brownbear/orgs","repos_url":"https://api.github.com/users/original-brownbear/repos","events_url":"https://api.github.com/users/original-brownbear/events{/privacy}","received_events_url":"https://api.github.com/users/original-brownbear/received_events","type":"User","site_admin":false}}", "commentIds":["458518203","458530661","459677745","463720703","463720753","463721626","463722115","464001070","464149237","465153747"], "labels":[":Core/Infra/Core",":Distributed/Network",">test-failure"]}