{"id":"38494", "title":"geo_shape queries not working anymore after upgrade to 6.6", "body":"**Elasticsearch version**: 6.6.0 on ES Cloud 

**Description of the problem including expected versus actual behavior**:

After upgrading from 6.5.4 to 6.6.0 on ES Cloud, none of our geo_shape queries work anymore. Moreover, it is not clear from the [6.6 breaking changes](https://www.elastic.co/guide/en/elasticsearch/reference/current/breaking-changes-6.6.html#_changed_default_literal_geo_shape_literal_indexing_strategy) what needs to be done to make pre-6.6. shapes compatible with 6.6.

**Steps to reproduce**:

1. Create an index on a pre-6.6 ES containing a field of type `geo_shape`

```
PUT test
{
  \"mappings\": {
    \"doc\": {
      \"properties\": {
        \"my_shape\": {
          \"type\": \"geo_shape\"
        }
      }
    }
  }
}
```

2. index a shape
```
PUT test/doc/1
{
  \"my_shape\": {
    \"type\": \"Polygon\",
    \"coordinates\": [
      [
        [
          -118.37326599344239,
          34.082247752657956
        ],
        [
          -118.37326637421617,
          34.082384870862526
        ],
        [
          -118.37369602509777,
          34.08238389978479
        ],
        [
          -118.37369564361956,
          34.082246781581595
        ],
        [
          -118.37326599344239,
          34.082247752657956
        ]
      ]
    ]
  }
}
```

3. Find the shape using a `geo_shape` query
```
POST test/_search
{
  \"query\": {
    \"geo_shape\": {
      \"my_shape\": {
        \"shape\": {
          \"type\": \"point\",
          \"coordinates\": [-118.37345570325851, 34.08231046148952]
        },
        \"relation\": \"contains\"
      }
    }
  }
}
```

4. Migrate to ES 6.6

5. Run search from step 3 again and see that there is nothing being returned.", "json":"{"url":"https://api.github.com/repos/elastic/elasticsearch/issues/38494","repository_url":"https://api.github.com/repos/elastic/elasticsearch","labels_url":"https://api.github.com/repos/elastic/elasticsearch/issues/38494/labels{/name}","comments_url":"https://api.github.com/repos/elastic/elasticsearch/issues/38494/comments","events_url":"https://api.github.com/repos/elastic/elasticsearch/issues/38494/events","html_url":"https://github.com/elastic/elasticsearch/issues/38494","id":407111920,"node_id":"MDU6SXNzdWU0MDcxMTE5MjA=","number":38494,"title":"geo_shape queries not working anymore after upgrade to 6.6","user":{"login":"consulthys","id":1280019,"node_id":"MDQ6VXNlcjEyODAwMTk=","avatar_url":"https://avatars2.githubusercontent.com/u/1280019?v=4","gravatar_id":"","url":"https://api.github.com/users/consulthys","html_url":"https://github.com/consulthys","followers_url":"https://api.github.com/users/consulthys/followers","following_url":"https://api.github.com/users/consulthys/following{/other_user}","gists_url":"https://api.github.com/users/consulthys/gists{/gist_id}","starred_url":"https://api.github.com/users/consulthys/starred{/owner}{/repo}","subscriptions_url":"https://api.github.com/users/consulthys/subscriptions","organizations_url":"https://api.github.com/users/consulthys/orgs","repos_url":"https://api.github.com/users/consulthys/repos","events_url":"https://api.github.com/users/consulthys/events{/privacy}","received_events_url":"https://api.github.com/users/consulthys/received_events","type":"User","site_admin":false},"labels":[{"id":141079527,"node_id":"MDU6TGFiZWwxNDEwNzk1Mjc=","url":"https://api.github.com/repos/elastic/elasticsearch/labels/:Analytics/Geo","name":":Analytics/Geo","color":"0e8a16","default":false},{"id":23173,"node_id":"MDU6TGFiZWwyMzE3Mw==","url":"https://api.github.com/repos/elastic/elasticsearch/labels/%3Ebug","name":">bug","color":"b60205","default":false}],"state":"closed","locked":false,"assignee":null,"assignees":[],"milestone":null,"comments":15,"created_at":"2019-02-06T07:36:12Z","updated_at":"2019-03-08T12:10:23Z","closed_at":"2019-02-11T17:57:56Z","author_association":"CONTRIBUTOR","body":"**Elasticsearch version**: 6.6.0 on ES Cloud \r\n\r\n**Description of the problem including expected versus actual behavior**:\r\n\r\nAfter upgrading from 6.5.4 to 6.6.0 on ES Cloud, none of our geo_shape queries work anymore. Moreover, it is not clear from the [6.6 breaking changes](https://www.elastic.co/guide/en/elasticsearch/reference/current/breaking-changes-6.6.html#_changed_default_literal_geo_shape_literal_indexing_strategy) what needs to be done to make pre-6.6. shapes compatible with 6.6.\r\n\r\n**Steps to reproduce**:\r\n\r\n1. Create an index on a pre-6.6 ES containing a field of type `geo_shape`\r\n\r\n```\r\nPUT test\r\n{\r\n  \"mappings\": {\r\n    \"doc\": {\r\n      \"properties\": {\r\n        \"my_shape\": {\r\n          \"type\": \"geo_shape\"\r\n        }\r\n      }\r\n    }\r\n  }\r\n}\r\n```\r\n\r\n2. index a shape\r\n```\r\nPUT test/doc/1\r\n{\r\n  \"my_shape\": {\r\n    \"type\": \"Polygon\",\r\n    \"coordinates\": [\r\n      [\r\n        [\r\n          -118.37326599344239,\r\n          34.082247752657956\r\n        ],\r\n        [\r\n          -118.37326637421617,\r\n          34.082384870862526\r\n        ],\r\n        [\r\n          -118.37369602509777,\r\n          34.08238389978479\r\n        ],\r\n        [\r\n          -118.37369564361956,\r\n          34.082246781581595\r\n        ],\r\n        [\r\n          -118.37326599344239,\r\n          34.082247752657956\r\n        ]\r\n      ]\r\n    ]\r\n  }\r\n}\r\n```\r\n\r\n3. Find the shape using a `geo_shape` query\r\n```\r\nPOST test/_search\r\n{\r\n  \"query\": {\r\n    \"geo_shape\": {\r\n      \"my_shape\": {\r\n        \"shape\": {\r\n          \"type\": \"point\",\r\n          \"coordinates\": [-118.37345570325851, 34.08231046148952]\r\n        },\r\n        \"relation\": \"contains\"\r\n      }\r\n    }\r\n  }\r\n}\r\n```\r\n\r\n4. Migrate to ES 6.6\r\n\r\n5. Run search from step 3 again and see that there is nothing being returned.","closed_by":{"login":"nknize","id":830187,"node_id":"MDQ6VXNlcjgzMDE4Nw==","avatar_url":"https://avatars3.githubusercontent.com/u/830187?v=4","gravatar_id":"","url":"https://api.github.com/users/nknize","html_url":"https://github.com/nknize","followers_url":"https://api.github.com/users/nknize/followers","following_url":"https://api.github.com/users/nknize/following{/other_user}","gists_url":"https://api.github.com/users/nknize/gists{/gist_id}","starred_url":"https://api.github.com/users/nknize/starred{/owner}{/repo}","subscriptions_url":"https://api.github.com/users/nknize/subscriptions","organizations_url":"https://api.github.com/users/nknize/orgs","repos_url":"https://api.github.com/users/nknize/repos","events_url":"https://api.github.com/users/nknize/events{/privacy}","received_events_url":"https://api.github.com/users/nknize/received_events","type":"User","site_admin":false}}", "commentIds":["460930186","460930245","460931630","460949614","461037586","461040694","461079870","461081576","461218663","462434270","470383942","470449837","470830272","470888634","470907794"], "labels":[":Analytics/Geo",">bug"]}