{"id":"39456", "title":"Allows to create indexed fields when setting enabled to false to the object field", "body":"<!-- Bug report -->

**Elasticsearch version** (`bin/elasticsearch --version`):

~~~
Version: Tested 6.0 and 6.6
~~~

**Plugins installed**: none

**JVM version** (`java -version`):
~~~
java version \"11.0.2\" 2019-01-15 LTS
Java(TM) SE Runtime Environment 18.9 (build 11.0.2+9-LTS)
Java HotSpot(TM) 64-Bit Server VM 18.9 (build 11.0.2+9-LTS, mixed mode)
~~~

**OS version** (`uname -a` if on a Unix-like system):

~~~
Darwin x.local 18.2.0 Darwin Kernel Version 18.2.0: Thu Dec 20 20:46:53 PST 2018; root:xnu-4903.241.1~1/RELEASE_X86_64 x86_64
~~~

**Description of the problem including expected versus actual behavior**:
ES updates the mapping creating indexed fields where one should not when setting enabled to false property to the object field.

**Steps to reproduce**:

~~~
PUT my_index
{
 \"mappings\": {
   \"_doc\": {
     \"properties\": {
       \"name\": {
         \"enabled\": false
       }
     }
   }
 }
}

#the field is enabled - which is NOT the expected value
PUT my_index/_doc/1
{
 \"name.first\": \"john\"
}

GET my_index/_mapping
# response
{
  \"my_index\" : {
    \"mappings\" : {
      \"_doc\" : {
        \"properties\" : {
          \"name\" : {
            \"enabled\" : false,
            \"properties\" : {
              \"first\" : {
                \"type\" : \"text\",
                \"fields\" : {
                  \"keyword\" : {
                    \"type\" : \"keyword\",
                    \"ignore_above\" : 256
                  }
                }
              }
            }
          }
        }
      }
    }
  }
}


DELETE my_index

PUT my_index
{
 \"mappings\": {
   \"_doc\": {
     \"properties\": {
       \"name\": {
         \"enabled\": false
       }
     }
   }
 }
}

#the field is not enabled - which is the expected value
PUT my_index/_doc/1
{
 \"name\": {
   \"first\": \"john\"
 }
}

GET my_index/_mapping
# response
{
  \"my_index\" : {
    \"mappings\" : {
      \"_doc\" : {
        \"properties\" : {
          \"name\" : {
            \"type\" : \"object\",
            \"enabled\" : false
          }
        }
      }
    }
  }
}
~~~

", "json":"{"url":"https://api.github.com/repos/elastic/elasticsearch/issues/39456","repository_url":"https://api.github.com/repos/elastic/elasticsearch","labels_url":"https://api.github.com/repos/elastic/elasticsearch/issues/39456/labels{/name}","comments_url":"https://api.github.com/repos/elastic/elasticsearch/issues/39456/comments","events_url":"https://api.github.com/repos/elastic/elasticsearch/issues/39456/events","html_url":"https://github.com/elastic/elasticsearch/issues/39456","id":415145397,"node_id":"MDU6SXNzdWU0MTUxNDUzOTc=","number":39456,"title":"Allows to create indexed fields when setting enabled to false to the object field","user":{"login":"tamros","id":32678449,"node_id":"MDQ6VXNlcjMyNjc4NDQ5","avatar_url":"https://avatars2.githubusercontent.com/u/32678449?v=4","gravatar_id":"","url":"https://api.github.com/users/tamros","html_url":"https://github.com/tamros","followers_url":"https://api.github.com/users/tamros/followers","following_url":"https://api.github.com/users/tamros/following{/other_user}","gists_url":"https://api.github.com/users/tamros/gists{/gist_id}","starred_url":"https://api.github.com/users/tamros/starred{/owner}{/repo}","subscriptions_url":"https://api.github.com/users/tamros/subscriptions","organizations_url":"https://api.github.com/users/tamros/orgs","repos_url":"https://api.github.com/users/tamros/repos","events_url":"https://api.github.com/users/tamros/events{/privacy}","received_events_url":"https://api.github.com/users/tamros/received_events","type":"User","site_admin":false},"labels":[{"id":141145460,"node_id":"MDU6TGFiZWwxNDExNDU0NjA=","url":"https://api.github.com/repos/elastic/elasticsearch/labels/:Search/Mapping","name":":Search/Mapping","color":"0e8a16","default":false},{"id":23173,"node_id":"MDU6TGFiZWwyMzE3Mw==","url":"https://api.github.com/repos/elastic/elasticsearch/labels/%3Ebug","name":">bug","color":"b60205","default":false},{"id":110815527,"node_id":"MDU6TGFiZWwxMTA4MTU1Mjc=","url":"https://api.github.com/repos/elastic/elasticsearch/labels/help%20wanted","name":"help wanted","color":"207de5","default":true}],"state":"closed","locked":false,"assignee":null,"assignees":[],"milestone":null,"comments":4,"created_at":"2019-02-27T14:14:41Z","updated_at":"2019-03-14T17:40:01Z","closed_at":"2019-03-14T17:40:01Z","author_association":"NONE","body":"<!-- Bug report -->\r\n\r\n**Elasticsearch version** (`bin/elasticsearch --version`):\r\n\r\n~~~\r\nVersion: Tested 6.0 and 6.6\r\n~~~\r\n\r\n**Plugins installed**: none\r\n\r\n**JVM version** (`java -version`):\r\n~~~\r\njava version \"11.0.2\" 2019-01-15 LTS\r\nJava(TM) SE Runtime Environment 18.9 (build 11.0.2+9-LTS)\r\nJava HotSpot(TM) 64-Bit Server VM 18.9 (build 11.0.2+9-LTS, mixed mode)\r\n~~~\r\n\r\n**OS version** (`uname -a` if on a Unix-like system):\r\n\r\n~~~\r\nDarwin x.local 18.2.0 Darwin Kernel Version 18.2.0: Thu Dec 20 20:46:53 PST 2018; root:xnu-4903.241.1~1/RELEASE_X86_64 x86_64\r\n~~~\r\n\r\n**Description of the problem including expected versus actual behavior**:\r\nES updates the mapping creating indexed fields where one should not when setting enabled to false property to the object field.\r\n\r\n**Steps to reproduce**:\r\n\r\n~~~\r\nPUT my_index\r\n{\r\n \"mappings\": {\r\n   \"_doc\": {\r\n     \"properties\": {\r\n       \"name\": {\r\n         \"enabled\": false\r\n       }\r\n     }\r\n   }\r\n }\r\n}\r\n\r\n#the field is enabled - which is NOT the expected value\r\nPUT my_index/_doc/1\r\n{\r\n \"name.first\": \"john\"\r\n}\r\n\r\nGET my_index/_mapping\r\n# response\r\n{\r\n  \"my_index\" : {\r\n    \"mappings\" : {\r\n      \"_doc\" : {\r\n        \"properties\" : {\r\n          \"name\" : {\r\n            \"enabled\" : false,\r\n            \"properties\" : {\r\n              \"first\" : {\r\n                \"type\" : \"text\",\r\n                \"fields\" : {\r\n                  \"keyword\" : {\r\n                    \"type\" : \"keyword\",\r\n                    \"ignore_above\" : 256\r\n                  }\r\n                }\r\n              }\r\n            }\r\n          }\r\n        }\r\n      }\r\n    }\r\n  }\r\n}\r\n\r\n\r\nDELETE my_index\r\n\r\nPUT my_index\r\n{\r\n \"mappings\": {\r\n   \"_doc\": {\r\n     \"properties\": {\r\n       \"name\": {\r\n         \"enabled\": false\r\n       }\r\n     }\r\n   }\r\n }\r\n}\r\n\r\n#the field is not enabled - which is the expected value\r\nPUT my_index/_doc/1\r\n{\r\n \"name\": {\r\n   \"first\": \"john\"\r\n }\r\n}\r\n\r\nGET my_index/_mapping\r\n# response\r\n{\r\n  \"my_index\" : {\r\n    \"mappings\" : {\r\n      \"_doc\" : {\r\n        \"properties\" : {\r\n          \"name\" : {\r\n            \"type\" : \"object\",\r\n            \"enabled\" : false\r\n          }\r\n        }\r\n      }\r\n    }\r\n  }\r\n}\r\n~~~\r\n\r\n","closed_by":{"login":"jtibshirani","id":7461306,"node_id":"MDQ6VXNlcjc0NjEzMDY=","avatar_url":"https://avatars3.githubusercontent.com/u/7461306?v=4","gravatar_id":"","url":"https://api.github.com/users/jtibshirani","html_url":"https://github.com/jtibshirani","followers_url":"https://api.github.com/users/jtibshirani/followers","following_url":"https://api.github.com/users/jtibshirani/following{/other_user}","gists_url":"https://api.github.com/users/jtibshirani/gists{/gist_id}","starred_url":"https://api.github.com/users/jtibshirani/starred{/owner}{/repo}","subscriptions_url":"https://api.github.com/users/jtibshirani/subscriptions","organizations_url":"https://api.github.com/users/jtibshirani/orgs","repos_url":"https://api.github.com/users/jtibshirani/repos","events_url":"https://api.github.com/users/jtibshirani/events{/privacy}","received_events_url":"https://api.github.com/users/jtibshirani/received_events","type":"User","site_admin":false}}", "commentIds":["467916085","468867762","470492772","471060503"], "labels":[":Search/Mapping",">bug","help wanted"]}