{"id":"45367", "title":"get mapping from index return 'object' type property without 'type' field", "body":"<!-- Bug report -->

**Elasticsearch version** (`bin/elasticsearch --version`): 7.2

**Plugins installed**: [jcseg]

**JVM version** (`java -version`):default

**OS version** (`uname -a` if on a Unix-like system): centos 6

**Description of the problem including expected versus actual behavior**: get mapping from index return 'object' type property without 'type' field

**Steps to reproduce**:

 1. create an index with object type field
 2.  insert any data to th index
 3. use api to get mapping from the index
 4. object type field return without 'type' field


definition mapping 
`\"identity\": {
                \"type\": \"object\"
            },`

get mapping return
` \"identity\":{
                    \"properties\":{
                        \"coser\":{
                            \"type\":\"long\"
                        }
                    }
                },`

it should be
`\"identity\":{
		    \"type\": \"object\",
                    \"properties\":{
                        \"coser\":{
                            \"type\":\"long\"
                        }
                    }
                },`", "json":"{"url":"https://api.github.com/repos/elastic/elasticsearch/issues/45367","repository_url":"https://api.github.com/repos/elastic/elasticsearch","labels_url":"https://api.github.com/repos/elastic/elasticsearch/issues/45367/labels{/name}","comments_url":"https://api.github.com/repos/elastic/elasticsearch/issues/45367/comments","events_url":"https://api.github.com/repos/elastic/elasticsearch/issues/45367/events","html_url":"https://github.com/elastic/elasticsearch/issues/45367","id":478766446,"node_id":"MDU6SXNzdWU0Nzg3NjY0NDY=","number":45367,"title":"get mapping from index return 'object' type property without 'type' field","user":{"login":"outshow","id":6645609,"node_id":"MDQ6VXNlcjY2NDU2MDk=","avatar_url":"https://avatars0.githubusercontent.com/u/6645609?v=4","gravatar_id":"","url":"https://api.github.com/users/outshow","html_url":"https://github.com/outshow","followers_url":"https://api.github.com/users/outshow/followers","following_url":"https://api.github.com/users/outshow/following{/other_user}","gists_url":"https://api.github.com/users/outshow/gists{/gist_id}","starred_url":"https://api.github.com/users/outshow/starred{/owner}{/repo}","subscriptions_url":"https://api.github.com/users/outshow/subscriptions","organizations_url":"https://api.github.com/users/outshow/orgs","repos_url":"https://api.github.com/users/outshow/repos","events_url":"https://api.github.com/users/outshow/events{/privacy}","received_events_url":"https://api.github.com/users/outshow/received_events","type":"User","site_admin":false},"labels":[{"id":141145460,"node_id":"MDU6TGFiZWwxNDExNDU0NjA=","url":"https://api.github.com/repos/elastic/elasticsearch/labels/:Search/Mapping","name":":Search/Mapping","color":"0e8a16","default":false}],"state":"closed","locked":false,"assignee":null,"assignees":[],"milestone":null,"comments":3,"created_at":"2019-08-09T02:31:48Z","updated_at":"2019-08-09T07:37:33Z","closed_at":"2019-08-09T05:42:18Z","author_association":"NONE","body":"<!-- Bug report -->\r\n\r\n**Elasticsearch version** (`bin/elasticsearch --version`): 7.2\r\n\r\n**Plugins installed**: [jcseg]\r\n\r\n**JVM version** (`java -version`):default\r\n\r\n**OS version** (`uname -a` if on a Unix-like system): centos 6\r\n\r\n**Description of the problem including expected versus actual behavior**: get mapping from index return 'object' type property without 'type' field\r\n\r\n**Steps to reproduce**:\r\n\r\n 1. create an index with object type field\r\n 2.  insert any data to th index\r\n 3. use api to get mapping from the index\r\n 4. object type field return without 'type' field\r\n\r\n\r\ndefinition mapping \r\n`\"identity\": {\r\n                \"type\": \"object\"\r\n            },`\r\n\r\nget mapping return\r\n` \"identity\":{\r\n                    \"properties\":{\r\n                        \"coser\":{\r\n                            \"type\":\"long\"\r\n                        }\r\n                    }\r\n                },`\r\n\r\nit should be\r\n`\"identity\":{\r\n\t\t    \"type\": \"object\",\r\n                    \"properties\":{\r\n                        \"coser\":{\r\n                            \"type\":\"long\"\r\n                        }\r\n                    }\r\n                },`","closed_by":{"login":"astefan","id":893749,"node_id":"MDQ6VXNlcjg5Mzc0OQ==","avatar_url":"https://avatars2.githubusercontent.com/u/893749?v=4","gravatar_id":"","url":"https://api.github.com/users/astefan","html_url":"https://github.com/astefan","followers_url":"https://api.github.com/users/astefan/followers","following_url":"https://api.github.com/users/astefan/following{/other_user}","gists_url":"https://api.github.com/users/astefan/gists{/gist_id}","starred_url":"https://api.github.com/users/astefan/starred{/owner}{/repo}","subscriptions_url":"https://api.github.com/users/astefan/subscriptions","organizations_url":"https://api.github.com/users/astefan/orgs","repos_url":"https://api.github.com/users/astefan/repos","events_url":"https://api.github.com/users/astefan/events{/privacy}","received_events_url":"https://api.github.com/users/astefan/received_events","type":"User","site_admin":false}}", "commentIds":["519785972","519786009","519815033"], "labels":[":Search/Mapping"]}