{"id":"47494", "title":"Why is my Elasticsearch index using so much disk space?", "body":"<!-- Bug report -->

**Elasticsearch version** (`bin/elasticsearch --version`):
5.6.11
**Plugins installed**: []

**JVM version** (`java -version`):
openjdk version \"1.8.0_222\"
OpenJDK Runtime Environment (build 1.8.0_222-8u222-b10-1ubuntu1~16.04.1-b10)
OpenJDK 64-Bit Server VM (build 25.222-b10, mixed mode)

**OS version** (`uname -a` if on a Unix-like system):
Linux myserver 4.4.0-131-generic #157-Ubuntu SMP Thu Jul 12 15:51:36 UTC 2018 x86_64 x86_64 x86_64 GNU/Linux

**Description of the problem including expected versus actual behavior**:
Currently im running into a disk space issue on my server and seem to have found the culprit: Supposibly according to some people the size of this index is ~ 40 gb. Which sounds ridiculous because the average list of coords that I save is about 5 elements.

This index has 11k documents.

What I have tried:

- Deleted the index and filled it up again, this resulted in a MUCH MUCH smaller index on elasticsearch 40GB -> 14MB?? Which is why im very skeptical as to if this will work at all.
- Tried to research trough google without any concrete solutions.

I really hope someone might have some insight why it could possibly be this big.


my settings:

    {
      \"my_polygons_1\": {
        \"settings\": {
          \"index\": {
            \"number_of_shards\": \"5\",
            \"provided_name\": \"my_polygons_1\",
            \"creation_date\": \"1514988794703\",
            \"analysis\": {
              \"filter\": {
                \"addresstranslation\": {
                  \"type\": \"synonym\",
                  \"synonyms\": [
                    \"1e,eerste\",
                    \"2e,tweede\",
                    \"3e,derde\",
                    \"1ste,eerste\",
                    \"2de,tweede\",
                    \"3de,derde\"
                  ]
                },
                \"translation\": {
                  \"token_chars\": [
                    \"letter\",
                    \"digit\",
                    \"whitespace\"
                  ],
                  \"min_gram\": \"3\",
                  \"type\": \"nGram\",
                  \"max_gram\": \"50\"
                }
              },
              \"analyzer\": {
                \"translation_index_analyzer\": {
                  \"filter\": \"standard,lowercase,asciifolding,translation\",
                  \"type\": \"custom\",
                  \"tokenizer\": \"standard\"
                },
                \"address_search_analyzer\": {
                  \"filter\": \"standard,lowercase,asciifolding,addresstranslation\",
                  \"type\": \"custom\",
                  \"tokenizer\": \"standard\"
                },
                \"address_index_analyzer\": {
                  \"filter\": \"standard,lowercase,asciifolding,addresstranslation,translation\",
                  \"type\": \"custom\",
                  \"tokenizer\": \"standard\"
                },
                \"translation_search_analyzer\": {
                  \"filter\": \"standard,lowercase,asciifolding\",
                  \"type\": \"custom\",
                  \"tokenizer\": \"standard\"
                }
              }
            },
            \"number_of_replicas\": \"1\",
            \"uuid\": \"lQPnGOZ6TdKx9xZwNPfs2g\",
            \"version\": {
              \"created\": \"5060399\"
            }
          }
        }
      }
    }

my _stats:

    {
      \"_shards\": {
        \"total\": 10,
        \"successful\": 10,
        \"failed\": 0
      },
      \"_all\": {
        \"primaries\": {
          \"docs\": {
            \"count\": 11331,
            \"deleted\": 646
          },
          \"store\": {
            \"size_in_bytes\": 22095974914,
            \"throttle_time_in_millis\": 0
          },
          \"indexing\": {
            \"index_total\": 1184,
            \"index_time_in_millis\": 1166437,
            \"index_current\": 0,
            \"index_failed\": 0,
            \"delete_total\": 0,
            \"delete_time_in_millis\": 0,
            \"delete_current\": 0,
            \"noop_update_total\": 0,
            \"is_throttled\": false,
            \"throttle_time_in_millis\": 0
          },
          \"get\": {
            \"total\": 368507,
            \"time_in_millis\": 159070,
            \"exists_total\": 354156,
            \"exists_time_in_millis\": 157586,
            \"missing_total\": 14351,
            \"missing_time_in_millis\": 1484,
            \"current\": 0
          },
          \"search\": {
            \"open_contexts\": 0,
            \"query_total\": 185,
            \"query_time_in_millis\": 46,
            \"query_current\": 0,
            \"fetch_total\": 30,
            \"fetch_time_in_millis\": 89,
            \"fetch_current\": 0,
            \"scroll_total\": 2,
            \"scroll_time_in_millis\": 2444,
            \"scroll_current\": 0,
            \"suggest_total\": 0,
            \"suggest_time_in_millis\": 0,
            \"suggest_current\": 0
          },
          \"merges\": {
            \"current\": 0,
            \"current_docs\": 0,
            \"current_size_in_bytes\": 0,
            \"total\": 132,
            \"total_time_in_millis\": 714437,
            \"total_docs\": 6268,
            \"total_size_in_bytes\": 9036940847,
            \"total_stopped_time_in_millis\": 0,
            \"total_throttled_time_in_millis\": 88138,
            \"total_auto_throttle_in_bytes\": 73181749
          },
          \"refresh\": {
            \"total\": 3971,
            \"total_time_in_millis\": 1052798,
            \"listeners\": 0
          },
          \"flush\": {
            \"total\": 1063,
            \"total_time_in_millis\": 10994
          },
          \"warmer\": {
            \"current\": 0,
            \"total\": 3474,
            \"total_time_in_millis\": 55
          },
          \"query_cache\": {
            \"memory_size_in_bytes\": 0,
            \"total_count\": 0,
            \"hit_count\": 0,
            \"miss_count\": 0,
            \"cache_size\": 0,
            \"cache_count\": 0,
            \"evictions\": 0
          },
          \"fielddata\": {
            \"memory_size_in_bytes\": 0,
            \"evictions\": 0
          },
          \"completion\": {
            \"size_in_bytes\": 0
          },
          \"segments\": {
            \"count\": 123,
            \"memory_in_bytes\": 597667360,
            \"terms_memory_in_bytes\": 597553396,
            \"stored_fields_memory_in_bytes\": 38640,
            \"term_vectors_memory_in_bytes\": 0,
            \"norms_memory_in_bytes\": 7872,
            \"points_memory_in_bytes\": 368,
            \"doc_values_memory_in_bytes\": 67084,
            \"index_writer_memory_in_bytes\": 0,
            \"version_map_memory_in_bytes\": 0,
            \"fixed_bit_set_memory_in_bytes\": 0,
            \"max_unsafe_auto_id_timestamp\": -1,
            \"file_sizes\": {}
          },
          \"translog\": {
            \"operations\": 0,
            \"size_in_bytes\": 215
          },
          \"request_cache\": {
            \"memory_size_in_bytes\": 0,
            \"evictions\": 8,
            \"hit_count\": 0,
            \"miss_count\": 100
          },
          \"recovery\": {
            \"current_as_source\": 0,
            \"current_as_target\": 0,
            \"throttle_time_in_millis\": 0
          }
        },
        \"total\": {
          \"docs\": {
            \"count\": 22662,
            \"deleted\": 2356
          },
          \"store\": {
            \"size_in_bytes\": 46187867347,
            \"throttle_time_in_millis\": 0
          },
          \"indexing\": {
            \"index_total\": 2263,
            \"index_time_in_millis\": 2216831,
            \"index_current\": 0,
            \"index_failed\": 0,
            \"delete_total\": 0,
            \"delete_time_in_millis\": 0,
            \"delete_current\": 0,
            \"noop_update_total\": 0,
            \"is_throttled\": false,
            \"throttle_time_in_millis\": 0
          },
          \"get\": {
            \"total\": 657621,
            \"time_in_millis\": 250947,
            \"exists_total\": 628867,
            \"exists_time_in_millis\": 247657,
            \"missing_total\": 28754,
            \"missing_time_in_millis\": 3290,
            \"current\": 0
          },
          \"search\": {
            \"open_contexts\": 0,
            \"query_total\": 375,
            \"query_time_in_millis\": 128,
            \"query_current\": 0,
            \"fetch_total\": 73,
            \"fetch_time_in_millis\": 219,
            \"fetch_current\": 0,
            \"scroll_total\": 5,
            \"scroll_time_in_millis\": 6110,
            \"scroll_current\": 0,
            \"suggest_total\": 0,
            \"suggest_time_in_millis\": 0,
            \"suggest_current\": 0
          },
          \"merges\": {
            \"current\": 0,
            \"current_docs\": 0,
            \"current_size_in_bytes\": 0,
            \"total\": 252,
            \"total_time_in_millis\": 1134358,
            \"total_docs\": 10222,
            \"total_size_in_bytes\": 13797985517,
            \"total_stopped_time_in_millis\": 0,
            \"total_throttled_time_in_millis\": 160514,
            \"total_auto_throttle_in_bytes\": 155271619
          },
          \"refresh\": {
            \"total\": 7539,
            \"total_time_in_millis\": 1978415,
            \"listeners\": 0
          },
          \"flush\": {
            \"total\": 2030,
            \"total_time_in_millis\": 21846
          },
          \"warmer\": {
            \"current\": 0,
            \"total\": 6641,
            \"total_time_in_millis\": 105
          },
          \"query_cache\": {
            \"memory_size_in_bytes\": 0,
            \"total_count\": 0,
            \"hit_count\": 0,
            \"miss_count\": 0,
            \"cache_size\": 0,
            \"cache_count\": 0,
            \"evictions\": 0
          },
          \"fielddata\": {
            \"memory_size_in_bytes\": 0,
            \"evictions\": 0
          },
          \"completion\": {
            \"size_in_bytes\": 0
          },
          \"segments\": {
            \"count\": 261,
            \"memory_in_bytes\": 1246021155,
            \"terms_memory_in_bytes\": 1245778862,
            \"stored_fields_memory_in_bytes\": 81992,
            \"term_vectors_memory_in_bytes\": 0,
            \"norms_memory_in_bytes\": 16704,
            \"points_memory_in_bytes\": 769,
            \"doc_values_memory_in_bytes\": 142828,
            \"index_writer_memory_in_bytes\": 0,
            \"version_map_memory_in_bytes\": 0,
            \"fixed_bit_set_memory_in_bytes\": 0,
            \"max_unsafe_auto_id_timestamp\": -1,
            \"file_sizes\": {}
          },
          \"translog\": {
            \"operations\": 0,
            \"size_in_bytes\": 430
          },
          \"request_cache\": {
            \"memory_size_in_bytes\": 0,
            \"evictions\": 16,
            \"hit_count\": 0,
            \"miss_count\": 200
          },
          \"recovery\": {
            \"current_as_source\": 0,
            \"current_as_target\": 0,
            \"throttle_time_in_millis\": 0
          }
        }
      },
      \"indices\": {
        \"my_polygons_1\": {
          \"primaries\": {
            \"docs\": {
              \"count\": 11331,
              \"deleted\": 646
            },
            \"store\": {
              \"size_in_bytes\": 22095974914,
              \"throttle_time_in_millis\": 0
            },
            \"indexing\": {
              \"index_total\": 1184,
              \"index_time_in_millis\": 1166437,
              \"index_current\": 0,
              \"index_failed\": 0,
              \"delete_total\": 0,
              \"delete_time_in_millis\": 0,
              \"delete_current\": 0,
              \"noop_update_total\": 0,
              \"is_throttled\": false,
              \"throttle_time_in_millis\": 0
            },
            \"get\": {
              \"total\": 368507,
              \"time_in_millis\": 159070,
              \"exists_total\": 354156,
              \"exists_time_in_millis\": 157586,
              \"missing_total\": 14351,
              \"missing_time_in_millis\": 1484,
              \"current\": 0
            },
            \"search\": {
              \"open_contexts\": 0,
              \"query_total\": 185,
              \"query_time_in_millis\": 46,
              \"query_current\": 0,
              \"fetch_total\": 30,
              \"fetch_time_in_millis\": 89,
              \"fetch_current\": 0,
              \"scroll_total\": 2,
              \"scroll_time_in_millis\": 2444,
              \"scroll_current\": 0,
              \"suggest_total\": 0,
              \"suggest_time_in_millis\": 0,
              \"suggest_current\": 0
            },
            \"merges\": {
              \"current\": 0,
              \"current_docs\": 0,
              \"current_size_in_bytes\": 0,
              \"total\": 132,
              \"total_time_in_millis\": 714437,
              \"total_docs\": 6268,
              \"total_size_in_bytes\": 9036940847,
              \"total_stopped_time_in_millis\": 0,
              \"total_throttled_time_in_millis\": 88138,
              \"total_auto_throttle_in_bytes\": 73181749
            },
            \"refresh\": {
              \"total\": 3971,
              \"total_time_in_millis\": 1052798,
              \"listeners\": 0
            },
            \"flush\": {
              \"total\": 1063,
              \"total_time_in_millis\": 10994
            },
            \"warmer\": {
              \"current\": 0,
              \"total\": 3474,
              \"total_time_in_millis\": 55
            },
            \"query_cache\": {
              \"memory_size_in_bytes\": 0,
              \"total_count\": 0,
              \"hit_count\": 0,
              \"miss_count\": 0,
              \"cache_size\": 0,
              \"cache_count\": 0,
              \"evictions\": 0
            },
            \"fielddata\": {
              \"memory_size_in_bytes\": 0,
              \"evictions\": 0
            },
            \"completion\": {
              \"size_in_bytes\": 0
            },
            \"segments\": {
              \"count\": 123,
              \"memory_in_bytes\": 597667360,
              \"terms_memory_in_bytes\": 597553396,
              \"stored_fields_memory_in_bytes\": 38640,
              \"term_vectors_memory_in_bytes\": 0,
              \"norms_memory_in_bytes\": 7872,
              \"points_memory_in_bytes\": 368,
              \"doc_values_memory_in_bytes\": 67084,
              \"index_writer_memory_in_bytes\": 0,
              \"version_map_memory_in_bytes\": 0,
              \"fixed_bit_set_memory_in_bytes\": 0,
              \"max_unsafe_auto_id_timestamp\": -1,
              \"file_sizes\": {}
            },
            \"translog\": {
              \"operations\": 0,
              \"size_in_bytes\": 215
            },
            \"request_cache\": {
              \"memory_size_in_bytes\": 0,
              \"evictions\": 8,
              \"hit_count\": 0,
              \"miss_count\": 100
            },
            \"recovery\": {
              \"current_as_source\": 0,
              \"current_as_target\": 0,
              \"throttle_time_in_millis\": 0
            }
          },
          \"total\": {
            \"docs\": {
              \"count\": 22662,
              \"deleted\": 2356
            },
            \"store\": {
              \"size_in_bytes\": 46187867347,
              \"throttle_time_in_millis\": 0
            },
            \"indexing\": {
              \"index_total\": 2263,
              \"index_time_in_millis\": 2216831,
              \"index_current\": 0,
              \"index_failed\": 0,
              \"delete_total\": 0,
              \"delete_time_in_millis\": 0,
              \"delete_current\": 0,
              \"noop_update_total\": 0,
              \"is_throttled\": false,
              \"throttle_time_in_millis\": 0
            },
            \"get\": {
              \"total\": 657621,
              \"time_in_millis\": 250947,
              \"exists_total\": 628867,
              \"exists_time_in_millis\": 247657,
              \"missing_total\": 28754,
              \"missing_time_in_millis\": 3290,
              \"current\": 0
            },
            \"search\": {
              \"open_contexts\": 0,
              \"query_total\": 375,
              \"query_time_in_millis\": 128,
              \"query_current\": 0,
              \"fetch_total\": 73,
              \"fetch_time_in_millis\": 219,
              \"fetch_current\": 0,
              \"scroll_total\": 5,
              \"scroll_time_in_millis\": 6110,
              \"scroll_current\": 0,
              \"suggest_total\": 0,
              \"suggest_time_in_millis\": 0,
              \"suggest_current\": 0
            },
            \"merges\": {
              \"current\": 0,
              \"current_docs\": 0,
              \"current_size_in_bytes\": 0,
              \"total\": 252,
              \"total_time_in_millis\": 1134358,
              \"total_docs\": 10222,
              \"total_size_in_bytes\": 13797985517,
              \"total_stopped_time_in_millis\": 0,
              \"total_throttled_time_in_millis\": 160514,
              \"total_auto_throttle_in_bytes\": 155271619
            },
            \"refresh\": {
              \"total\": 7539,
              \"total_time_in_millis\": 1978415,
              \"listeners\": 0
            },
            \"flush\": {
              \"total\": 2030,
              \"total_time_in_millis\": 21846
            },
            \"warmer\": {
              \"current\": 0,
              \"total\": 6641,
              \"total_time_in_millis\": 105
            },
            \"query_cache\": {
              \"memory_size_in_bytes\": 0,
              \"total_count\": 0,
              \"hit_count\": 0,
              \"miss_count\": 0,
              \"cache_size\": 0,
              \"cache_count\": 0,
              \"evictions\": 0
            },
            \"fielddata\": {
              \"memory_size_in_bytes\": 0,
              \"evictions\": 0
            },
            \"completion\": {
              \"size_in_bytes\": 0
            },
            \"segments\": {
              \"count\": 261,
              \"memory_in_bytes\": 1246021155,
              \"terms_memory_in_bytes\": 1245778862,
              \"stored_fields_memory_in_bytes\": 81992,
              \"term_vectors_memory_in_bytes\": 0,
              \"norms_memory_in_bytes\": 16704,
              \"points_memory_in_bytes\": 769,
              \"doc_values_memory_in_bytes\": 142828,
              \"index_writer_memory_in_bytes\": 0,
              \"version_map_memory_in_bytes\": 0,
              \"fixed_bit_set_memory_in_bytes\": 0,
              \"max_unsafe_auto_id_timestamp\": -1,
              \"file_sizes\": {}
            },
            \"translog\": {
              \"operations\": 0,
              \"size_in_bytes\": 430
            },
            \"request_cache\": {
              \"memory_size_in_bytes\": 0,
              \"evictions\": 16,
              \"hit_count\": 0,
              \"miss_count\": 200
            },
            \"recovery\": {
              \"current_as_source\": 0,
              \"current_as_target\": 0,
              \"throttle_time_in_millis\": 0
            }
          }
        }
      }
    }

and my mapping:

    {
      \"my_polygons_1\": {
        \"aliases\": {},
        \"mappings\": {
          \"my_polygons_1\": {
            \"properties\": {
              \"client_id\": {
                \"type\": \"integer\"
              },
              \"id\": {
                \"type\": \"integer\"
              },
              \"name\": {
                \"type\": \"keyword\"
              },
              \"polygon\": {
                \"type\": \"geo_shape\",
                \"tree\": \"quadtree\",
                \"precision\": \"1.0m\"
              }
            }
          }
        },
        \"settings\": {
          \"index\": {
            \"number_of_shards\": \"5\",
            \"provided_name\": \"my_polygons_1\",
            \"creation_date\": \"1514988794703\",
            \"analysis\": {
              \"filter\": {
                \"addresstranslation\": {
                  \"type\": \"synonym\",
                  \"synonyms\": [
                    \"1e,eerste\",
                    \"2e,tweede\",
                    \"3e,derde\",
                    \"1ste,eerste\",
                    \"2de,tweede\",
                    \"3de,derde\"
                  ]
                },
                \"translation\": {
                  \"token_chars\": [
                    \"letter\",
                    \"digit\",
                    \"whitespace\"
                  ],
                  \"min_gram\": \"3\",
                  \"type\": \"nGram\",
                  \"max_gram\": \"50\"
                }
              },
              \"analyzer\": {
                \"translation_index_analyzer\": {
                  \"filter\": \"standard,lowercase,asciifolding,translation\",
                  \"type\": \"custom\",
                  \"tokenizer\": \"standard\"
                },
                \"address_search_analyzer\": {
                  \"filter\": \"standard,lowercase,asciifolding,addresstranslation\",
                  \"type\": \"custom\",
                  \"tokenizer\": \"standard\"
                },
                \"address_index_analyzer\": {
                  \"filter\": \"standard,lowercase,asciifolding,addresstranslation,translation\",
                  \"type\": \"custom\",
                  \"tokenizer\": \"standard\"
                },
                \"translation_search_analyzer\": {
                  \"filter\": \"standard,lowercase,asciifolding\",
                  \"type\": \"custom\",
                  \"tokenizer\": \"standard\"
                }
              }
            },
            \"number_of_replicas\": \"1\",
            \"uuid\": \"lQPnGOZ6TdKx9xZwNPfs2g\",
            \"version\": {
              \"created\": \"5060399\"
            }
          }
        }
      }
    }

", "json":"{"url":"https://api.github.com/repos/elastic/elasticsearch/issues/47494","repository_url":"https://api.github.com/repos/elastic/elasticsearch","labels_url":"https://api.github.com/repos/elastic/elasticsearch/issues/47494/labels{/name}","comments_url":"https://api.github.com/repos/elastic/elasticsearch/issues/47494/comments","events_url":"https://api.github.com/repos/elastic/elasticsearch/issues/47494/events","html_url":"https://github.com/elastic/elasticsearch/issues/47494","id":501929100,"node_id":"MDU6SXNzdWU1MDE5MjkxMDA=","number":47494,"title":"Why is my Elasticsearch index using so much disk space?","user":{"login":"bartvastgoed","id":46315480,"node_id":"MDQ6VXNlcjQ2MzE1NDgw","avatar_url":"https://avatars2.githubusercontent.com/u/46315480?v=4","gravatar_id":"","url":"https://api.github.com/users/bartvastgoed","html_url":"https://github.com/bartvastgoed","followers_url":"https://api.github.com/users/bartvastgoed/followers","following_url":"https://api.github.com/users/bartvastgoed/following{/other_user}","gists_url":"https://api.github.com/users/bartvastgoed/gists{/gist_id}","starred_url":"https://api.github.com/users/bartvastgoed/starred{/owner}{/repo}","subscriptions_url":"https://api.github.com/users/bartvastgoed/subscriptions","organizations_url":"https://api.github.com/users/bartvastgoed/orgs","repos_url":"https://api.github.com/users/bartvastgoed/repos","events_url":"https://api.github.com/users/bartvastgoed/events{/privacy}","received_events_url":"https://api.github.com/users/bartvastgoed/received_events","type":"User","site_admin":false},"labels":[],"state":"closed","locked":false,"assignee":null,"assignees":[],"milestone":null,"comments":1,"created_at":"2019-10-03T08:39:10Z","updated_at":"2019-10-03T08:42:32Z","closed_at":"2019-10-03T08:42:32Z","author_association":"NONE","body":"<!-- Bug report -->\r\n\r\n**Elasticsearch version** (`bin/elasticsearch --version`):\r\n5.6.11\r\n**Plugins installed**: []\r\n\r\n**JVM version** (`java -version`):\r\nopenjdk version \"1.8.0_222\"\r\nOpenJDK Runtime Environment (build 1.8.0_222-8u222-b10-1ubuntu1~16.04.1-b10)\r\nOpenJDK 64-Bit Server VM (build 25.222-b10, mixed mode)\r\n\r\n**OS version** (`uname -a` if on a Unix-like system):\r\nLinux myserver 4.4.0-131-generic #157-Ubuntu SMP Thu Jul 12 15:51:36 UTC 2018 x86_64 x86_64 x86_64 GNU/Linux\r\n\r\n**Description of the problem including expected versus actual behavior**:\r\nCurrently im running into a disk space issue on my server and seem to have found the culprit: Supposibly according to some people the size of this index is ~ 40 gb. Which sounds ridiculous because the average list of coords that I save is about 5 elements.\r\n\r\nThis index has 11k documents.\r\n\r\nWhat I have tried:\r\n\r\n- Deleted the index and filled it up again, this resulted in a MUCH MUCH smaller index on elasticsearch 40GB -> 14MB?? Which is why im very skeptical as to if this will work at all.\r\n- Tried to research trough google without any concrete solutions.\r\n\r\nI really hope someone might have some insight why it could possibly be this big.\r\n\r\n\r\nmy settings:\r\n\r\n    {\r\n      \"my_polygons_1\": {\r\n        \"settings\": {\r\n          \"index\": {\r\n            \"number_of_shards\": \"5\",\r\n            \"provided_name\": \"my_polygons_1\",\r\n            \"creation_date\": \"1514988794703\",\r\n            \"analysis\": {\r\n              \"filter\": {\r\n                \"addresstranslation\": {\r\n                  \"type\": \"synonym\",\r\n                  \"synonyms\": [\r\n                    \"1e,eerste\",\r\n                    \"2e,tweede\",\r\n                    \"3e,derde\",\r\n                    \"1ste,eerste\",\r\n                    \"2de,tweede\",\r\n                    \"3de,derde\"\r\n                  ]\r\n                },\r\n                \"translation\": {\r\n                  \"token_chars\": [\r\n                    \"letter\",\r\n                    \"digit\",\r\n                    \"whitespace\"\r\n                  ],\r\n                  \"min_gram\": \"3\",\r\n                  \"type\": \"nGram\",\r\n                  \"max_gram\": \"50\"\r\n                }\r\n              },\r\n              \"analyzer\": {\r\n                \"translation_index_analyzer\": {\r\n                  \"filter\": \"standard,lowercase,asciifolding,translation\",\r\n                  \"type\": \"custom\",\r\n                  \"tokenizer\": \"standard\"\r\n                },\r\n                \"address_search_analyzer\": {\r\n                  \"filter\": \"standard,lowercase,asciifolding,addresstranslation\",\r\n                  \"type\": \"custom\",\r\n                  \"tokenizer\": \"standard\"\r\n                },\r\n                \"address_index_analyzer\": {\r\n                  \"filter\": \"standard,lowercase,asciifolding,addresstranslation,translation\",\r\n                  \"type\": \"custom\",\r\n                  \"tokenizer\": \"standard\"\r\n                },\r\n                \"translation_search_analyzer\": {\r\n                  \"filter\": \"standard,lowercase,asciifolding\",\r\n                  \"type\": \"custom\",\r\n                  \"tokenizer\": \"standard\"\r\n                }\r\n              }\r\n            },\r\n            \"number_of_replicas\": \"1\",\r\n            \"uuid\": \"lQPnGOZ6TdKx9xZwNPfs2g\",\r\n            \"version\": {\r\n              \"created\": \"5060399\"\r\n            }\r\n          }\r\n        }\r\n      }\r\n    }\r\n\r\nmy _stats:\r\n\r\n    {\r\n      \"_shards\": {\r\n        \"total\": 10,\r\n        \"successful\": 10,\r\n        \"failed\": 0\r\n      },\r\n      \"_all\": {\r\n        \"primaries\": {\r\n          \"docs\": {\r\n            \"count\": 11331,\r\n            \"deleted\": 646\r\n          },\r\n          \"store\": {\r\n            \"size_in_bytes\": 22095974914,\r\n            \"throttle_time_in_millis\": 0\r\n          },\r\n          \"indexing\": {\r\n            \"index_total\": 1184,\r\n            \"index_time_in_millis\": 1166437,\r\n            \"index_current\": 0,\r\n            \"index_failed\": 0,\r\n            \"delete_total\": 0,\r\n            \"delete_time_in_millis\": 0,\r\n            \"delete_current\": 0,\r\n            \"noop_update_total\": 0,\r\n            \"is_throttled\": false,\r\n            \"throttle_time_in_millis\": 0\r\n          },\r\n          \"get\": {\r\n            \"total\": 368507,\r\n            \"time_in_millis\": 159070,\r\n            \"exists_total\": 354156,\r\n            \"exists_time_in_millis\": 157586,\r\n            \"missing_total\": 14351,\r\n            \"missing_time_in_millis\": 1484,\r\n            \"current\": 0\r\n          },\r\n          \"search\": {\r\n            \"open_contexts\": 0,\r\n            \"query_total\": 185,\r\n            \"query_time_in_millis\": 46,\r\n            \"query_current\": 0,\r\n            \"fetch_total\": 30,\r\n            \"fetch_time_in_millis\": 89,\r\n            \"fetch_current\": 0,\r\n            \"scroll_total\": 2,\r\n            \"scroll_time_in_millis\": 2444,\r\n            \"scroll_current\": 0,\r\n            \"suggest_total\": 0,\r\n            \"suggest_time_in_millis\": 0,\r\n            \"suggest_current\": 0\r\n          },\r\n          \"merges\": {\r\n            \"current\": 0,\r\n            \"current_docs\": 0,\r\n            \"current_size_in_bytes\": 0,\r\n            \"total\": 132,\r\n            \"total_time_in_millis\": 714437,\r\n            \"total_docs\": 6268,\r\n            \"total_size_in_bytes\": 9036940847,\r\n            \"total_stopped_time_in_millis\": 0,\r\n            \"total_throttled_time_in_millis\": 88138,\r\n            \"total_auto_throttle_in_bytes\": 73181749\r\n          },\r\n          \"refresh\": {\r\n            \"total\": 3971,\r\n            \"total_time_in_millis\": 1052798,\r\n            \"listeners\": 0\r\n          },\r\n          \"flush\": {\r\n            \"total\": 1063,\r\n            \"total_time_in_millis\": 10994\r\n          },\r\n          \"warmer\": {\r\n            \"current\": 0,\r\n            \"total\": 3474,\r\n            \"total_time_in_millis\": 55\r\n          },\r\n          \"query_cache\": {\r\n            \"memory_size_in_bytes\": 0,\r\n            \"total_count\": 0,\r\n            \"hit_count\": 0,\r\n            \"miss_count\": 0,\r\n            \"cache_size\": 0,\r\n            \"cache_count\": 0,\r\n            \"evictions\": 0\r\n          },\r\n          \"fielddata\": {\r\n            \"memory_size_in_bytes\": 0,\r\n            \"evictions\": 0\r\n          },\r\n          \"completion\": {\r\n            \"size_in_bytes\": 0\r\n          },\r\n          \"segments\": {\r\n            \"count\": 123,\r\n            \"memory_in_bytes\": 597667360,\r\n            \"terms_memory_in_bytes\": 597553396,\r\n            \"stored_fields_memory_in_bytes\": 38640,\r\n            \"term_vectors_memory_in_bytes\": 0,\r\n            \"norms_memory_in_bytes\": 7872,\r\n            \"points_memory_in_bytes\": 368,\r\n            \"doc_values_memory_in_bytes\": 67084,\r\n            \"index_writer_memory_in_bytes\": 0,\r\n            \"version_map_memory_in_bytes\": 0,\r\n            \"fixed_bit_set_memory_in_bytes\": 0,\r\n            \"max_unsafe_auto_id_timestamp\": -1,\r\n            \"file_sizes\": {}\r\n          },\r\n          \"translog\": {\r\n            \"operations\": 0,\r\n            \"size_in_bytes\": 215\r\n          },\r\n          \"request_cache\": {\r\n            \"memory_size_in_bytes\": 0,\r\n            \"evictions\": 8,\r\n            \"hit_count\": 0,\r\n            \"miss_count\": 100\r\n          },\r\n          \"recovery\": {\r\n            \"current_as_source\": 0,\r\n            \"current_as_target\": 0,\r\n            \"throttle_time_in_millis\": 0\r\n          }\r\n        },\r\n        \"total\": {\r\n          \"docs\": {\r\n            \"count\": 22662,\r\n            \"deleted\": 2356\r\n          },\r\n          \"store\": {\r\n            \"size_in_bytes\": 46187867347,\r\n            \"throttle_time_in_millis\": 0\r\n          },\r\n          \"indexing\": {\r\n            \"index_total\": 2263,\r\n            \"index_time_in_millis\": 2216831,\r\n            \"index_current\": 0,\r\n            \"index_failed\": 0,\r\n            \"delete_total\": 0,\r\n            \"delete_time_in_millis\": 0,\r\n            \"delete_current\": 0,\r\n            \"noop_update_total\": 0,\r\n            \"is_throttled\": false,\r\n            \"throttle_time_in_millis\": 0\r\n          },\r\n          \"get\": {\r\n            \"total\": 657621,\r\n            \"time_in_millis\": 250947,\r\n            \"exists_total\": 628867,\r\n            \"exists_time_in_millis\": 247657,\r\n            \"missing_total\": 28754,\r\n            \"missing_time_in_millis\": 3290,\r\n            \"current\": 0\r\n          },\r\n          \"search\": {\r\n            \"open_contexts\": 0,\r\n            \"query_total\": 375,\r\n            \"query_time_in_millis\": 128,\r\n            \"query_current\": 0,\r\n            \"fetch_total\": 73,\r\n            \"fetch_time_in_millis\": 219,\r\n            \"fetch_current\": 0,\r\n            \"scroll_total\": 5,\r\n            \"scroll_time_in_millis\": 6110,\r\n            \"scroll_current\": 0,\r\n            \"suggest_total\": 0,\r\n            \"suggest_time_in_millis\": 0,\r\n            \"suggest_current\": 0\r\n          },\r\n          \"merges\": {\r\n            \"current\": 0,\r\n            \"current_docs\": 0,\r\n            \"current_size_in_bytes\": 0,\r\n            \"total\": 252,\r\n            \"total_time_in_millis\": 1134358,\r\n            \"total_docs\": 10222,\r\n            \"total_size_in_bytes\": 13797985517,\r\n            \"total_stopped_time_in_millis\": 0,\r\n            \"total_throttled_time_in_millis\": 160514,\r\n            \"total_auto_throttle_in_bytes\": 155271619\r\n          },\r\n          \"refresh\": {\r\n            \"total\": 7539,\r\n            \"total_time_in_millis\": 1978415,\r\n            \"listeners\": 0\r\n          },\r\n          \"flush\": {\r\n            \"total\": 2030,\r\n            \"total_time_in_millis\": 21846\r\n          },\r\n          \"warmer\": {\r\n            \"current\": 0,\r\n            \"total\": 6641,\r\n            \"total_time_in_millis\": 105\r\n          },\r\n          \"query_cache\": {\r\n            \"memory_size_in_bytes\": 0,\r\n            \"total_count\": 0,\r\n            \"hit_count\": 0,\r\n            \"miss_count\": 0,\r\n            \"cache_size\": 0,\r\n            \"cache_count\": 0,\r\n            \"evictions\": 0\r\n          },\r\n          \"fielddata\": {\r\n            \"memory_size_in_bytes\": 0,\r\n            \"evictions\": 0\r\n          },\r\n          \"completion\": {\r\n            \"size_in_bytes\": 0\r\n          },\r\n          \"segments\": {\r\n            \"count\": 261,\r\n            \"memory_in_bytes\": 1246021155,\r\n            \"terms_memory_in_bytes\": 1245778862,\r\n            \"stored_fields_memory_in_bytes\": 81992,\r\n            \"term_vectors_memory_in_bytes\": 0,\r\n            \"norms_memory_in_bytes\": 16704,\r\n            \"points_memory_in_bytes\": 769,\r\n            \"doc_values_memory_in_bytes\": 142828,\r\n            \"index_writer_memory_in_bytes\": 0,\r\n            \"version_map_memory_in_bytes\": 0,\r\n            \"fixed_bit_set_memory_in_bytes\": 0,\r\n            \"max_unsafe_auto_id_timestamp\": -1,\r\n            \"file_sizes\": {}\r\n          },\r\n          \"translog\": {\r\n            \"operations\": 0,\r\n            \"size_in_bytes\": 430\r\n          },\r\n          \"request_cache\": {\r\n            \"memory_size_in_bytes\": 0,\r\n            \"evictions\": 16,\r\n            \"hit_count\": 0,\r\n            \"miss_count\": 200\r\n          },\r\n          \"recovery\": {\r\n            \"current_as_source\": 0,\r\n            \"current_as_target\": 0,\r\n            \"throttle_time_in_millis\": 0\r\n          }\r\n        }\r\n      },\r\n      \"indices\": {\r\n        \"my_polygons_1\": {\r\n          \"primaries\": {\r\n            \"docs\": {\r\n              \"count\": 11331,\r\n              \"deleted\": 646\r\n            },\r\n            \"store\": {\r\n              \"size_in_bytes\": 22095974914,\r\n              \"throttle_time_in_millis\": 0\r\n            },\r\n            \"indexing\": {\r\n              \"index_total\": 1184,\r\n              \"index_time_in_millis\": 1166437,\r\n              \"index_current\": 0,\r\n              \"index_failed\": 0,\r\n              \"delete_total\": 0,\r\n              \"delete_time_in_millis\": 0,\r\n              \"delete_current\": 0,\r\n              \"noop_update_total\": 0,\r\n              \"is_throttled\": false,\r\n              \"throttle_time_in_millis\": 0\r\n            },\r\n            \"get\": {\r\n              \"total\": 368507,\r\n              \"time_in_millis\": 159070,\r\n              \"exists_total\": 354156,\r\n              \"exists_time_in_millis\": 157586,\r\n              \"missing_total\": 14351,\r\n              \"missing_time_in_millis\": 1484,\r\n              \"current\": 0\r\n            },\r\n            \"search\": {\r\n              \"open_contexts\": 0,\r\n              \"query_total\": 185,\r\n              \"query_time_in_millis\": 46,\r\n              \"query_current\": 0,\r\n              \"fetch_total\": 30,\r\n              \"fetch_time_in_millis\": 89,\r\n              \"fetch_current\": 0,\r\n              \"scroll_total\": 2,\r\n              \"scroll_time_in_millis\": 2444,\r\n              \"scroll_current\": 0,\r\n              \"suggest_total\": 0,\r\n              \"suggest_time_in_millis\": 0,\r\n              \"suggest_current\": 0\r\n            },\r\n            \"merges\": {\r\n              \"current\": 0,\r\n              \"current_docs\": 0,\r\n              \"current_size_in_bytes\": 0,\r\n              \"total\": 132,\r\n              \"total_time_in_millis\": 714437,\r\n              \"total_docs\": 6268,\r\n              \"total_size_in_bytes\": 9036940847,\r\n              \"total_stopped_time_in_millis\": 0,\r\n              \"total_throttled_time_in_millis\": 88138,\r\n              \"total_auto_throttle_in_bytes\": 73181749\r\n            },\r\n            \"refresh\": {\r\n              \"total\": 3971,\r\n              \"total_time_in_millis\": 1052798,\r\n              \"listeners\": 0\r\n            },\r\n            \"flush\": {\r\n              \"total\": 1063,\r\n              \"total_time_in_millis\": 10994\r\n            },\r\n            \"warmer\": {\r\n              \"current\": 0,\r\n              \"total\": 3474,\r\n              \"total_time_in_millis\": 55\r\n            },\r\n            \"query_cache\": {\r\n              \"memory_size_in_bytes\": 0,\r\n              \"total_count\": 0,\r\n              \"hit_count\": 0,\r\n              \"miss_count\": 0,\r\n              \"cache_size\": 0,\r\n              \"cache_count\": 0,\r\n              \"evictions\": 0\r\n            },\r\n            \"fielddata\": {\r\n              \"memory_size_in_bytes\": 0,\r\n              \"evictions\": 0\r\n            },\r\n            \"completion\": {\r\n              \"size_in_bytes\": 0\r\n            },\r\n            \"segments\": {\r\n              \"count\": 123,\r\n              \"memory_in_bytes\": 597667360,\r\n              \"terms_memory_in_bytes\": 597553396,\r\n              \"stored_fields_memory_in_bytes\": 38640,\r\n              \"term_vectors_memory_in_bytes\": 0,\r\n              \"norms_memory_in_bytes\": 7872,\r\n              \"points_memory_in_bytes\": 368,\r\n              \"doc_values_memory_in_bytes\": 67084,\r\n              \"index_writer_memory_in_bytes\": 0,\r\n              \"version_map_memory_in_bytes\": 0,\r\n              \"fixed_bit_set_memory_in_bytes\": 0,\r\n              \"max_unsafe_auto_id_timestamp\": -1,\r\n              \"file_sizes\": {}\r\n            },\r\n            \"translog\": {\r\n              \"operations\": 0,\r\n              \"size_in_bytes\": 215\r\n            },\r\n            \"request_cache\": {\r\n              \"memory_size_in_bytes\": 0,\r\n              \"evictions\": 8,\r\n              \"hit_count\": 0,\r\n              \"miss_count\": 100\r\n            },\r\n            \"recovery\": {\r\n              \"current_as_source\": 0,\r\n              \"current_as_target\": 0,\r\n              \"throttle_time_in_millis\": 0\r\n            }\r\n          },\r\n          \"total\": {\r\n            \"docs\": {\r\n              \"count\": 22662,\r\n              \"deleted\": 2356\r\n            },\r\n            \"store\": {\r\n              \"size_in_bytes\": 46187867347,\r\n              \"throttle_time_in_millis\": 0\r\n            },\r\n            \"indexing\": {\r\n              \"index_total\": 2263,\r\n              \"index_time_in_millis\": 2216831,\r\n              \"index_current\": 0,\r\n              \"index_failed\": 0,\r\n              \"delete_total\": 0,\r\n              \"delete_time_in_millis\": 0,\r\n              \"delete_current\": 0,\r\n              \"noop_update_total\": 0,\r\n              \"is_throttled\": false,\r\n              \"throttle_time_in_millis\": 0\r\n            },\r\n            \"get\": {\r\n              \"total\": 657621,\r\n              \"time_in_millis\": 250947,\r\n              \"exists_total\": 628867,\r\n              \"exists_time_in_millis\": 247657,\r\n              \"missing_total\": 28754,\r\n              \"missing_time_in_millis\": 3290,\r\n              \"current\": 0\r\n            },\r\n            \"search\": {\r\n              \"open_contexts\": 0,\r\n              \"query_total\": 375,\r\n              \"query_time_in_millis\": 128,\r\n              \"query_current\": 0,\r\n              \"fetch_total\": 73,\r\n              \"fetch_time_in_millis\": 219,\r\n              \"fetch_current\": 0,\r\n              \"scroll_total\": 5,\r\n              \"scroll_time_in_millis\": 6110,\r\n              \"scroll_current\": 0,\r\n              \"suggest_total\": 0,\r\n              \"suggest_time_in_millis\": 0,\r\n              \"suggest_current\": 0\r\n            },\r\n            \"merges\": {\r\n              \"current\": 0,\r\n              \"current_docs\": 0,\r\n              \"current_size_in_bytes\": 0,\r\n              \"total\": 252,\r\n              \"total_time_in_millis\": 1134358,\r\n              \"total_docs\": 10222,\r\n              \"total_size_in_bytes\": 13797985517,\r\n              \"total_stopped_time_in_millis\": 0,\r\n              \"total_throttled_time_in_millis\": 160514,\r\n              \"total_auto_throttle_in_bytes\": 155271619\r\n            },\r\n            \"refresh\": {\r\n              \"total\": 7539,\r\n              \"total_time_in_millis\": 1978415,\r\n              \"listeners\": 0\r\n            },\r\n            \"flush\": {\r\n              \"total\": 2030,\r\n              \"total_time_in_millis\": 21846\r\n            },\r\n            \"warmer\": {\r\n              \"current\": 0,\r\n              \"total\": 6641,\r\n              \"total_time_in_millis\": 105\r\n            },\r\n            \"query_cache\": {\r\n              \"memory_size_in_bytes\": 0,\r\n              \"total_count\": 0,\r\n              \"hit_count\": 0,\r\n              \"miss_count\": 0,\r\n              \"cache_size\": 0,\r\n              \"cache_count\": 0,\r\n              \"evictions\": 0\r\n            },\r\n            \"fielddata\": {\r\n              \"memory_size_in_bytes\": 0,\r\n              \"evictions\": 0\r\n            },\r\n            \"completion\": {\r\n              \"size_in_bytes\": 0\r\n            },\r\n            \"segments\": {\r\n              \"count\": 261,\r\n              \"memory_in_bytes\": 1246021155,\r\n              \"terms_memory_in_bytes\": 1245778862,\r\n              \"stored_fields_memory_in_bytes\": 81992,\r\n              \"term_vectors_memory_in_bytes\": 0,\r\n              \"norms_memory_in_bytes\": 16704,\r\n              \"points_memory_in_bytes\": 769,\r\n              \"doc_values_memory_in_bytes\": 142828,\r\n              \"index_writer_memory_in_bytes\": 0,\r\n              \"version_map_memory_in_bytes\": 0,\r\n              \"fixed_bit_set_memory_in_bytes\": 0,\r\n              \"max_unsafe_auto_id_timestamp\": -1,\r\n              \"file_sizes\": {}\r\n            },\r\n            \"translog\": {\r\n              \"operations\": 0,\r\n              \"size_in_bytes\": 430\r\n            },\r\n            \"request_cache\": {\r\n              \"memory_size_in_bytes\": 0,\r\n              \"evictions\": 16,\r\n              \"hit_count\": 0,\r\n              \"miss_count\": 200\r\n            },\r\n            \"recovery\": {\r\n              \"current_as_source\": 0,\r\n              \"current_as_target\": 0,\r\n              \"throttle_time_in_millis\": 0\r\n            }\r\n          }\r\n        }\r\n      }\r\n    }\r\n\r\nand my mapping:\r\n\r\n    {\r\n      \"my_polygons_1\": {\r\n        \"aliases\": {},\r\n        \"mappings\": {\r\n          \"my_polygons_1\": {\r\n            \"properties\": {\r\n              \"client_id\": {\r\n                \"type\": \"integer\"\r\n              },\r\n              \"id\": {\r\n                \"type\": \"integer\"\r\n              },\r\n              \"name\": {\r\n                \"type\": \"keyword\"\r\n              },\r\n              \"polygon\": {\r\n                \"type\": \"geo_shape\",\r\n                \"tree\": \"quadtree\",\r\n                \"precision\": \"1.0m\"\r\n              }\r\n            }\r\n          }\r\n        },\r\n        \"settings\": {\r\n          \"index\": {\r\n            \"number_of_shards\": \"5\",\r\n            \"provided_name\": \"my_polygons_1\",\r\n            \"creation_date\": \"1514988794703\",\r\n            \"analysis\": {\r\n              \"filter\": {\r\n                \"addresstranslation\": {\r\n                  \"type\": \"synonym\",\r\n                  \"synonyms\": [\r\n                    \"1e,eerste\",\r\n                    \"2e,tweede\",\r\n                    \"3e,derde\",\r\n                    \"1ste,eerste\",\r\n                    \"2de,tweede\",\r\n                    \"3de,derde\"\r\n                  ]\r\n                },\r\n                \"translation\": {\r\n                  \"token_chars\": [\r\n                    \"letter\",\r\n                    \"digit\",\r\n                    \"whitespace\"\r\n                  ],\r\n                  \"min_gram\": \"3\",\r\n                  \"type\": \"nGram\",\r\n                  \"max_gram\": \"50\"\r\n                }\r\n              },\r\n              \"analyzer\": {\r\n                \"translation_index_analyzer\": {\r\n                  \"filter\": \"standard,lowercase,asciifolding,translation\",\r\n                  \"type\": \"custom\",\r\n                  \"tokenizer\": \"standard\"\r\n                },\r\n                \"address_search_analyzer\": {\r\n                  \"filter\": \"standard,lowercase,asciifolding,addresstranslation\",\r\n                  \"type\": \"custom\",\r\n                  \"tokenizer\": \"standard\"\r\n                },\r\n                \"address_index_analyzer\": {\r\n                  \"filter\": \"standard,lowercase,asciifolding,addresstranslation,translation\",\r\n                  \"type\": \"custom\",\r\n                  \"tokenizer\": \"standard\"\r\n                },\r\n                \"translation_search_analyzer\": {\r\n                  \"filter\": \"standard,lowercase,asciifolding\",\r\n                  \"type\": \"custom\",\r\n                  \"tokenizer\": \"standard\"\r\n                }\r\n              }\r\n            },\r\n            \"number_of_replicas\": \"1\",\r\n            \"uuid\": \"lQPnGOZ6TdKx9xZwNPfs2g\",\r\n            \"version\": {\r\n              \"created\": \"5060399\"\r\n            }\r\n          }\r\n        }\r\n      }\r\n    }\r\n\r\n","closed_by":{"login":"ywelsch","id":3718355,"node_id":"MDQ6VXNlcjM3MTgzNTU=","avatar_url":"https://avatars3.githubusercontent.com/u/3718355?v=4","gravatar_id":"","url":"https://api.github.com/users/ywelsch","html_url":"https://github.com/ywelsch","followers_url":"https://api.github.com/users/ywelsch/followers","following_url":"https://api.github.com/users/ywelsch/following{/other_user}","gists_url":"https://api.github.com/users/ywelsch/gists{/gist_id}","starred_url":"https://api.github.com/users/ywelsch/starred{/owner}{/repo}","subscriptions_url":"https://api.github.com/users/ywelsch/subscriptions","organizations_url":"https://api.github.com/users/ywelsch/orgs","repos_url":"https://api.github.com/users/ywelsch/repos","events_url":"https://api.github.com/users/ywelsch/events{/privacy}","received_events_url":"https://api.github.com/users/ywelsch/received_events","type":"User","site_admin":false}}", "commentIds":["537849011"], "labels":[]}