{"id":"3237", "title":"Single line Http header values", "body":"While working on the SockJS stuff I ran into an [issue](https://github.com/sockjs/sockjs-protocol/pull/77) with the sockjs-protocol-0.3.3 where the test suite was not able to handle separate HTTP header fields. It needs them to be one header with a comma separated value. 

I was asked if I could update our server to return a single header, but was not able to find a way to do this. As far as I know multiple headers is supported by the specification but I still wanted to know it was possible to have a single header with comma separated values in Nettty. 

Using the current 4.1 codebase an example response from the SockJS server looks like this:

```
08:53:14.692226 IP6 (flowlabel 0x320ce, hlim 64, next-header TCP (6) payload length: 501) ::1.8081 > ::1.51826: Flags [P.], cksum 0x01fd (incorrect -> 0x2607), seq 67386617:67387086, ack 2197006726, win 12739, options [nop,nop,TS val 1476895808 ecr 1476895808], length 469
        0x0000:  6003 20ce 01f5 0640 0000 0000 0000 0000  `......@........
        0x0010:  0000 0000 0000 0001 0000 0000 0000 0000  ................
        0x0020:  0000 0000 0000 0001 1f91 ca72 0404 3cf9  ...........r..<.
        0x0030:  82f3 a986 8018 31c3 01fd 0000 0101 080a  ......1.........
        0x0040:  5807 a440 5807 a440 4854 5450 2f31 2e31  X..@X..@HTTP/1.1
        0x0050:  2032 3030 204f 4b0d 0a41 6363 6573 732d  .200.OK..Access-
        0x0060:  436f 6e74 726f 6c2d 416c 6c6f 772d 4f72  Control-Allow-Or
        0x0070:  6967 696e 3a20 7465 7374 0d0a 5661 7279  igin:.test..Vary
        0x0080:  3a20 4f72 6967 696e 0d0a 4163 6365 7373  :.Origin..Access
        0x0090:  2d43 6f6e 7472 6f6c 2d41 6c6c 6f77 2d4d  -Control-Allow-M
        0x00a0:  6574 686f 6473 3a20 504f 5354 0d0a 4163  ethods:.POST..Ac
        0x00b0:  6365 7373 2d43 6f6e 7472 6f6c 2d41 6c6c  cess-Control-All
        0x00c0:  6f77 2d4d 6574 686f 6473 3a20 4745 540d  ow-Methods:.GET.
        0x00d0:  0a41 6363 6573 732d 436f 6e74 726f 6c2d  .Access-Control-
        0x00e0:  416c 6c6f 772d 4d65 7468 6f64 733a 204f  Allow-Methods:.O
        0x00f0:  5054 494f 4e53 0d0a 4163 6365 7373 2d43  PTIONS..Access-C
        0x0100:  6f6e 7472 6f6c 2d41 6c6c 6f77 2d48 6561  ontrol-Allow-Hea
        0x0110:  6465 7273 3a20 610d 0a41 6363 6573 732d  ders:.a..Access-
        0x0120:  436f 6e74 726f 6c2d 416c 6c6f 772d 4865  Control-Allow-He
        0x0130:  6164 6572 733a 2062 0d0a 4163 6365 7373  aders:.b..Access
        0x0140:  2d43 6f6e 7472 6f6c 2d41 6c6c 6f77 2d48  -Control-Allow-H
        0x0150:  6561 6465 7273 3a20 630d 0a41 6363 6573  eaders:.c..Acces
        0x0160:  732d 436f 6e74 726f 6c2d 416c 6c6f 772d  s-Control-Allow-
        0x0170:  4372 6564 656e 7469 616c 733a 2074 7275  Credentials:.tru
        0x0180:  650d 0a41 6363 6573 732d 436f 6e74 726f  e..Access-Contro
        0x0190:  6c2d 4d61 782d 4167 653a 2033 3135 3336  l-Max-Age:.31536
        0x01a0:  3030 300d 0a43 6163 6865 2d43 6f6e 7472  000..Cache-Contr
        0x01b0:  6f6c 3a20 7075 626c 6963 2c20 6d61 782d  ol:.public,.max-
        0x01c0:  6167 653d 3331 3533 3630 3030 0d0a 5365  age=31536000..Se
        0x01d0:  742d 436f 6f6b 6965 3a20 4a53 4553 5349  t-Cookie:.JSESSI
        0x01e0:  4f4e 4944 3d64 756d 6d79 3b70 6174 683d  ONID=dummy;path=
        0x01f0:  2f0d 0a45 7870 6972 6573 3a20 4672 692c  /..Expires:.Fri,
        0x0200:  2031 3220 4465 6320 3230 3134 2030 383a  .12.Dec.2014.08:
        0x0210:  3533 3a31 3420 474d 540d 0a0d 0a         53:14.GMT....
```

Perhaps not so easy to read but if you inspect the above you can see that for example there are multiple headers for `Access-Control-Allow-Methods`: 

```
Access-Control-Allow-Methods:.POST..
Access-Control-Allow-Methods:.GET..
Access-Control-Allow-Methods:.OPTIONS
```

Basically, I'm suggesting that a boolean parameter be added to [DefaultHttpResponse](https://github.com/danbev/netty/commit/46054c10cfb4ddc5fe57cff4c6089c224a6b8b29#diff-885b884279206d0a07332d15602e8239R57) named something like `singleHeaderFields`, which if set to `true` will add any headers added/set using the methods that take an array or Iterator as a single comma separated value. 

And with an [updated version](https://github.com/danbev/netty/tree/single-http-header-fields) a response to the same request looks like this:

```
13:38:46.988115 IP6 (flowlabel 0x688ac, hlim 64, next-header TCP (6) payload length: 381) ::1.8081 > ::1.53146: Flags [P.], cksum 0x0185 (incorrect -> 0xa764), seq 1897256139:1897256488, ack 2455444349, win 12739, options [nop,nop,TS val 1493761974 ecr 1493761966], length 349
    0x0000:  6006 88ac 017d 0640 0000 0000 0000 0000  `....}.@........
    0x0010:  0000 0000 0000 0001 0000 0000 0000 0000  ................
    0x0020:  0000 0000 0000 0001 1f91 cf9a 7115 d4cb  ............q...
    0x0030:  925b 1b7d 8018 31c3 0185 0000 0101 080a  .[.}..1.........
    0x0040:  5908 ffb6 5908 ffae 4854 5450 2f31 2e31  Y...Y...HTTP/1.1
    0x0050:  2032 3030 204f 4b0d 0a61 6363 6573 732d  .200.OK..access-
    0x0060:  636f 6e74 726f 6c2d 616c 6c6f 772d 6f72  control-allow-or
    0x0070:  6967 696e 3a20 7465 7374 0d0a 7661 7279  igin:.test..vary
    0x0080:  3a20 6f72 6967 696e 0d0a 6163 6365 7373  :.origin..access
    0x0090:  2d63 6f6e 7472 6f6c 2d61 6c6c 6f77 2d6d  -control-allow-m
    0x00a0:  6574 686f 6473 3a20 504f 5354 2c20 4745  ethods:.POST,.GE
    0x00b0:  542c 204f 5054 494f 4e53 0d0a 6163 6365  T,.OPTIONS..acce
    0x00c0:  7373 2d63 6f6e 7472 6f6c 2d61 6c6c 6f77  ss-control-allow
    0x00d0:  2d68 6561 6465 7273 3a20 612c 2062 2c20  -headers:.a,.b,.
    0x00e0:  630d 0a61 6363 6573 732d 636f 6e74 726f  c..access-contro
    0x00f0:  6c2d 616c 6c6f 772d 6372 6564 656e 7469  l-allow-credenti
    0x0100:  616c 733a 2074 7275 650d 0a61 6363 6573  als:.true..acces
    0x0110:  732d 636f 6e74 726f 6c2d 6d61 782d 6167  s-control-max-ag
    0x0120:  653a 2033 3135 3336 3030 300d 0a43 6163  e:.31536000..Cac
    0x0130:  6865 2d43 6f6e 7472 6f6c 3a20 7075 626c  he-Control:.publ
    0x0140:  6963 2c20 6d61 782d 6167 653d 3331 3533  ic,.max-age=3153
    0x0150:  3630 3030 0d0a 5365 742d 436f 6f6b 6965  6000..Set-Cookie
    0x0160:  3a20 4a53 4553 5349 4f4e 4944 3d64 756d  :.JSESSIONID=dum
    0x0170:  6d79 3b70 6174 683d 2f0d 0a45 7870 6972  my;path=/..Expir
    0x0180:  6573 3a20 4672 692c 2031 3220 4465 6320  es:.Fri,.12.Dec.
    0x0190:  3230 3134 2031 333a 3338 3a34 3620 474d  2014.13:38:46.GM
    0x01a0:  540d 0a0d 0a                             T....
```

Would a change like this make sense, or is better to stick with the current option that if you want a single field you specify a single value for it? 
", "json":"{"url":"https://api.github.com/repos/netty/netty/issues/3237","repository_url":"https://api.github.com/repos/netty/netty","labels_url":"https://api.github.com/repos/netty/netty/issues/3237/labels{/name}","comments_url":"https://api.github.com/repos/netty/netty/issues/3237/comments","events_url":"https://api.github.com/repos/netty/netty/issues/3237/events","html_url":"https://github.com/netty/netty/issues/3237","id":51803022,"node_id":"MDU6SXNzdWU1MTgwMzAyMg==","number":3237,"title":"Single line Http header values","user":{"login":"danbev","id":432351,"node_id":"MDQ6VXNlcjQzMjM1MQ==","avatar_url":"https://avatars3.githubusercontent.com/u/432351?v=4","gravatar_id":"","url":"https://api.github.com/users/danbev","html_url":"https://github.com/danbev","followers_url":"https://api.github.com/users/danbev/followers","following_url":"https://api.github.com/users/danbev/following{/other_user}","gists_url":"https://api.github.com/users/danbev/gists{/gist_id}","starred_url":"https://api.github.com/users/danbev/starred{/owner}{/repo}","subscriptions_url":"https://api.github.com/users/danbev/subscriptions","organizations_url":"https://api.github.com/users/danbev/orgs","repos_url":"https://api.github.com/users/danbev/repos","events_url":"https://api.github.com/users/danbev/events{/privacy}","received_events_url":"https://api.github.com/users/danbev/received_events","type":"User","site_admin":false},"labels":[{"id":185730,"node_id":"MDU6TGFiZWwxODU3MzA=","url":"https://api.github.com/repos/netty/netty/labels/feature","name":"feature","color":"009800","default":false}],"state":"closed","locked":false,"assignee":{"login":"danbev","id":432351,"node_id":"MDQ6VXNlcjQzMjM1MQ==","avatar_url":"https://avatars3.githubusercontent.com/u/432351?v=4","gravatar_id":"","url":"https://api.github.com/users/danbev","html_url":"https://github.com/danbev","followers_url":"https://api.github.com/users/danbev/followers","following_url":"https://api.github.com/users/danbev/following{/other_user}","gists_url":"https://api.github.com/users/danbev/gists{/gist_id}","starred_url":"https://api.github.com/users/danbev/starred{/owner}{/repo}","subscriptions_url":"https://api.github.com/users/danbev/subscriptions","organizations_url":"https://api.github.com/users/danbev/orgs","repos_url":"https://api.github.com/users/danbev/repos","events_url":"https://api.github.com/users/danbev/events{/privacy}","received_events_url":"https://api.github.com/users/danbev/received_events","type":"User","site_admin":false},"assignees":[{"login":"danbev","id":432351,"node_id":"MDQ6VXNlcjQzMjM1MQ==","avatar_url":"https://avatars3.githubusercontent.com/u/432351?v=4","gravatar_id":"","url":"https://api.github.com/users/danbev","html_url":"https://github.com/danbev","followers_url":"https://api.github.com/users/danbev/followers","following_url":"https://api.github.com/users/danbev/following{/other_user}","gists_url":"https://api.github.com/users/danbev/gists{/gist_id}","starred_url":"https://api.github.com/users/danbev/starred{/owner}{/repo}","subscriptions_url":"https://api.github.com/users/danbev/subscriptions","organizations_url":"https://api.github.com/users/danbev/orgs","repos_url":"https://api.github.com/users/danbev/repos","events_url":"https://api.github.com/users/danbev/events{/privacy}","received_events_url":"https://api.github.com/users/danbev/received_events","type":"User","site_admin":false}],"milestone":null,"comments":12,"created_at":"2014-12-12T12:54:03Z","updated_at":"2018-03-28T19:12:08Z","closed_at":"2018-03-28T19:12:08Z","author_association":"MEMBER","body":"While working on the SockJS stuff I ran into an [issue](https://github.com/sockjs/sockjs-protocol/pull/77) with the sockjs-protocol-0.3.3 where the test suite was not able to handle separate HTTP header fields. It needs them to be one header with a comma separated value. \n\nI was asked if I could update our server to return a single header, but was not able to find a way to do this. As far as I know multiple headers is supported by the specification but I still wanted to know it was possible to have a single header with comma separated values in Nettty. \n\nUsing the current 4.1 codebase an example response from the SockJS server looks like this:\n\n```\n08:53:14.692226 IP6 (flowlabel 0x320ce, hlim 64, next-header TCP (6) payload length: 501) ::1.8081 > ::1.51826: Flags [P.], cksum 0x01fd (incorrect -> 0x2607), seq 67386617:67387086, ack 2197006726, win 12739, options [nop,nop,TS val 1476895808 ecr 1476895808], length 469\n        0x0000:  6003 20ce 01f5 0640 0000 0000 0000 0000  `......@........\n        0x0010:  0000 0000 0000 0001 0000 0000 0000 0000  ................\n        0x0020:  0000 0000 0000 0001 1f91 ca72 0404 3cf9  ...........r..<.\n        0x0030:  82f3 a986 8018 31c3 01fd 0000 0101 080a  ......1.........\n        0x0040:  5807 a440 5807 a440 4854 5450 2f31 2e31  X..@X..@HTTP/1.1\n        0x0050:  2032 3030 204f 4b0d 0a41 6363 6573 732d  .200.OK..Access-\n        0x0060:  436f 6e74 726f 6c2d 416c 6c6f 772d 4f72  Control-Allow-Or\n        0x0070:  6967 696e 3a20 7465 7374 0d0a 5661 7279  igin:.test..Vary\n        0x0080:  3a20 4f72 6967 696e 0d0a 4163 6365 7373  :.Origin..Access\n        0x0090:  2d43 6f6e 7472 6f6c 2d41 6c6c 6f77 2d4d  -Control-Allow-M\n        0x00a0:  6574 686f 6473 3a20 504f 5354 0d0a 4163  ethods:.POST..Ac\n        0x00b0:  6365 7373 2d43 6f6e 7472 6f6c 2d41 6c6c  cess-Control-All\n        0x00c0:  6f77 2d4d 6574 686f 6473 3a20 4745 540d  ow-Methods:.GET.\n        0x00d0:  0a41 6363 6573 732d 436f 6e74 726f 6c2d  .Access-Control-\n        0x00e0:  416c 6c6f 772d 4d65 7468 6f64 733a 204f  Allow-Methods:.O\n        0x00f0:  5054 494f 4e53 0d0a 4163 6365 7373 2d43  PTIONS..Access-C\n        0x0100:  6f6e 7472 6f6c 2d41 6c6c 6f77 2d48 6561  ontrol-Allow-Hea\n        0x0110:  6465 7273 3a20 610d 0a41 6363 6573 732d  ders:.a..Access-\n        0x0120:  436f 6e74 726f 6c2d 416c 6c6f 772d 4865  Control-Allow-He\n        0x0130:  6164 6572 733a 2062 0d0a 4163 6365 7373  aders:.b..Access\n        0x0140:  2d43 6f6e 7472 6f6c 2d41 6c6c 6f77 2d48  -Control-Allow-H\n        0x0150:  6561 6465 7273 3a20 630d 0a41 6363 6573  eaders:.c..Acces\n        0x0160:  732d 436f 6e74 726f 6c2d 416c 6c6f 772d  s-Control-Allow-\n        0x0170:  4372 6564 656e 7469 616c 733a 2074 7275  Credentials:.tru\n        0x0180:  650d 0a41 6363 6573 732d 436f 6e74 726f  e..Access-Contro\n        0x0190:  6c2d 4d61 782d 4167 653a 2033 3135 3336  l-Max-Age:.31536\n        0x01a0:  3030 300d 0a43 6163 6865 2d43 6f6e 7472  000..Cache-Contr\n        0x01b0:  6f6c 3a20 7075 626c 6963 2c20 6d61 782d  ol:.public,.max-\n        0x01c0:  6167 653d 3331 3533 3630 3030 0d0a 5365  age=31536000..Se\n        0x01d0:  742d 436f 6f6b 6965 3a20 4a53 4553 5349  t-Cookie:.JSESSI\n        0x01e0:  4f4e 4944 3d64 756d 6d79 3b70 6174 683d  ONID=dummy;path=\n        0x01f0:  2f0d 0a45 7870 6972 6573 3a20 4672 692c  /..Expires:.Fri,\n        0x0200:  2031 3220 4465 6320 3230 3134 2030 383a  .12.Dec.2014.08:\n        0x0210:  3533 3a31 3420 474d 540d 0a0d 0a         53:14.GMT....\n```\n\nPerhaps not so easy to read but if you inspect the above you can see that for example there are multiple headers for `Access-Control-Allow-Methods`: \n\n```\nAccess-Control-Allow-Methods:.POST..\nAccess-Control-Allow-Methods:.GET..\nAccess-Control-Allow-Methods:.OPTIONS\n```\n\nBasically, I'm suggesting that a boolean parameter be added to [DefaultHttpResponse](https://github.com/danbev/netty/commit/46054c10cfb4ddc5fe57cff4c6089c224a6b8b29#diff-885b884279206d0a07332d15602e8239R57) named something like `singleHeaderFields`, which if set to `true` will add any headers added/set using the methods that take an array or Iterator as a single comma separated value. \n\nAnd with an [updated version](https://github.com/danbev/netty/tree/single-http-header-fields) a response to the same request looks like this:\n\n```\n13:38:46.988115 IP6 (flowlabel 0x688ac, hlim 64, next-header TCP (6) payload length: 381) ::1.8081 > ::1.53146: Flags [P.], cksum 0x0185 (incorrect -> 0xa764), seq 1897256139:1897256488, ack 2455444349, win 12739, options [nop,nop,TS val 1493761974 ecr 1493761966], length 349\n    0x0000:  6006 88ac 017d 0640 0000 0000 0000 0000  `....}.@........\n    0x0010:  0000 0000 0000 0001 0000 0000 0000 0000  ................\n    0x0020:  0000 0000 0000 0001 1f91 cf9a 7115 d4cb  ............q...\n    0x0030:  925b 1b7d 8018 31c3 0185 0000 0101 080a  .[.}..1.........\n    0x0040:  5908 ffb6 5908 ffae 4854 5450 2f31 2e31  Y...Y...HTTP/1.1\n    0x0050:  2032 3030 204f 4b0d 0a61 6363 6573 732d  .200.OK..access-\n    0x0060:  636f 6e74 726f 6c2d 616c 6c6f 772d 6f72  control-allow-or\n    0x0070:  6967 696e 3a20 7465 7374 0d0a 7661 7279  igin:.test..vary\n    0x0080:  3a20 6f72 6967 696e 0d0a 6163 6365 7373  :.origin..access\n    0x0090:  2d63 6f6e 7472 6f6c 2d61 6c6c 6f77 2d6d  -control-allow-m\n    0x00a0:  6574 686f 6473 3a20 504f 5354 2c20 4745  ethods:.POST,.GE\n    0x00b0:  542c 204f 5054 494f 4e53 0d0a 6163 6365  T,.OPTIONS..acce\n    0x00c0:  7373 2d63 6f6e 7472 6f6c 2d61 6c6c 6f77  ss-control-allow\n    0x00d0:  2d68 6561 6465 7273 3a20 612c 2062 2c20  -headers:.a,.b,.\n    0x00e0:  630d 0a61 6363 6573 732d 636f 6e74 726f  c..access-contro\n    0x00f0:  6c2d 616c 6c6f 772d 6372 6564 656e 7469  l-allow-credenti\n    0x0100:  616c 733a 2074 7275 650d 0a61 6363 6573  als:.true..acces\n    0x0110:  732d 636f 6e74 726f 6c2d 6d61 782d 6167  s-control-max-ag\n    0x0120:  653a 2033 3135 3336 3030 300d 0a43 6163  e:.31536000..Cac\n    0x0130:  6865 2d43 6f6e 7472 6f6c 3a20 7075 626c  he-Control:.publ\n    0x0140:  6963 2c20 6d61 782d 6167 653d 3331 3533  ic,.max-age=3153\n    0x0150:  3630 3030 0d0a 5365 742d 436f 6f6b 6965  6000..Set-Cookie\n    0x0160:  3a20 4a53 4553 5349 4f4e 4944 3d64 756d  :.JSESSIONID=dum\n    0x0170:  6d79 3b70 6174 683d 2f0d 0a45 7870 6972  my;path=/..Expir\n    0x0180:  6573 3a20 4672 692c 2031 3220 4465 6320  es:.Fri,.12.Dec.\n    0x0190:  3230 3134 2031 333a 3338 3a34 3620 474d  2014.13:38:46.GM\n    0x01a0:  540d 0a0d 0a                             T....\n```\n\nWould a change like this make sense, or is better to stick with the current option that if you want a single field you specify a single value for it? \n","closed_by":{"login":"normanmaurer","id":439362,"node_id":"MDQ6VXNlcjQzOTM2Mg==","avatar_url":"https://avatars3.githubusercontent.com/u/439362?v=4","gravatar_id":"","url":"https://api.github.com/users/normanmaurer","html_url":"https://github.com/normanmaurer","followers_url":"https://api.github.com/users/normanmaurer/followers","following_url":"https://api.github.com/users/normanmaurer/following{/other_user}","gists_url":"https://api.github.com/users/normanmaurer/gists{/gist_id}","starred_url":"https://api.github.com/users/normanmaurer/starred{/owner}{/repo}","subscriptions_url":"https://api.github.com/users/normanmaurer/subscriptions","organizations_url":"https://api.github.com/users/normanmaurer/orgs","repos_url":"https://api.github.com/users/normanmaurer/repos","events_url":"https://api.github.com/users/normanmaurer/events{/privacy}","received_events_url":"https://api.github.com/users/normanmaurer/received_events","type":"User","site_admin":false}}", "commentIds":["67331483","67334968","67357571","67447498","67542833","67548546","67625931","67639927","67640170","67652494","67652666","377002568"], "labels":["feature"]}