{"id":"7988", "title":"NPE in testsuite logged when using Conscrypt.", "body":"Saw this during the build:

```
Running io.netty.handler.ssl.ConscryptJdkSslEngineInteropTest
18:01:39.304 [nioEventLoopGroup-676-3] DEBUG io.netty.buffer.PoolThreadCache - Freed 10 thread-local buffer(s) from thread: nioEventLoopGroup-676-3
18:01:39.304 [nioEventLoopGroup-676-2] DEBUG io.netty.buffer.PoolThreadCache - Freed 8 thread-local buffer(s) from thread: nioEventLoopGroup-676-2
[98.268s][info   ][gc,start      ] GC(54) Pause Young (G1 Evacuation Pause)
[98.268s][info   ][gc,task       ] GC(54) Using 8 workers of 8 for evacuation
[98.289s][info   ][gc,phases     ] GC(54)   Pre Evacuate Collection Set: 0.0ms
[98.289s][info   ][gc,phases     ] GC(54)   Evacuate Collection Set: 19.5ms
[98.289s][info   ][gc,phases     ] GC(54)   Post Evacuate Collection Set: 1.5ms
[98.289s][info   ][gc,phases     ] GC(54)   Other: 0.4ms
[98.289s][info   ][gc,heap       ] GC(54) Eden regions: 178->0(171)
[98.289s][info   ][gc,heap       ] GC(54) Survivor regions: 3->10(23)
[98.289s][info   ][gc,heap       ] GC(54) Old regions: 7->7
[98.289s][info   ][gc,heap       ] GC(54) Humongous regions: 54->54
[98.289s][info   ][gc,metaspace  ] GC(54) Metaspace: 33982K->33982K(1081344K)
[98.289s][info   ][gc            ] GC(54) Pause Young (G1 Evacuation Pause) 482M->140M(604M) 21.501ms
[98.290s][info   ][gc,cpu        ] GC(54) User=0.03s Sys=0.01s Real=0.02s
18:01:39.566 [nioEventLoopGroup-689-1] DEBUG io.netty.handler.ssl.SslHandler - [id: 0x4b609c89, L:/127.0.0.1:37424 - R:/127.0.0.1:45348] HANDSHAKEN: TLS_ECDHE_RSA_WITH_AES_128_GCM_SHA256
18:01:39.568 [nioEventLoopGroup-690-1] DEBUG io.netty.handler.ssl.SslHandler - [id: 0xc3c9581f, L:/127.0.0.1:45348 - R:/127.0.0.1:37424] HANDSHAKEN: TLS_ECDHE_RSA_WITH_AES_128_GCM_SHA256
18:01:39.588 [nioEventLoopGroup-689-1] DEBUG io.netty.buffer.PoolThreadCache - Freed 14 thread-local buffer(s) from thread: nioEventLoopGroup-689-1
18:01:39.601 [nioEventLoopGroup-690-1] DEBUG io.netty.buffer.PoolThreadCache - Freed 10 thread-local buffer(s) from thread: nioEventLoopGroup-690-1
18:01:39.642 [nioEventLoopGroup-677-2] DEBUG io.netty.buffer.PoolThreadCache - Freed 7 thread-local buffer(s) from thread: nioEventLoopGroup-677-2
18:01:39.643 [nioEventLoopGroup-677-3] DEBUG io.netty.buffer.PoolThreadCache - Freed 6 thread-local buffer(s) from thread: nioEventLoopGroup-677-3
18:01:39.684 [nioEventLoopGroup-692-1] DEBUG io.netty.handler.ssl.SslHandler - [id: 0x34ae8109, L:/127.0.0.1:40594 - R:/127.0.0.1:43038] HANDSHAKEN: TLS_ECDHE_RSA_WITH_AES_128_GCM_SHA256
18:01:39.685 [nioEventLoopGroup-693-1] DEBUG io.netty.handler.ssl.SslHandler - [id: 0x6cb9adc0, L:/127.0.0.1:43038 - R:/127.0.0.1:40594] HANDSHAKEN: TLS_ECDHE_RSA_WITH_AES_128_GCM_SHA256
18:01:39.713 [nioEventLoopGroup-692-1] DEBUG io.netty.buffer.PoolThreadCache - Freed 8 thread-local buffer(s) from thread: nioEventLoopGroup-692-1
18:01:39.730 [nioEventLoopGroup-693-1] DEBUG io.netty.buffer.PoolThreadCache - Freed 9 thread-local buffer(s) from thread: nioEventLoopGroup-693-1
18:01:39.811 [nioEventLoopGroup-678-2] DEBUG io.netty.buffer.PoolThreadCache - Freed 9 thread-local buffer(s) from thread: nioEventLoopGroup-678-2
18:01:39.813 [nioEventLoopGroup-678-3] DEBUG io.netty.buffer.PoolThreadCache - Freed 10 thread-local buffer(s) from thread: nioEventLoopGroup-678-3
18:01:39.905 [nioEventLoopGroup-679-3] DEBUG io.netty.buffer.PoolThreadCache - Freed 10 thread-local buffer(s) from thread: nioEventLoopGroup-679-3
18:01:39.999 [nioEventLoopGroup-679-2] DEBUG io.netty.buffer.PoolThreadCache - Freed 8 thread-local buffer(s) from thread: nioEventLoopGroup-679-2
18:01:40.171 [nioEventLoopGroup-680-3] DEBUG io.netty.buffer.PoolThreadCache - Freed 160 thread-local buffer(s) from thread: nioEventLoopGroup-680-3
18:01:40.171 [nioEventLoopGroup-680-2] DEBUG io.netty.buffer.PoolThreadCache - Freed 9 thread-local buffer(s) from thread: nioEventLoopGroup-680-2
18:01:40.323 [nioEventLoopGroup-681-3] DEBUG io.netty.buffer.PoolThreadCache - Freed 160 thread-local buffer(s) from thread: nioEventLoopGroup-681-3
18:01:40.325 [nioEventLoopGroup-681-2] DEBUG io.netty.buffer.PoolThreadCache - Freed 9 thread-local buffer(s) from thread: nioEventLoopGroup-681-2
18:01:40.482 [nioEventLoopGroup-682-2] DEBUG io.netty.buffer.PoolThreadCache - Freed 9 thread-local buffer(s) from thread: nioEventLoopGroup-682-2
18:01:40.482 [nioEventLoopGroup-682-3] DEBUG io.netty.buffer.PoolThreadCache - Freed 160 thread-local buffer(s) from thread: nioEventLoopGroup-682-3
18:01:40.528 [nioEventLoopGroup-695-1] DEBUG io.netty.handler.ssl.SslHandler - [id: 0x4ca0a975, L:/172.19.0.2:37904 - R:/172.19.0.2:51436] HANDSHAKEN: TLS_ECDHE_RSA_WITH_AES_128_GCM_SHA256
18:01:40.550 [nioEventLoopGroup-683-3] DEBUG io.netty.buffer.PoolThreadCache - Freed 160 thread-local buffer(s) from thread: nioEventLoopGroup-683-3
18:01:40.553 [nioEventLoopGroup-695-1] DEBUG io.netty.buffer.PoolThreadCache - Freed 12 thread-local buffer(s) from thread: nioEventLoopGroup-695-1
18:01:40.559 [nioEventLoopGroup-696-1] DEBUG io.netty.buffer.PoolThreadCache - Freed 5 thread-local buffer(s) from thread: nioEventLoopGroup-696-1
18:01:40.643 [nioEventLoopGroup-683-2] DEBUG io.netty.buffer.PoolThreadCache - Freed 9 thread-local buffer(s) from thread: nioEventLoopGroup-683-2
18:01:40.691 [nioEventLoopGroup-684-3] DEBUG io.netty.buffer.PoolThreadCache - Freed 161 thread-local buffer(s) from thread: nioEventLoopGroup-684-3
18:01:40.706 [main] DEBUG i.n.h.s.u.InsecureTrustManagerFactory - Accepting a server certificate: CN=example.com
18:01:40.796 [nioEventLoopGroup-684-2] DEBUG io.netty.buffer.PoolThreadCache - Freed 9 thread-local buffer(s) from thread: nioEventLoopGroup-684-2
18:01:40.960 [nioEventLoopGroup-699-1] DEBUG io.netty.handler.ssl.SslHandler - SSLException during trying to call SSLEngine.wrap(...) because of an previous SSLException, ignoring...
javax.net.ssl.SSLHandshakeException: SSL handshake aborted: ssl=0x7f12c41b3cf8: Failure in SSL library, usually a protocol error
error:1000007d:SSL routines:OPENSSL_internal:CERTIFICATE_VERIFY_FAILED (../ssl/handshake.cc:363 0x7f12bb959503:0x00000000)
	at org.conscrypt.SSLUtils.toSSLHandshakeException(SSLUtils.java:331)
	at org.conscrypt.ConscryptEngine.handshake(ConscryptEngine.java:1013)
	at org.conscrypt.ConscryptEngine.wrap(ConscryptEngine.java:1427)
	at java.base/javax.net.ssl.SSLEngine.wrap(SSLEngine.java:511)
	at org.conscrypt.Java8EngineWrapper.wrap(Java8EngineWrapper.java:56)
	at io.netty.handler.ssl.SslHandler.wrap(SslHandler.java:997)
	at io.netty.handler.ssl.SslHandler.wrap(SslHandler.java:803)
	at io.netty.handler.ssl.SslHandler.wrapAndFlush(SslHandler.java:771)
	at io.netty.handler.ssl.SslHandler.handleUnwrapThrowable(SslHandler.java:1207)
	at io.netty.handler.ssl.SslHandler.decodeJdkCompatible(SslHandler.java:1183)
	at io.netty.handler.ssl.SslHandler.decode(SslHandler.java:1221)
	at io.netty.handler.codec.ByteToMessageDecoder.decodeRemovalReentryProtection(ByteToMessageDecoder.java:489)
	at io.netty.handler.codec.ByteToMessageDecoder.callDecode(ByteToMessageDecoder.java:428)
	at io.netty.handler.codec.ByteToMessageDecoder.channelRead(ByteToMessageDecoder.java:265)
	at io.netty.channel.AbstractChannelHandlerContext.invokeChannelRead(AbstractChannelHandlerContext.java:362)
	at io.netty.channel.AbstractChannelHandlerContext.invokeChannelRead(AbstractChannelHandlerContext.java:348)
	at io.netty.channel.AbstractChannelHandlerContext.fireChannelRead(AbstractChannelHandlerContext.java:340)
	at io.netty.channel.DefaultChannelPipeline$HeadContext.channelRead(DefaultChannelPipeline.java:1434)
	at io.netty.channel.AbstractChannelHandlerContext.invokeChannelRead(AbstractChannelHandlerContext.java:362)
	at io.netty.channel.AbstractChannelHandlerContext.invokeChannelRead(AbstractChannelHandlerContext.java:348)
	at io.netty.channel.DefaultChannelPipeline.fireChannelRead(DefaultChannelPipeline.java:965)
	at io.netty.channel.nio.AbstractNioByteChannel$NioByteUnsafe.read(AbstractNioByteChannel.java:163)
	at io.netty.channel.nio.NioEventLoop.processSelectedKey(NioEventLoop.java:644)
	at io.netty.channel.nio.NioEventLoop.processSelectedKeysPlain(NioEventLoop.java:544)
	at io.netty.channel.nio.NioEventLoop.processSelectedKeys(NioEventLoop.java:498)
	at io.netty.channel.nio.NioEventLoop.run(NioEventLoop.java:458)
	at io.netty.util.concurrent.SingleThreadEventExecutor$5.run(SingleThreadEventExecutor.java:884)
	at io.netty.util.concurrent.FastThreadLocalRunnable.run(FastThreadLocalRunnable.java:30)
	at java.base/java.lang.Thread.run(Thread.java:844)
Caused by: javax.net.ssl.SSLProtocolException: SSL handshake aborted: ssl=0x7f12c41b3cf8: Failure in SSL library, usually a protocol error
error:1000007d:SSL routines:OPENSSL_internal:CERTIFICATE_VERIFY_FAILED (../ssl/handshake.cc:363 0x7f12bb959503:0x00000000)
	at org.conscrypt.NativeCrypto.ENGINE_SSL_do_handshake(Native Method)
	at org.conscrypt.NativeSsl.doHandshake(NativeSsl.java:391)
	at org.conscrypt.ConscryptEngine.handshake(ConscryptEngine.java:978)
	... 27 common frames omitted
18:01:40.971 [nioEventLoopGroup-685-2] DEBUG io.netty.buffer.PoolThreadCache - Freed 9 thread-local buffer(s) from thread: nioEventLoopGroup-685-2
18:01:40.974 [nioEventLoopGroup-685-3] DEBUG io.netty.buffer.PoolThreadCache - Freed 161 thread-local buffer(s) from thread: nioEventLoopGroup-685-3
18:01:41.018 [nioEventLoopGroup-698-1] DEBUG io.netty.buffer.PoolThreadCache - Freed 4 thread-local buffer(s) from thread: nioEventLoopGroup-698-1
18:01:41.025 [nioEventLoopGroup-699-1] DEBUG io.netty.buffer.PoolThreadCache - Freed 7 thread-local buffer(s) from thread: nioEventLoopGroup-699-1
18:01:41.026 [nioEventLoopGroup-686-3] DEBUG io.netty.buffer.PoolThreadCache - Freed 161 thread-local buffer(s) from thread: nioEventLoopGroup-686-3
18:01:41.124 [nioEventLoopGroup-686-2] DEBUG io.netty.buffer.PoolThreadCache - Freed 9 thread-local buffer(s) from thread: nioEventLoopGroup-686-2
18:01:41.329 [nioEventLoopGroup-687-2] DEBUG io.netty.buffer.PoolThreadCache - Freed 9 thread-local buffer(s) from thread: nioEventLoopGroup-687-2
18:01:41.339 [nioEventLoopGroup-687-3] DEBUG io.netty.buffer.PoolThreadCache - Freed 161 thread-local buffer(s) from thread: nioEventLoopGroup-687-3
18:01:41.399 [main] DEBUG i.n.h.s.u.InsecureTrustManagerFactory - Accepting a server certificate: CN=example.com
18:01:41.426 [nioEventLoopGroup-702-1] DEBUG io.netty.handler.ssl.SslHandler - SSLException during trying to call SSLEngine.wrap(...) because of an previous SSLException, ignoring...
javax.net.ssl.SSLHandshakeException: SSL handshake aborted: ssl=0x7f129800be38: Failure in SSL library, usually a protocol error
error:10000416:SSL routines:OPENSSL_internal:SSLV3_ALERT_CERTIFICATE_UNKNOWN (../ssl/tls_record.cc:586 0x7f1298870be8:0x00000001)
	at org.conscrypt.SSLUtils.toSSLHandshakeException(SSLUtils.java:331)
	at org.conscrypt.ConscryptEngine.handshake(ConscryptEngine.java:1013)
	at org.conscrypt.ConscryptEngine.wrap(ConscryptEngine.java:1427)
	at java.base/javax.net.ssl.SSLEngine.wrap(SSLEngine.java:511)
	at org.conscrypt.Java8EngineWrapper.wrap(Java8EngineWrapper.java:56)
	at io.netty.handler.ssl.SslHandler.wrap(SslHandler.java:997)
	at io.netty.handler.ssl.SslHandler.wrap(SslHandler.java:803)
	at io.netty.handler.ssl.SslHandler.wrapAndFlush(SslHandler.java:771)
	at io.netty.handler.ssl.SslHandler.handleUnwrapThrowable(SslHandler.java:1207)
	at io.netty.handler.ssl.SslHandler.decodeJdkCompatible(SslHandler.java:1183)
	at io.netty.handler.ssl.SslHandler.decode(SslHandler.java:1221)
	at io.netty.handler.codec.ByteToMessageDecoder.decodeRemovalReentryProtection(ByteToMessageDecoder.java:489)
	at io.netty.handler.codec.ByteToMessageDecoder.callDecode(ByteToMessageDecoder.java:428)
	at io.netty.handler.codec.ByteToMessageDecoder.channelRead(ByteToMessageDecoder.java:265)
	at io.netty.channel.AbstractChannelHandlerContext.invokeChannelRead(AbstractChannelHandlerContext.java:362)
	at io.netty.channel.AbstractChannelHandlerContext.invokeChannelRead(AbstractChannelHandlerContext.java:348)
	at io.netty.channel.AbstractChannelHandlerContext.fireChannelRead(AbstractChannelHandlerContext.java:340)
	at io.netty.channel.DefaultChannelPipeline$HeadContext.channelRead(DefaultChannelPipeline.java:1434)
	at io.netty.channel.AbstractChannelHandlerContext.invokeChannelRead(AbstractChannelHandlerContext.java:362)
	at io.netty.channel.AbstractChannelHandlerContext.invokeChannelRead(AbstractChannelHandlerContext.java:348)
	at io.netty.channel.DefaultChannelPipeline.fireChannelRead(DefaultChannelPipeline.java:965)
	at io.netty.channel.nio.AbstractNioByteChannel$NioByteUnsafe.read(AbstractNioByteChannel.java:163)
	at io.netty.channel.nio.NioEventLoop.processSelectedKey(NioEventLoop.java:644)
	at io.netty.channel.nio.NioEventLoop.processSelectedKeysPlain(NioEventLoop.java:544)
	at io.netty.channel.nio.NioEventLoop.processSelectedKeys(NioEventLoop.java:498)
	at io.netty.channel.nio.NioEventLoop.run(NioEventLoop.java:458)
	at io.netty.util.concurrent.SingleThreadEventExecutor$5.run(SingleThreadEventExecutor.java:884)
	at io.netty.util.concurrent.FastThreadLocalRunnable.run(FastThreadLocalRunnable.java:30)
	at java.base/java.lang.Thread.run(Thread.java:844)
Caused by: javax.net.ssl.SSLProtocolException: SSL handshake aborted: ssl=0x7f129800be38: Failure in SSL library, usually a protocol error
error:10000416:SSL routines:OPENSSL_internal:SSLV3_ALERT_CERTIFICATE_UNKNOWN (../ssl/tls_record.cc:586 0x7f1298870be8:0x00000001)
	at org.conscrypt.NativeCrypto.ENGINE_SSL_do_handshake(Native Method)
	at org.conscrypt.NativeSsl.doHandshake(NativeSsl.java:391)
	at org.conscrypt.ConscryptEngine.handshake(ConscryptEngine.java:978)
	... 27 common frames omitted
18:01:41.432 [nioEventLoopGroup-701-1] DEBUG io.netty.buffer.PoolThreadCache - Freed 6 thread-local buffer(s) from thread: nioEventLoopGroup-701-1
18:01:41.439 [nioEventLoopGroup-702-1] DEBUG io.netty.buffer.PoolThreadCache - Freed 8 thread-local buffer(s) from thread: nioEventLoopGroup-702-1
18:01:41.563 [main] DEBUG i.n.h.s.u.InsecureTrustManagerFactory - Accepting a server certificate: CN=example.com
18:01:41.691 [nioEventLoopGroup-704-1] DEBUG io.netty.handler.ssl.SslHandler - [id: 0xaea8b212, L:/127.0.0.1:34256 - R:/127.0.0.1:60070] HANDSHAKEN: TLS_ECDHE_RSA_WITH_AES_128_GCM_SHA256
18:01:41.692 [nioEventLoopGroup-705-1] DEBUG io.netty.handler.ssl.SslHandler - [id: 0x045d2f89, L:/127.0.0.1:60070 - R:localhost/127.0.0.1:34256] HANDSHAKEN: TLS_ECDHE_RSA_WITH_AES_128_GCM_SHA256
18:01:41.697 [nioEventLoopGroup-705-1] WARN  i.n.c.AbstractChannelHandlerContext - Failed to mark a promise as failure because it has succeeded already: DefaultChannelPromise@80355a8(success)
javax.net.ssl.SSLException: java.lang.NullPointerException: bio == null
	at org.conscrypt.SSLUtils.toSSLException(SSLUtils.java:341)
	at org.conscrypt.ConscryptEngine.convertException(ConscryptEngine.java:1151)
	at org.conscrypt.ConscryptEngine.readPendingBytesFromBIO(ConscryptEngine.java:1267)
	at org.conscrypt.ConscryptEngine.wrap(ConscryptEngine.java:1411)
	at java.base/javax.net.ssl.SSLEngine.wrap(SSLEngine.java:511)
	at org.conscrypt.Java8EngineWrapper.wrap(Java8EngineWrapper.java:56)
	at io.netty.handler.ssl.SslHandler.wrap(SslHandler.java:997)
	at io.netty.handler.ssl.SslHandler.wrap(SslHandler.java:803)
	at io.netty.handler.ssl.SslHandler.wrapAndFlush(SslHandler.java:771)
	at io.netty.handler.ssl.SslHandler.flush(SslHandler.java:752)
	at io.netty.handler.ssl.SslHandler.flush(SslHandler.java:1625)
	at io.netty.handler.ssl.SslHandler.closeOutboundAndChannel(SslHandler.java:1593)
	at io.netty.handler.ssl.SslHandler.close(SslHandler.java:710)
	at io.netty.channel.AbstractChannelHandlerContext.invokeClose(AbstractChannelHandlerContext.java:624)
	at io.netty.channel.AbstractChannelHandlerContext.access$1100(AbstractChannelHandlerContext.java:38)
	at io.netty.channel.AbstractChannelHandlerContext$13.run(AbstractChannelHandlerContext.java:613)
	at io.netty.util.concurrent.AbstractEventExecutor.safeExecute(AbstractEventExecutor.java:163)
	at io.netty.util.concurrent.SingleThreadEventExecutor.runAllTasks(SingleThreadEventExecutor.java:404)
	at io.netty.channel.nio.NioEventLoop.run(NioEventLoop.java:462)
	at io.netty.util.concurrent.SingleThreadEventExecutor$5.run(SingleThreadEventExecutor.java:884)
	at io.netty.util.concurrent.FastThreadLocalRunnable.run(FastThreadLocalRunnable.java:30)
	at java.base/java.lang.Thread.run(Thread.java:844)
Caused by: java.lang.NullPointerException: bio == null
	at org.conscrypt.NativeCrypto.SSL_pending_written_bytes_in_BIO(Native Method)
	at org.conscrypt.NativeSsl$BioWrapper.getPendingWrittenBytes(NativeSsl.java:571)
	at org.conscrypt.ConscryptEngine.pendingOutboundEncryptedBytes(ConscryptEngine.java:553)
	at org.conscrypt.ConscryptEngine.readPendingBytesFromBIO(ConscryptEngine.java:1236)
	... 19 common frames omitted
18:01:41.749 [nioEventLoopGroup-704-1] DEBUG io.netty.buffer.PoolThreadCache - Freed 8 thread-local buffer(s) from thread: nioEventLoopGroup-704-1
18:01:41.771 [nioEventLoopGroup-705-1] DEBUG io.netty.buffer.PoolThreadCache - Freed 11 thread-local buffer(s) from thread: nioEventLoopGroup-705-1
```

Most interesting is this:

```
javax.net.ssl.SSLException: java.lang.NullPointerException: bio == null
	at org.conscrypt.SSLUtils.toSSLException(SSLUtils.java:341)
	at org.conscrypt.ConscryptEngine.convertException(ConscryptEngine.java:1151)
	at org.conscrypt.ConscryptEngine.readPendingBytesFromBIO(ConscryptEngine.java:1267)
	at org.conscrypt.ConscryptEngine.wrap(ConscryptEngine.java:1411)
	at java.base/javax.net.ssl.SSLEngine.wrap(SSLEngine.java:511)
	at org.conscrypt.Java8EngineWrapper.wrap(Java8EngineWrapper.java:56)
	at io.netty.handler.ssl.SslHandler.wrap(SslHandler.java:997)
	at io.netty.handler.ssl.SslHandler.wrap(SslHandler.java:803)
	at io.netty.handler.ssl.SslHandler.wrapAndFlush(SslHandler.java:771)
	at io.netty.handler.ssl.SslHandler.flush(SslHandler.java:752)
	at io.netty.handler.ssl.SslHandler.flush(SslHandler.java:1625)
	at io.netty.handler.ssl.SslHandler.closeOutboundAndChannel(SslHandler.java:1593)
	at io.netty.handler.ssl.SslHandler.close(SslHandler.java:710)
	at 
```

I wonder if this is just a bug in conscrypt ?", "json":"{"url":"https://api.github.com/repos/netty/netty/issues/7988","repository_url":"https://api.github.com/repos/netty/netty","labels_url":"https://api.github.com/repos/netty/netty/issues/7988/labels{/name}","comments_url":"https://api.github.com/repos/netty/netty/issues/7988/comments","events_url":"https://api.github.com/repos/netty/netty/issues/7988/events","html_url":"https://github.com/netty/netty/issues/7988","id":327847014,"node_id":"MDU6SXNzdWUzMjc4NDcwMTQ=","number":7988,"title":"NPE in testsuite logged when using Conscrypt.","user":{"login":"normanmaurer","id":439362,"node_id":"MDQ6VXNlcjQzOTM2Mg==","avatar_url":"https://avatars3.githubusercontent.com/u/439362?v=4","gravatar_id":"","url":"https://api.github.com/users/normanmaurer","html_url":"https://github.com/normanmaurer","followers_url":"https://api.github.com/users/normanmaurer/followers","following_url":"https://api.github.com/users/normanmaurer/following{/other_user}","gists_url":"https://api.github.com/users/normanmaurer/gists{/gist_id}","starred_url":"https://api.github.com/users/normanmaurer/starred{/owner}{/repo}","subscriptions_url":"https://api.github.com/users/normanmaurer/subscriptions","organizations_url":"https://api.github.com/users/normanmaurer/orgs","repos_url":"https://api.github.com/users/normanmaurer/repos","events_url":"https://api.github.com/users/normanmaurer/events{/privacy}","received_events_url":"https://api.github.com/users/normanmaurer/received_events","type":"User","site_admin":false},"labels":[],"state":"closed","locked":false,"assignee":null,"assignees":[],"milestone":{"url":"https://api.github.com/repos/netty/netty/milestones/188","html_url":"https://github.com/netty/netty/milestone/188","labels_url":"https://api.github.com/repos/netty/netty/milestones/188/labels","id":3343291,"node_id":"MDk6TWlsZXN0b25lMzM0MzI5MQ==","number":188,"title":"4.1.26.Final","description":"","creator":{"login":"normanmaurer","id":439362,"node_id":"MDQ6VXNlcjQzOTM2Mg==","avatar_url":"https://avatars3.githubusercontent.com/u/439362?v=4","gravatar_id":"","url":"https://api.github.com/users/normanmaurer","html_url":"https://github.com/normanmaurer","followers_url":"https://api.github.com/users/normanmaurer/followers","following_url":"https://api.github.com/users/normanmaurer/following{/other_user}","gists_url":"https://api.github.com/users/normanmaurer/gists{/gist_id}","starred_url":"https://api.github.com/users/normanmaurer/starred{/owner}{/repo}","subscriptions_url":"https://api.github.com/users/normanmaurer/subscriptions","organizations_url":"https://api.github.com/users/normanmaurer/orgs","repos_url":"https://api.github.com/users/normanmaurer/repos","events_url":"https://api.github.com/users/normanmaurer/events{/privacy}","received_events_url":"https://api.github.com/users/normanmaurer/received_events","type":"User","site_admin":false},"open_issues":0,"closed_issues":101,"state":"closed","created_at":"2018-05-14T07:38:31Z","updated_at":"2018-07-10T10:23:05Z","due_on":null,"closed_at":"2018-07-10T10:23:05Z"},"comments":7,"created_at":"2018-05-30T18:25:54Z","updated_at":"2018-06-04T18:41:29Z","closed_at":"2018-06-04T18:40:09Z","author_association":"MEMBER","body":"Saw this during the build:\r\n\r\n```\r\nRunning io.netty.handler.ssl.ConscryptJdkSslEngineInteropTest\r\n18:01:39.304 [nioEventLoopGroup-676-3] DEBUG io.netty.buffer.PoolThreadCache - Freed 10 thread-local buffer(s) from thread: nioEventLoopGroup-676-3\r\n18:01:39.304 [nioEventLoopGroup-676-2] DEBUG io.netty.buffer.PoolThreadCache - Freed 8 thread-local buffer(s) from thread: nioEventLoopGroup-676-2\r\n[98.268s][info   ][gc,start      ] GC(54) Pause Young (G1 Evacuation Pause)\r\n[98.268s][info   ][gc,task       ] GC(54) Using 8 workers of 8 for evacuation\r\n[98.289s][info   ][gc,phases     ] GC(54)   Pre Evacuate Collection Set: 0.0ms\r\n[98.289s][info   ][gc,phases     ] GC(54)   Evacuate Collection Set: 19.5ms\r\n[98.289s][info   ][gc,phases     ] GC(54)   Post Evacuate Collection Set: 1.5ms\r\n[98.289s][info   ][gc,phases     ] GC(54)   Other: 0.4ms\r\n[98.289s][info   ][gc,heap       ] GC(54) Eden regions: 178->0(171)\r\n[98.289s][info   ][gc,heap       ] GC(54) Survivor regions: 3->10(23)\r\n[98.289s][info   ][gc,heap       ] GC(54) Old regions: 7->7\r\n[98.289s][info   ][gc,heap       ] GC(54) Humongous regions: 54->54\r\n[98.289s][info   ][gc,metaspace  ] GC(54) Metaspace: 33982K->33982K(1081344K)\r\n[98.289s][info   ][gc            ] GC(54) Pause Young (G1 Evacuation Pause) 482M->140M(604M) 21.501ms\r\n[98.290s][info   ][gc,cpu        ] GC(54) User=0.03s Sys=0.01s Real=0.02s\r\n18:01:39.566 [nioEventLoopGroup-689-1] DEBUG io.netty.handler.ssl.SslHandler - [id: 0x4b609c89, L:/127.0.0.1:37424 - R:/127.0.0.1:45348] HANDSHAKEN: TLS_ECDHE_RSA_WITH_AES_128_GCM_SHA256\r\n18:01:39.568 [nioEventLoopGroup-690-1] DEBUG io.netty.handler.ssl.SslHandler - [id: 0xc3c9581f, L:/127.0.0.1:45348 - R:/127.0.0.1:37424] HANDSHAKEN: TLS_ECDHE_RSA_WITH_AES_128_GCM_SHA256\r\n18:01:39.588 [nioEventLoopGroup-689-1] DEBUG io.netty.buffer.PoolThreadCache - Freed 14 thread-local buffer(s) from thread: nioEventLoopGroup-689-1\r\n18:01:39.601 [nioEventLoopGroup-690-1] DEBUG io.netty.buffer.PoolThreadCache - Freed 10 thread-local buffer(s) from thread: nioEventLoopGroup-690-1\r\n18:01:39.642 [nioEventLoopGroup-677-2] DEBUG io.netty.buffer.PoolThreadCache - Freed 7 thread-local buffer(s) from thread: nioEventLoopGroup-677-2\r\n18:01:39.643 [nioEventLoopGroup-677-3] DEBUG io.netty.buffer.PoolThreadCache - Freed 6 thread-local buffer(s) from thread: nioEventLoopGroup-677-3\r\n18:01:39.684 [nioEventLoopGroup-692-1] DEBUG io.netty.handler.ssl.SslHandler - [id: 0x34ae8109, L:/127.0.0.1:40594 - R:/127.0.0.1:43038] HANDSHAKEN: TLS_ECDHE_RSA_WITH_AES_128_GCM_SHA256\r\n18:01:39.685 [nioEventLoopGroup-693-1] DEBUG io.netty.handler.ssl.SslHandler - [id: 0x6cb9adc0, L:/127.0.0.1:43038 - R:/127.0.0.1:40594] HANDSHAKEN: TLS_ECDHE_RSA_WITH_AES_128_GCM_SHA256\r\n18:01:39.713 [nioEventLoopGroup-692-1] DEBUG io.netty.buffer.PoolThreadCache - Freed 8 thread-local buffer(s) from thread: nioEventLoopGroup-692-1\r\n18:01:39.730 [nioEventLoopGroup-693-1] DEBUG io.netty.buffer.PoolThreadCache - Freed 9 thread-local buffer(s) from thread: nioEventLoopGroup-693-1\r\n18:01:39.811 [nioEventLoopGroup-678-2] DEBUG io.netty.buffer.PoolThreadCache - Freed 9 thread-local buffer(s) from thread: nioEventLoopGroup-678-2\r\n18:01:39.813 [nioEventLoopGroup-678-3] DEBUG io.netty.buffer.PoolThreadCache - Freed 10 thread-local buffer(s) from thread: nioEventLoopGroup-678-3\r\n18:01:39.905 [nioEventLoopGroup-679-3] DEBUG io.netty.buffer.PoolThreadCache - Freed 10 thread-local buffer(s) from thread: nioEventLoopGroup-679-3\r\n18:01:39.999 [nioEventLoopGroup-679-2] DEBUG io.netty.buffer.PoolThreadCache - Freed 8 thread-local buffer(s) from thread: nioEventLoopGroup-679-2\r\n18:01:40.171 [nioEventLoopGroup-680-3] DEBUG io.netty.buffer.PoolThreadCache - Freed 160 thread-local buffer(s) from thread: nioEventLoopGroup-680-3\r\n18:01:40.171 [nioEventLoopGroup-680-2] DEBUG io.netty.buffer.PoolThreadCache - Freed 9 thread-local buffer(s) from thread: nioEventLoopGroup-680-2\r\n18:01:40.323 [nioEventLoopGroup-681-3] DEBUG io.netty.buffer.PoolThreadCache - Freed 160 thread-local buffer(s) from thread: nioEventLoopGroup-681-3\r\n18:01:40.325 [nioEventLoopGroup-681-2] DEBUG io.netty.buffer.PoolThreadCache - Freed 9 thread-local buffer(s) from thread: nioEventLoopGroup-681-2\r\n18:01:40.482 [nioEventLoopGroup-682-2] DEBUG io.netty.buffer.PoolThreadCache - Freed 9 thread-local buffer(s) from thread: nioEventLoopGroup-682-2\r\n18:01:40.482 [nioEventLoopGroup-682-3] DEBUG io.netty.buffer.PoolThreadCache - Freed 160 thread-local buffer(s) from thread: nioEventLoopGroup-682-3\r\n18:01:40.528 [nioEventLoopGroup-695-1] DEBUG io.netty.handler.ssl.SslHandler - [id: 0x4ca0a975, L:/172.19.0.2:37904 - R:/172.19.0.2:51436] HANDSHAKEN: TLS_ECDHE_RSA_WITH_AES_128_GCM_SHA256\r\n18:01:40.550 [nioEventLoopGroup-683-3] DEBUG io.netty.buffer.PoolThreadCache - Freed 160 thread-local buffer(s) from thread: nioEventLoopGroup-683-3\r\n18:01:40.553 [nioEventLoopGroup-695-1] DEBUG io.netty.buffer.PoolThreadCache - Freed 12 thread-local buffer(s) from thread: nioEventLoopGroup-695-1\r\n18:01:40.559 [nioEventLoopGroup-696-1] DEBUG io.netty.buffer.PoolThreadCache - Freed 5 thread-local buffer(s) from thread: nioEventLoopGroup-696-1\r\n18:01:40.643 [nioEventLoopGroup-683-2] DEBUG io.netty.buffer.PoolThreadCache - Freed 9 thread-local buffer(s) from thread: nioEventLoopGroup-683-2\r\n18:01:40.691 [nioEventLoopGroup-684-3] DEBUG io.netty.buffer.PoolThreadCache - Freed 161 thread-local buffer(s) from thread: nioEventLoopGroup-684-3\r\n18:01:40.706 [main] DEBUG i.n.h.s.u.InsecureTrustManagerFactory - Accepting a server certificate: CN=example.com\r\n18:01:40.796 [nioEventLoopGroup-684-2] DEBUG io.netty.buffer.PoolThreadCache - Freed 9 thread-local buffer(s) from thread: nioEventLoopGroup-684-2\r\n18:01:40.960 [nioEventLoopGroup-699-1] DEBUG io.netty.handler.ssl.SslHandler - SSLException during trying to call SSLEngine.wrap(...) because of an previous SSLException, ignoring...\r\njavax.net.ssl.SSLHandshakeException: SSL handshake aborted: ssl=0x7f12c41b3cf8: Failure in SSL library, usually a protocol error\r\nerror:1000007d:SSL routines:OPENSSL_internal:CERTIFICATE_VERIFY_FAILED (../ssl/handshake.cc:363 0x7f12bb959503:0x00000000)\r\n\tat org.conscrypt.SSLUtils.toSSLHandshakeException(SSLUtils.java:331)\r\n\tat org.conscrypt.ConscryptEngine.handshake(ConscryptEngine.java:1013)\r\n\tat org.conscrypt.ConscryptEngine.wrap(ConscryptEngine.java:1427)\r\n\tat java.base/javax.net.ssl.SSLEngine.wrap(SSLEngine.java:511)\r\n\tat org.conscrypt.Java8EngineWrapper.wrap(Java8EngineWrapper.java:56)\r\n\tat io.netty.handler.ssl.SslHandler.wrap(SslHandler.java:997)\r\n\tat io.netty.handler.ssl.SslHandler.wrap(SslHandler.java:803)\r\n\tat io.netty.handler.ssl.SslHandler.wrapAndFlush(SslHandler.java:771)\r\n\tat io.netty.handler.ssl.SslHandler.handleUnwrapThrowable(SslHandler.java:1207)\r\n\tat io.netty.handler.ssl.SslHandler.decodeJdkCompatible(SslHandler.java:1183)\r\n\tat io.netty.handler.ssl.SslHandler.decode(SslHandler.java:1221)\r\n\tat io.netty.handler.codec.ByteToMessageDecoder.decodeRemovalReentryProtection(ByteToMessageDecoder.java:489)\r\n\tat io.netty.handler.codec.ByteToMessageDecoder.callDecode(ByteToMessageDecoder.java:428)\r\n\tat io.netty.handler.codec.ByteToMessageDecoder.channelRead(ByteToMessageDecoder.java:265)\r\n\tat io.netty.channel.AbstractChannelHandlerContext.invokeChannelRead(AbstractChannelHandlerContext.java:362)\r\n\tat io.netty.channel.AbstractChannelHandlerContext.invokeChannelRead(AbstractChannelHandlerContext.java:348)\r\n\tat io.netty.channel.AbstractChannelHandlerContext.fireChannelRead(AbstractChannelHandlerContext.java:340)\r\n\tat io.netty.channel.DefaultChannelPipeline$HeadContext.channelRead(DefaultChannelPipeline.java:1434)\r\n\tat io.netty.channel.AbstractChannelHandlerContext.invokeChannelRead(AbstractChannelHandlerContext.java:362)\r\n\tat io.netty.channel.AbstractChannelHandlerContext.invokeChannelRead(AbstractChannelHandlerContext.java:348)\r\n\tat io.netty.channel.DefaultChannelPipeline.fireChannelRead(DefaultChannelPipeline.java:965)\r\n\tat io.netty.channel.nio.AbstractNioByteChannel$NioByteUnsafe.read(AbstractNioByteChannel.java:163)\r\n\tat io.netty.channel.nio.NioEventLoop.processSelectedKey(NioEventLoop.java:644)\r\n\tat io.netty.channel.nio.NioEventLoop.processSelectedKeysPlain(NioEventLoop.java:544)\r\n\tat io.netty.channel.nio.NioEventLoop.processSelectedKeys(NioEventLoop.java:498)\r\n\tat io.netty.channel.nio.NioEventLoop.run(NioEventLoop.java:458)\r\n\tat io.netty.util.concurrent.SingleThreadEventExecutor$5.run(SingleThreadEventExecutor.java:884)\r\n\tat io.netty.util.concurrent.FastThreadLocalRunnable.run(FastThreadLocalRunnable.java:30)\r\n\tat java.base/java.lang.Thread.run(Thread.java:844)\r\nCaused by: javax.net.ssl.SSLProtocolException: SSL handshake aborted: ssl=0x7f12c41b3cf8: Failure in SSL library, usually a protocol error\r\nerror:1000007d:SSL routines:OPENSSL_internal:CERTIFICATE_VERIFY_FAILED (../ssl/handshake.cc:363 0x7f12bb959503:0x00000000)\r\n\tat org.conscrypt.NativeCrypto.ENGINE_SSL_do_handshake(Native Method)\r\n\tat org.conscrypt.NativeSsl.doHandshake(NativeSsl.java:391)\r\n\tat org.conscrypt.ConscryptEngine.handshake(ConscryptEngine.java:978)\r\n\t... 27 common frames omitted\r\n18:01:40.971 [nioEventLoopGroup-685-2] DEBUG io.netty.buffer.PoolThreadCache - Freed 9 thread-local buffer(s) from thread: nioEventLoopGroup-685-2\r\n18:01:40.974 [nioEventLoopGroup-685-3] DEBUG io.netty.buffer.PoolThreadCache - Freed 161 thread-local buffer(s) from thread: nioEventLoopGroup-685-3\r\n18:01:41.018 [nioEventLoopGroup-698-1] DEBUG io.netty.buffer.PoolThreadCache - Freed 4 thread-local buffer(s) from thread: nioEventLoopGroup-698-1\r\n18:01:41.025 [nioEventLoopGroup-699-1] DEBUG io.netty.buffer.PoolThreadCache - Freed 7 thread-local buffer(s) from thread: nioEventLoopGroup-699-1\r\n18:01:41.026 [nioEventLoopGroup-686-3] DEBUG io.netty.buffer.PoolThreadCache - Freed 161 thread-local buffer(s) from thread: nioEventLoopGroup-686-3\r\n18:01:41.124 [nioEventLoopGroup-686-2] DEBUG io.netty.buffer.PoolThreadCache - Freed 9 thread-local buffer(s) from thread: nioEventLoopGroup-686-2\r\n18:01:41.329 [nioEventLoopGroup-687-2] DEBUG io.netty.buffer.PoolThreadCache - Freed 9 thread-local buffer(s) from thread: nioEventLoopGroup-687-2\r\n18:01:41.339 [nioEventLoopGroup-687-3] DEBUG io.netty.buffer.PoolThreadCache - Freed 161 thread-local buffer(s) from thread: nioEventLoopGroup-687-3\r\n18:01:41.399 [main] DEBUG i.n.h.s.u.InsecureTrustManagerFactory - Accepting a server certificate: CN=example.com\r\n18:01:41.426 [nioEventLoopGroup-702-1] DEBUG io.netty.handler.ssl.SslHandler - SSLException during trying to call SSLEngine.wrap(...) because of an previous SSLException, ignoring...\r\njavax.net.ssl.SSLHandshakeException: SSL handshake aborted: ssl=0x7f129800be38: Failure in SSL library, usually a protocol error\r\nerror:10000416:SSL routines:OPENSSL_internal:SSLV3_ALERT_CERTIFICATE_UNKNOWN (../ssl/tls_record.cc:586 0x7f1298870be8:0x00000001)\r\n\tat org.conscrypt.SSLUtils.toSSLHandshakeException(SSLUtils.java:331)\r\n\tat org.conscrypt.ConscryptEngine.handshake(ConscryptEngine.java:1013)\r\n\tat org.conscrypt.ConscryptEngine.wrap(ConscryptEngine.java:1427)\r\n\tat java.base/javax.net.ssl.SSLEngine.wrap(SSLEngine.java:511)\r\n\tat org.conscrypt.Java8EngineWrapper.wrap(Java8EngineWrapper.java:56)\r\n\tat io.netty.handler.ssl.SslHandler.wrap(SslHandler.java:997)\r\n\tat io.netty.handler.ssl.SslHandler.wrap(SslHandler.java:803)\r\n\tat io.netty.handler.ssl.SslHandler.wrapAndFlush(SslHandler.java:771)\r\n\tat io.netty.handler.ssl.SslHandler.handleUnwrapThrowable(SslHandler.java:1207)\r\n\tat io.netty.handler.ssl.SslHandler.decodeJdkCompatible(SslHandler.java:1183)\r\n\tat io.netty.handler.ssl.SslHandler.decode(SslHandler.java:1221)\r\n\tat io.netty.handler.codec.ByteToMessageDecoder.decodeRemovalReentryProtection(ByteToMessageDecoder.java:489)\r\n\tat io.netty.handler.codec.ByteToMessageDecoder.callDecode(ByteToMessageDecoder.java:428)\r\n\tat io.netty.handler.codec.ByteToMessageDecoder.channelRead(ByteToMessageDecoder.java:265)\r\n\tat io.netty.channel.AbstractChannelHandlerContext.invokeChannelRead(AbstractChannelHandlerContext.java:362)\r\n\tat io.netty.channel.AbstractChannelHandlerContext.invokeChannelRead(AbstractChannelHandlerContext.java:348)\r\n\tat io.netty.channel.AbstractChannelHandlerContext.fireChannelRead(AbstractChannelHandlerContext.java:340)\r\n\tat io.netty.channel.DefaultChannelPipeline$HeadContext.channelRead(DefaultChannelPipeline.java:1434)\r\n\tat io.netty.channel.AbstractChannelHandlerContext.invokeChannelRead(AbstractChannelHandlerContext.java:362)\r\n\tat io.netty.channel.AbstractChannelHandlerContext.invokeChannelRead(AbstractChannelHandlerContext.java:348)\r\n\tat io.netty.channel.DefaultChannelPipeline.fireChannelRead(DefaultChannelPipeline.java:965)\r\n\tat io.netty.channel.nio.AbstractNioByteChannel$NioByteUnsafe.read(AbstractNioByteChannel.java:163)\r\n\tat io.netty.channel.nio.NioEventLoop.processSelectedKey(NioEventLoop.java:644)\r\n\tat io.netty.channel.nio.NioEventLoop.processSelectedKeysPlain(NioEventLoop.java:544)\r\n\tat io.netty.channel.nio.NioEventLoop.processSelectedKeys(NioEventLoop.java:498)\r\n\tat io.netty.channel.nio.NioEventLoop.run(NioEventLoop.java:458)\r\n\tat io.netty.util.concurrent.SingleThreadEventExecutor$5.run(SingleThreadEventExecutor.java:884)\r\n\tat io.netty.util.concurrent.FastThreadLocalRunnable.run(FastThreadLocalRunnable.java:30)\r\n\tat java.base/java.lang.Thread.run(Thread.java:844)\r\nCaused by: javax.net.ssl.SSLProtocolException: SSL handshake aborted: ssl=0x7f129800be38: Failure in SSL library, usually a protocol error\r\nerror:10000416:SSL routines:OPENSSL_internal:SSLV3_ALERT_CERTIFICATE_UNKNOWN (../ssl/tls_record.cc:586 0x7f1298870be8:0x00000001)\r\n\tat org.conscrypt.NativeCrypto.ENGINE_SSL_do_handshake(Native Method)\r\n\tat org.conscrypt.NativeSsl.doHandshake(NativeSsl.java:391)\r\n\tat org.conscrypt.ConscryptEngine.handshake(ConscryptEngine.java:978)\r\n\t... 27 common frames omitted\r\n18:01:41.432 [nioEventLoopGroup-701-1] DEBUG io.netty.buffer.PoolThreadCache - Freed 6 thread-local buffer(s) from thread: nioEventLoopGroup-701-1\r\n18:01:41.439 [nioEventLoopGroup-702-1] DEBUG io.netty.buffer.PoolThreadCache - Freed 8 thread-local buffer(s) from thread: nioEventLoopGroup-702-1\r\n18:01:41.563 [main] DEBUG i.n.h.s.u.InsecureTrustManagerFactory - Accepting a server certificate: CN=example.com\r\n18:01:41.691 [nioEventLoopGroup-704-1] DEBUG io.netty.handler.ssl.SslHandler - [id: 0xaea8b212, L:/127.0.0.1:34256 - R:/127.0.0.1:60070] HANDSHAKEN: TLS_ECDHE_RSA_WITH_AES_128_GCM_SHA256\r\n18:01:41.692 [nioEventLoopGroup-705-1] DEBUG io.netty.handler.ssl.SslHandler - [id: 0x045d2f89, L:/127.0.0.1:60070 - R:localhost/127.0.0.1:34256] HANDSHAKEN: TLS_ECDHE_RSA_WITH_AES_128_GCM_SHA256\r\n18:01:41.697 [nioEventLoopGroup-705-1] WARN  i.n.c.AbstractChannelHandlerContext - Failed to mark a promise as failure because it has succeeded already: DefaultChannelPromise@80355a8(success)\r\njavax.net.ssl.SSLException: java.lang.NullPointerException: bio == null\r\n\tat org.conscrypt.SSLUtils.toSSLException(SSLUtils.java:341)\r\n\tat org.conscrypt.ConscryptEngine.convertException(ConscryptEngine.java:1151)\r\n\tat org.conscrypt.ConscryptEngine.readPendingBytesFromBIO(ConscryptEngine.java:1267)\r\n\tat org.conscrypt.ConscryptEngine.wrap(ConscryptEngine.java:1411)\r\n\tat java.base/javax.net.ssl.SSLEngine.wrap(SSLEngine.java:511)\r\n\tat org.conscrypt.Java8EngineWrapper.wrap(Java8EngineWrapper.java:56)\r\n\tat io.netty.handler.ssl.SslHandler.wrap(SslHandler.java:997)\r\n\tat io.netty.handler.ssl.SslHandler.wrap(SslHandler.java:803)\r\n\tat io.netty.handler.ssl.SslHandler.wrapAndFlush(SslHandler.java:771)\r\n\tat io.netty.handler.ssl.SslHandler.flush(SslHandler.java:752)\r\n\tat io.netty.handler.ssl.SslHandler.flush(SslHandler.java:1625)\r\n\tat io.netty.handler.ssl.SslHandler.closeOutboundAndChannel(SslHandler.java:1593)\r\n\tat io.netty.handler.ssl.SslHandler.close(SslHandler.java:710)\r\n\tat io.netty.channel.AbstractChannelHandlerContext.invokeClose(AbstractChannelHandlerContext.java:624)\r\n\tat io.netty.channel.AbstractChannelHandlerContext.access$1100(AbstractChannelHandlerContext.java:38)\r\n\tat io.netty.channel.AbstractChannelHandlerContext$13.run(AbstractChannelHandlerContext.java:613)\r\n\tat io.netty.util.concurrent.AbstractEventExecutor.safeExecute(AbstractEventExecutor.java:163)\r\n\tat io.netty.util.concurrent.SingleThreadEventExecutor.runAllTasks(SingleThreadEventExecutor.java:404)\r\n\tat io.netty.channel.nio.NioEventLoop.run(NioEventLoop.java:462)\r\n\tat io.netty.util.concurrent.SingleThreadEventExecutor$5.run(SingleThreadEventExecutor.java:884)\r\n\tat io.netty.util.concurrent.FastThreadLocalRunnable.run(FastThreadLocalRunnable.java:30)\r\n\tat java.base/java.lang.Thread.run(Thread.java:844)\r\nCaused by: java.lang.NullPointerException: bio == null\r\n\tat org.conscrypt.NativeCrypto.SSL_pending_written_bytes_in_BIO(Native Method)\r\n\tat org.conscrypt.NativeSsl$BioWrapper.getPendingWrittenBytes(NativeSsl.java:571)\r\n\tat org.conscrypt.ConscryptEngine.pendingOutboundEncryptedBytes(ConscryptEngine.java:553)\r\n\tat org.conscrypt.ConscryptEngine.readPendingBytesFromBIO(ConscryptEngine.java:1236)\r\n\t... 19 common frames omitted\r\n18:01:41.749 [nioEventLoopGroup-704-1] DEBUG io.netty.buffer.PoolThreadCache - Freed 8 thread-local buffer(s) from thread: nioEventLoopGroup-704-1\r\n18:01:41.771 [nioEventLoopGroup-705-1] DEBUG io.netty.buffer.PoolThreadCache - Freed 11 thread-local buffer(s) from thread: nioEventLoopGroup-705-1\r\n```\r\n\r\nMost interesting is this:\r\n\r\n```\r\njavax.net.ssl.SSLException: java.lang.NullPointerException: bio == null\r\n\tat org.conscrypt.SSLUtils.toSSLException(SSLUtils.java:341)\r\n\tat org.conscrypt.ConscryptEngine.convertException(ConscryptEngine.java:1151)\r\n\tat org.conscrypt.ConscryptEngine.readPendingBytesFromBIO(ConscryptEngine.java:1267)\r\n\tat org.conscrypt.ConscryptEngine.wrap(ConscryptEngine.java:1411)\r\n\tat java.base/javax.net.ssl.SSLEngine.wrap(SSLEngine.java:511)\r\n\tat org.conscrypt.Java8EngineWrapper.wrap(Java8EngineWrapper.java:56)\r\n\tat io.netty.handler.ssl.SslHandler.wrap(SslHandler.java:997)\r\n\tat io.netty.handler.ssl.SslHandler.wrap(SslHandler.java:803)\r\n\tat io.netty.handler.ssl.SslHandler.wrapAndFlush(SslHandler.java:771)\r\n\tat io.netty.handler.ssl.SslHandler.flush(SslHandler.java:752)\r\n\tat io.netty.handler.ssl.SslHandler.flush(SslHandler.java:1625)\r\n\tat io.netty.handler.ssl.SslHandler.closeOutboundAndChannel(SslHandler.java:1593)\r\n\tat io.netty.handler.ssl.SslHandler.close(SslHandler.java:710)\r\n\tat \r\n```\r\n\r\nI wonder if this is just a bug in conscrypt ?","closed_by":{"login":"normanmaurer","id":439362,"node_id":"MDQ6VXNlcjQzOTM2Mg==","avatar_url":"https://avatars3.githubusercontent.com/u/439362?v=4","gravatar_id":"","url":"https://api.github.com/users/normanmaurer","html_url":"https://github.com/normanmaurer","followers_url":"https://api.github.com/users/normanmaurer/followers","following_url":"https://api.github.com/users/normanmaurer/following{/other_user}","gists_url":"https://api.github.com/users/normanmaurer/gists{/gist_id}","starred_url":"https://api.github.com/users/normanmaurer/starred{/owner}{/repo}","subscriptions_url":"https://api.github.com/users/normanmaurer/subscriptions","organizations_url":"https://api.github.com/users/normanmaurer/orgs","repos_url":"https://api.github.com/users/normanmaurer/repos","events_url":"https://api.github.com/users/normanmaurer/events{/privacy}","received_events_url":"https://api.github.com/users/normanmaurer/received_events","type":"User","site_admin":false}}", "commentIds":["393267953","393298460","393480345","393488084","393490135","393643378","393645585"], "labels":[]}