{"id":"891", "title":"so many full gc ", "body":"gc log:

500517.135: [Full GC 9440000K->9440000K(9962880K), 52.6099540 secs]
500569.745: [Full GC 9440000K->9439978K(9962880K), 52.6480690 secs]
500622.394: [Full GC 9439999K->9439999K(9962880K), 52.6146350 secs]
500675.009: [Full GC 9439999K->9439980K(9962880K), 52.6609530 secs]
500727.671: [Full GC 9439999K->9439999K(9962880K), 52.6158550 secs]
500780.287: [Full GC 9439999K->9439999K(9962880K), 52.4661890 secs]

jvm param:
-Xmx10240m -Xms10240m -Xss128k -XX:MaxPermSize=128m -XX:-UseConcMarkSweepGC 
", "json":"{"url":"https://api.github.com/repos/netty/netty/issues/891","repository_url":"https://api.github.com/repos/netty/netty","labels_url":"https://api.github.com/repos/netty/netty/issues/891/labels{/name}","comments_url":"https://api.github.com/repos/netty/netty/issues/891/comments","events_url":"https://api.github.com/repos/netty/netty/issues/891/events","html_url":"https://github.com/netty/netty/issues/891","id":9663234,"node_id":"MDU6SXNzdWU5NjYzMjM0","number":891,"title":"so many full gc ","user":{"login":"shijinkui","id":648508,"node_id":"MDQ6VXNlcjY0ODUwOA==","avatar_url":"https://avatars3.githubusercontent.com/u/648508?v=4","gravatar_id":"","url":"https://api.github.com/users/shijinkui","html_url":"https://github.com/shijinkui","followers_url":"https://api.github.com/users/shijinkui/followers","following_url":"https://api.github.com/users/shijinkui/following{/other_user}","gists_url":"https://api.github.com/users/shijinkui/gists{/gist_id}","starred_url":"https://api.github.com/users/shijinkui/starred{/owner}{/repo}","subscriptions_url":"https://api.github.com/users/shijinkui/subscriptions","organizations_url":"https://api.github.com/users/shijinkui/orgs","repos_url":"https://api.github.com/users/shijinkui/repos","events_url":"https://api.github.com/users/shijinkui/events{/privacy}","received_events_url":"https://api.github.com/users/shijinkui/received_events","type":"User","site_admin":false},"labels":[],"state":"closed","locked":false,"assignee":null,"assignees":[],"milestone":null,"comments":3,"created_at":"2013-01-04T02:58:30Z","updated_at":"2013-01-11T03:11:18Z","closed_at":"2013-01-11T03:11:18Z","author_association":"NONE","body":"gc log:\n\n500517.135: [Full GC 9440000K->9440000K(9962880K), 52.6099540 secs]\n500569.745: [Full GC 9440000K->9439978K(9962880K), 52.6480690 secs]\n500622.394: [Full GC 9439999K->9439999K(9962880K), 52.6146350 secs]\n500675.009: [Full GC 9439999K->9439980K(9962880K), 52.6609530 secs]\n500727.671: [Full GC 9439999K->9439999K(9962880K), 52.6158550 secs]\n500780.287: [Full GC 9439999K->9439999K(9962880K), 52.4661890 secs]\n\njvm param:\n-Xmx10240m -Xms10240m -Xss128k -XX:MaxPermSize=128m -XX:-UseConcMarkSweepGC \n","closed_by":{"login":"shijinkui","id":648508,"node_id":"MDQ6VXNlcjY0ODUwOA==","avatar_url":"https://avatars3.githubusercontent.com/u/648508?v=4","gravatar_id":"","url":"https://api.github.com/users/shijinkui","html_url":"https://github.com/shijinkui","followers_url":"https://api.github.com/users/shijinkui/followers","following_url":"https://api.github.com/users/shijinkui/following{/other_user}","gists_url":"https://api.github.com/users/shijinkui/gists{/gist_id}","starred_url":"https://api.github.com/users/shijinkui/starred{/owner}{/repo}","subscriptions_url":"https://api.github.com/users/shijinkui/subscriptions","organizations_url":"https://api.github.com/users/shijinkui/orgs","repos_url":"https://api.github.com/users/shijinkui/repos","events_url":"https://api.github.com/users/shijinkui/events{/privacy}","received_events_url":"https://api.github.com/users/shijinkui/received_events","type":"User","site_admin":false}}", "commentIds":["11871369","11950941","12130265"], "labels":[]}