{"id":"8938", "title":"Investigating some local build failures", "body":"FYI, I came across these local build failures recently when building on Ubuntu and Win7. Stack traces below
Some of these were discussed in #6666 and #2889 previously. Will update here as I check further


target (mvn version) | Windows 7 | Ubuntu
------------ | ------------- | -------------
install (3.6) | DnsNameResolverTest | BUILD SUCCESS
package (3.6) | DnsNameResolverTest | OsgiBundleTest: testCanLoadPlatformDependent & testResolvedBundles
compile (3.6) | BUILD SUCCESS | netty-transport-native-epoll: Artifact has not been packaged yet
test (3.6) | DnsNameResolverTest | netty-transport-native-epoll: Artifact has not been packaged yet
install (3.5.2) | Crashed tests: OsgiBundleTest | BUILD SUCCESS
package (3.5.2) | DnsNameResolverTest | OsgiBundleTest: testCanLoadPlatformDependent & testResolvedBundles
compile (3.5.2) | BUILD SUCCESS | netty-transport-native-epoll: Artifact has not been packaged yet
test (3.5.2) | OsgiBundleTest: testCanLoadPlatformDependent & testResolvedBundles | netty-transport-native-epoll: Artifact has not been packaged yet

# Stack Traces

## DnsNameResolverTest
```
(deleted all content in local maven repo)

D:\\Workspace\\netty>git status
On branch 4.1
Your branch is up to date with 'origin/4.1'.

nothing to commit, working tree clean

D:\\Workspace\\netty>java -version
java version \"1.8.0_201\"
Java(TM) SE Runtime Environment (build 1.8.0_201-b09)
Java HotSpot(TM) 64-Bit Server VM (build 25.201-b09, mixed mode)

D:\\Workspace\\netty>mvn -version
Apache Maven 3.6.0 (97c98ec64a1fdfee7767ce5ffb20918da4f719f3; 2018-10-24T14:41:47-04:00)
Maven home: D:\\Dev\\maven\\apache-maven-3.6.0\\bin\\..
Java version: 1.8.0_201, vendor: Oracle Corporation, runtime: D:\\Dev\\Java\\jdk1.8.0_201\\jre
Default locale: en_US, platform encoding: Cp1252
OS name: \"windows 7\", version: \"6.1\", arch: \"amd64\", family: \"windows\"

D:\\Workspace\\netty>mvn clean install

...

[INFO] Results:
[INFO]
[INFO] Tests run: 0, Failures: 0, Errors: 0, Skipped: 0
[INFO]
[INFO] ------------------------------------------------------------------------
[INFO] Reactor Summary for Netty 4.1.35.Final-SNAPSHOT:
[INFO]
[INFO] Netty/Dev-Tools .................................... SUCCESS [01:02 min]
[INFO] Netty .............................................. SUCCESS [02:34 min]
[INFO] Netty/Common ....................................... SUCCESS [02:08 min]
[INFO] Netty/Buffer ....................................... SUCCESS [ 59.543 s]
[INFO] Netty/Resolver ..................................... SUCCESS [ 16.462 s]
[INFO] Netty/Transport .................................... SUCCESS [01:30 min]
[INFO] Netty/Codec ........................................ SUCCESS [ 44.831 s]
[INFO] Netty/Codec/DNS .................................... SUCCESS [ 35.330 s]
[INFO] Netty/Codec/HAProxy ................................ SUCCESS [ 16.119 s]
[INFO] Netty/Handler ...................................... SUCCESS [05:37 min]
[INFO] Netty/Codec/HTTP ................................... SUCCESS [ 57.116 s]
[INFO] Netty/Codec/HTTP2 .................................. SUCCESS [ 53.591 s]
[INFO] Netty/Codec/Memcache ............................... SUCCESS [ 17.004 s]
[INFO] Netty/Codec/MQTT ................................... SUCCESS [ 17.742 s]
[INFO] Netty/Codec/Redis .................................. SUCCESS [ 16.426 s]
[INFO] Netty/Codec/SMTP ................................... SUCCESS [ 15.808 s]
[INFO] Netty/Codec/Socks .................................. SUCCESS [ 25.776 s]
[INFO] Netty/Codec/Stomp .................................. SUCCESS [ 16.044 s]
[INFO] Netty/Codec/XML .................................... SUCCESS [ 17.289 s]
[INFO] Netty/Handler/Proxy ................................ SUCCESS [ 29.383 s]
[INFO] Netty/Resolver/DNS ................................. FAILURE [01:39 min]
[INFO] Netty/Transport/RXTX ............................... SKIPPED
[INFO] Netty/Transport/SCTP ............................... SKIPPED
[INFO] Netty/Transport/UDT ................................ SKIPPED
[INFO] Netty/Example ...................................... SKIPPED
[INFO] Netty/All-in-One ................................... SKIPPED
[INFO] Netty/Tarball ...................................... SKIPPED
[INFO] Netty/Transport/Native/Unix/Common ................. SKIPPED
[INFO] Netty/Transport/Native/Unix/Common/Tests ........... SKIPPED
[INFO] Netty/Testsuite .................................... SKIPPED
[INFO] Netty/Transport/Native/Epoll ....................... SKIPPED
[INFO] Netty/Transport/Native/KQueue ...................... SKIPPED
[INFO] Netty/Testsuite/Autobahn ........................... SKIPPED
[INFO] Netty/Testsuite/Http2 .............................. SKIPPED
[INFO] Netty/Testsuite/OSGI ............................... SKIPPED
[INFO] Netty/Testsuite/Shading ............................ SKIPPED
[INFO] Netty/Microbench ................................... SKIPPED
[INFO] Netty/BOM .......................................... SKIPPED
[INFO] ------------------------------------------------------------------------
[INFO] BUILD FAILURE
[INFO] ------------------------------------------------------------------------
[INFO] Total time:  22:01 min
[INFO] Finished at: 2019-03-08T16:18:21-05:00
[INFO] ------------------------------------------------------------------------
[ERROR] Failed to execute goal org.apache.maven.plugins:maven-surefire-plugin:2.22.1:test (default-test) on project netty-resolver-dns: Ther
e are test failures.
[ERROR]
[ERROR] Please refer to D:\\Workspace\\netty\\resolver-dns\\target\\surefire-reports for the individual test results.
[ERROR] Please refer to dump files (if any exist) [date].dump, [date]-jvmRun[N].dump and [date].dumpstream.
[ERROR] The forked VM terminated without properly saying goodbye. VM crash or System.exit called?
[ERROR] Command was cmd.exe /X /C \"D:\\Dev\\Java\\jdk1.8.0_201\\bin\\java -server -dsa -da -ea:io.netty... -XX:+HeapDumpOnOutOfMemoryError -XX:+P
rintGCDetails -javaagent:D:\\Workspace\\maven-repo/org/mortbay/jetty/alpn/jetty-alpn-agent/2.0.8/jetty-alpn-agent-2.0.8.jar=${jetty.alpnAgent.
option} -D_ -D_ -D_ -D_ -jar C:\\Users\\me\\AppData\\Local\\Temp\\surefire2981375370496165066\\surefirebooter2259591755124786764.jar C:\\Users\\
me\\AppData\\Local\\Temp\\surefire2981375370496165066 2019-03-08T16-01-16_683-jvmRun1 surefire8572862168761554587tmp surefire_1872323104475
55049720tmp\"
[ERROR] Process Exit Code: 0
[ERROR] Crashed tests:
[ERROR] io.netty.resolver.dns.DnsNameResolverTest
[ERROR] org.apache.maven.surefire.booter.SurefireBooterForkException: The forked VM terminated without properly saying goodbye. VM crash or
System.exit called?
[ERROR] Command was cmd.exe /X /C \"D:\\Dev\\Java\\jdk1.8.0_201\\bin\\java -server -dsa -da -ea:io.netty... -XX:+HeapDumpOnOutOfMemoryError -XX:+P
rintGCDetails -javaagent:D:\\Workspace\\maven-repo/org/mortbay/jetty/alpn/jetty-alpn-agent/2.0.8/jetty-alpn-agent-2.0.8.jar=${jetty.alpnAgent.
option} -D_ -D_ -D_ -D_ -jar C:\\Users\\me\\AppData\\Local\\Temp\\surefire2981375370496165066\\surefirebooter2259591755124786764.jar C:\\Users\\
me\\AppData\\Local\\Temp\\surefire2981375370496165066 2019-03-08T16-01-16_683-jvmRun1 surefire8572862168761554587tmp surefire_1872323104475
55049720tmp\"
[ERROR] Process Exit Code: 0
[ERROR] Crashed tests:
[ERROR] io.netty.resolver.dns.DnsNameResolverTest
[ERROR]         at org.apache.maven.plugin.surefire.booterclient.ForkStarter.fork(ForkStarter.java:669)
[ERROR]         at org.apache.maven.plugin.surefire.booterclient.ForkStarter.run(ForkStarter.java:282)
[ERROR]         at org.apache.maven.plugin.surefire.booterclient.ForkStarter.run(ForkStarter.java:245)
[ERROR]         at org.apache.maven.plugin.surefire.AbstractSurefireMojo.executeProvider(AbstractSurefireMojo.java:1183)
[ERROR]         at org.apache.maven.plugin.surefire.AbstractSurefireMojo.executeAfterPreconditionsChecked(AbstractSurefireMojo.java:1011)
[ERROR]         at org.apache.maven.plugin.surefire.AbstractSurefireMojo.execute(AbstractSurefireMojo.java:857)
[ERROR]         at org.apache.maven.plugin.DefaultBuildPluginManager.executeMojo(DefaultBuildPluginManager.java:137)
[ERROR]         at org.apache.maven.lifecycle.internal.MojoExecutor.execute(MojoExecutor.java:210)
[ERROR]         at org.apache.maven.lifecycle.internal.MojoExecutor.execute(MojoExecutor.java:156)
[ERROR]         at org.apache.maven.lifecycle.internal.MojoExecutor.execute(MojoExecutor.java:148)
[ERROR]         at org.apache.maven.lifecycle.internal.LifecycleModuleBuilder.buildProject(LifecycleModuleBuilder.java:117)
[ERROR]         at org.apache.maven.lifecycle.internal.LifecycleModuleBuilder.buildProject(LifecycleModuleBuilder.java:81)
[ERROR]         at org.apache.maven.lifecycle.internal.builder.singlethreaded.SingleThreadedBuilder.build(SingleThreadedBuilder.java:56)
[ERROR]         at org.apache.maven.lifecycle.internal.LifecycleStarter.execute(LifecycleStarter.java:128)
[ERROR]         at org.apache.maven.DefaultMaven.doExecute(DefaultMaven.java:305)
[ERROR]         at org.apache.maven.DefaultMaven.doExecute(DefaultMaven.java:192)
[ERROR]         at org.apache.maven.DefaultMaven.execute(DefaultMaven.java:105)
[ERROR]         at org.apache.maven.cli.MavenCli.execute(MavenCli.java:956)
[ERROR]         at org.apache.maven.cli.MavenCli.doMain(MavenCli.java:288)
[ERROR]         at org.apache.maven.cli.MavenCli.main(MavenCli.java:192)
[ERROR]         at sun.reflect.NativeMethodAccessorImpl.invoke0(Native Method)
[ERROR]         at sun.reflect.NativeMethodAccessorImpl.invoke(NativeMethodAccessorImpl.java:62)
[ERROR]         at sun.reflect.DelegatingMethodAccessorImpl.invoke(DelegatingMethodAccessorImpl.java:43)
[ERROR]         at java.lang.reflect.Method.invoke(Method.java:498)
[ERROR]         at org.codehaus.plexus.classworlds.launcher.Launcher.launchEnhanced(Launcher.java:289)
[ERROR]         at org.codehaus.plexus.classworlds.launcher.Launcher.launch(Launcher.java:229)
[ERROR]         at org.codehaus.plexus.classworlds.launcher.Launcher.mainWithExitCode(Launcher.java:415)
[ERROR]         at org.codehaus.plexus.classworlds.launcher.Launcher.main(Launcher.java:356)
[ERROR]
[ERROR] -> [Help 1]
[ERROR]
[ERROR] To see the full stack trace of the errors, re-run Maven with the -e switch.
[ERROR] Re-run Maven using the -X switch to enable full debug logging.
[ERROR]
[ERROR] For more information about the errors and possible solutions, please read the following articles:
[ERROR] [Help 1] http://cwiki.apache.org/confluence/display/MAVEN/MojoExecutionException
[ERROR]
[ERROR] After correcting the problems, you can resume the build with the command
[ERROR]   mvn <goals> -rf :netty-resolver-dns
```

## OsgiBundleTest

```
kaveh@ubuntu:~/Workspace/netty$ uname -a
Linux ubuntu 4.18.0-16-generic #17-Ubuntu SMP Fri Feb 8 00:06:57 UTC 2019 x86_64 x86_64 x86_64 GNU/Linux

kaveh@ubuntu:~/Workspace/netty$ java -version
java version \"1.8.0_191\"
Java(TM) SE Runtime Environment (build 1.8.0_191-b12)
Java HotSpot(TM) 64-Bit Server VM (build 25.191-b12, mixed mode)

kaveh@ubuntu:~/Workspace/netty$ mvn -version
Apache Maven 3.6.0 (97c98ec64a1fdfee7767ce5ffb20918da4f719f3; 2018-10-24T14:41:47-04:00)
Maven home: /home/kaveh/.sdkman/candidates/maven/current
Java version: 1.8.0_191, vendor: Oracle Corporation, runtime: /home/kaveh/.sdkman/candidates/java/8.0.191-oracle/jre
Default locale: en_US, platform encoding: UTF-8
OS name: \"linux\", version: \"4.18.0-16-generic\", arch: \"amd64\", family: \"unix\"


kaveh@ubuntu:~/Workspace/netty$ mvn clean package

...


11:14:08.758 [main] DEBUG o.o.p.e.n.i.NativeTestContainer - user.language = en
11:14:08.758 [main] DEBUG o.o.p.e.n.i.NativeTestContainer - user.name = kaveh
11:14:08.758 [main] DEBUG o.o.p.e.n.i.NativeTestContainer - user.timezone = America/New_York
ERROR: Error creating bundle cache.
java.lang.Exception: Unable to lock bundle cache: java.nio.channels.OverlappingFileLockException
	at org.apache.felix.framework.cache.BundleCache.<init>(BundleCache.java:176)
	at org.apache.felix.framework.Felix.init(Felix.java:692)
	at org.apache.felix.framework.Felix.init(Felix.java:626)
	at org.ops4j.pax.exam.nat.internal.NativeTestContainer.start(NativeTestContainer.java:192)
	at org.ops4j.pax.exam.spi.reactors.AllConfinedStagedReactor.invoke(AllConfinedStagedReactor.java:79)
	at org.ops4j.pax.exam.junit.impl.ProbeRunner$2.evaluate(ProbeRunner.java:267)
	at org.junit.runners.ParentRunner.runLeaf(ParentRunner.java:325)
	at org.junit.runners.BlockJUnit4ClassRunner.runChild(BlockJUnit4ClassRunner.java:78)
	at org.junit.runners.BlockJUnit4ClassRunner.runChild(BlockJUnit4ClassRunner.java:57)
	at org.junit.runners.ParentRunner$3.run(ParentRunner.java:290)
	at org.junit.runners.ParentRunner$1.schedule(ParentRunner.java:71)
	at org.junit.runners.ParentRunner.runChildren(ParentRunner.java:288)
	at org.junit.runners.ParentRunner.access$000(ParentRunner.java:58)
	at org.junit.runners.ParentRunner$2.evaluate(ParentRunner.java:268)
	at org.junit.runners.ParentRunner.run(ParentRunner.java:363)
	at org.ops4j.pax.exam.junit.impl.ProbeRunner.run(ProbeRunner.java:98)
	at org.ops4j.pax.exam.junit.PaxExam.run(PaxExam.java:93)
	at org.apache.maven.surefire.junit4.JUnit4Provider.execute(JUnit4Provider.java:365)
	at org.apache.maven.surefire.junit4.JUnit4Provider.executeWithRerun(JUnit4Provider.java:273)
	at org.apache.maven.surefire.junit4.JUnit4Provider.executeTestSet(JUnit4Provider.java:238)
	at org.apache.maven.surefire.junit4.JUnit4Provider.invoke(JUnit4Provider.java:159)
	at org.apache.maven.surefire.booter.ForkedBooter.invokeProviderInSameClassLoader(ForkedBooter.java:384)
	at org.apache.maven.surefire.booter.ForkedBooter.runSuitesInProcess(ForkedBooter.java:345)
	at org.apache.maven.surefire.booter.ForkedBooter.execute(ForkedBooter.java:126)
	at org.apache.maven.surefire.booter.ForkedBooter.main(ForkedBooter.java:418)
11:14:08.787 [main] INFO  o.o.p.e.spi.reactors.ReactorManager - suite finished
[ERROR] Tests run: 2, Failures: 0, Errors: 2, Skipped: 0, Time elapsed: 2.268 s <<< FAILURE! - in io.netty.osgitests.OsgiBundleTest
[ERROR] testCanLoadPlatformDependent(io.netty.osgitests.OsgiBundleTest)  Time elapsed: 1.731 s  <<< ERROR!
java.io.IOException: Error resolving artifact io.netty:netty-codec-mqtt:jar:4.1.35.Final-SNAPSHOT: Could not find artifact io.netty:netty-codec-mqtt:jar:4.1.35.Final-SNAPSHOT
	at org.ops4j.pax.url.mvn.internal.AetherBasedResolver.resolve(AetherBasedResolver.java:626)
	at org.ops4j.pax.url.mvn.internal.AetherBasedResolver.resolve(AetherBasedResolver.java:570)
	at org.ops4j.pax.url.mvn.internal.AetherBasedResolver.resolve(AetherBasedResolver.java:548)
	at org.ops4j.pax.url.mvn.internal.AetherBasedResolver.resolve(AetherBasedResolver.java:523)
	at org.ops4j.pax.url.mvn.internal.Connection.getInputStream(Connection.java:123)
	at org.apache.felix.framework.util.SecureAction.getURLConnectionInputStream(SecureAction.java:525)
	at org.apache.felix.framework.cache.JarRevision.initialize(JarRevision.java:166)
	at org.apache.felix.framework.cache.JarRevision.<init>(JarRevision.java:77)
	at org.apache.felix.framework.cache.BundleArchive.createRevisionFromLocation(BundleArchive.java:878)
	at org.apache.felix.framework.cache.BundleArchive.reviseInternal(BundleArchive.java:550)
	at org.apache.felix.framework.cache.BundleArchive.<init>(BundleArchive.java:153)
	at org.apache.felix.framework.cache.BundleCache.create(BundleCache.java:277)
	at org.apache.felix.framework.Felix.installBundle(Felix.java:3009)
	at org.apache.felix.framework.BundleContextImpl.installBundle(BundleContextImpl.java:167)
	at org.apache.felix.framework.BundleContextImpl.installBundle(BundleContextImpl.java:140)
	at org.ops4j.pax.exam.nat.internal.NativeTestContainer.installAndStartBundles(NativeTestContainer.java:340)
	at org.ops4j.pax.exam.nat.internal.NativeTestContainer.start(NativeTestContainer.java:209)
	at org.ops4j.pax.exam.spi.reactors.AllConfinedStagedReactor.invoke(AllConfinedStagedReactor.java:79)
	at org.ops4j.pax.exam.junit.impl.ProbeRunner$2.evaluate(ProbeRunner.java:267)
	at org.junit.runners.ParentRunner.runLeaf(ParentRunner.java:325)
	at org.junit.runners.BlockJUnit4ClassRunner.runChild(BlockJUnit4ClassRunner.java:78)
	at org.junit.runners.BlockJUnit4ClassRunner.runChild(BlockJUnit4ClassRunner.java:57)
	at org.junit.runners.ParentRunner$3.run(ParentRunner.java:290)
	at org.junit.runners.ParentRunner$1.schedule(ParentRunner.java:71)
	at org.junit.runners.ParentRunner.runChildren(ParentRunner.java:288)
	at org.junit.runners.ParentRunner.access$000(ParentRunner.java:58)
	at org.junit.runners.ParentRunner$2.evaluate(ParentRunner.java:268)
	at org.junit.runners.ParentRunner.run(ParentRunner.java:363)
	at org.ops4j.pax.exam.junit.impl.ProbeRunner.run(ProbeRunner.java:98)
	at org.ops4j.pax.exam.junit.PaxExam.run(PaxExam.java:93)
	at org.apache.maven.surefire.junit4.JUnit4Provider.execute(JUnit4Provider.java:365)
	at org.apache.maven.surefire.junit4.JUnit4Provider.executeWithRerun(JUnit4Provider.java:273)
	at org.apache.maven.surefire.junit4.JUnit4Provider.executeTestSet(JUnit4Provider.java:238)
	at org.apache.maven.surefire.junit4.JUnit4Provider.invoke(JUnit4Provider.java:159)
	at org.apache.maven.surefire.booter.ForkedBooter.invokeProviderInSameClassLoader(ForkedBooter.java:384)
	at org.apache.maven.surefire.booter.ForkedBooter.runSuitesInProcess(ForkedBooter.java:345)
	at org.apache.maven.surefire.booter.ForkedBooter.execute(ForkedBooter.java:126)
	at org.apache.maven.surefire.booter.ForkedBooter.main(ForkedBooter.java:418)

[ERROR] testResolvedBundles(io.netty.osgitests.OsgiBundleTest)  Time elapsed: 0.081 s  <<< ERROR!
java.lang.Exception: Unable to lock bundle cache: java.nio.channels.OverlappingFileLockException
	at org.apache.felix.framework.cache.BundleCache.<init>(BundleCache.java:176)
	at org.apache.felix.framework.Felix.init(Felix.java:692)
	at org.apache.felix.framework.Felix.init(Felix.java:626)
	at org.ops4j.pax.exam.nat.internal.NativeTestContainer.start(NativeTestContainer.java:192)
	at org.ops4j.pax.exam.spi.reactors.AllConfinedStagedReactor.invoke(AllConfinedStagedReactor.java:79)
	at org.ops4j.pax.exam.junit.impl.ProbeRunner$2.evaluate(ProbeRunner.java:267)
	at org.junit.runners.ParentRunner.runLeaf(ParentRunner.java:325)
	at org.junit.runners.BlockJUnit4ClassRunner.runChild(BlockJUnit4ClassRunner.java:78)
	at org.junit.runners.BlockJUnit4ClassRunner.runChild(BlockJUnit4ClassRunner.java:57)
	at org.junit.runners.ParentRunner$3.run(ParentRunner.java:290)
	at org.junit.runners.ParentRunner$1.schedule(ParentRunner.java:71)
	at org.junit.runners.ParentRunner.runChildren(ParentRunner.java:288)
	at org.junit.runners.ParentRunner.access$000(ParentRunner.java:58)
	at org.junit.runners.ParentRunner$2.evaluate(ParentRunner.java:268)
	at org.junit.runners.ParentRunner.run(ParentRunner.java:363)
	at org.ops4j.pax.exam.junit.impl.ProbeRunner.run(ProbeRunner.java:98)
	at org.ops4j.pax.exam.junit.PaxExam.run(PaxExam.java:93)
	at org.apache.maven.surefire.junit4.JUnit4Provider.execute(JUnit4Provider.java:365)
	at org.apache.maven.surefire.junit4.JUnit4Provider.executeWithRerun(JUnit4Provider.java:273)
	at org.apache.maven.surefire.junit4.JUnit4Provider.executeTestSet(JUnit4Provider.java:238)
	at org.apache.maven.surefire.junit4.JUnit4Provider.invoke(JUnit4Provider.java:159)
	at org.apache.maven.surefire.booter.ForkedBooter.invokeProviderInSameClassLoader(ForkedBooter.java:384)
	at org.apache.maven.surefire.booter.ForkedBooter.runSuitesInProcess(ForkedBooter.java:345)
	at org.apache.maven.surefire.booter.ForkedBooter.execute(ForkedBooter.java:126)
	at org.apache.maven.surefire.booter.ForkedBooter.main(ForkedBooter.java:418)

[INFO] 
[INFO] Results:
[INFO] 
[ERROR] Errors: 
[ERROR]   OsgiBundleTest.testCanLoadPlatformDependent » IO Error resolving artifact io.n...
[ERROR]   OsgiBundleTest.testResolvedBundles »  Unable to lock bundle cache: java.nio.ch...
[INFO] 
[ERROR] Tests run: 2, Failures: 0, Errors: 2, Skipped: 0
[INFO] 
[INFO] ------------------------------------------------------------------------
[INFO] Reactor Summary for Netty 4.1.35.Final-SNAPSHOT:
[INFO] 
[INFO] Netty/Dev-Tools .................................... SUCCESS [  1.847 s]
[INFO] Netty .............................................. SUCCESS [ 10.528 s]
[INFO] Netty/Common ....................................... SUCCESS [01:17 min]
[INFO] Netty/Buffer ....................................... SUCCESS [ 56.859 s]
[INFO] Netty/Resolver ..................................... SUCCESS [  6.250 s]
[INFO] Netty/Transport .................................... SUCCESS [01:08 min]
[INFO] Netty/Codec ........................................ SUCCESS [ 28.005 s]
[INFO] Netty/Codec/DNS .................................... SUCCESS [  7.007 s]
[INFO] Netty/Codec/HAProxy ................................ SUCCESS [  6.693 s]
[INFO] Netty/Handler ...................................... SUCCESS [04:30 min]
[INFO] Netty/Codec/HTTP ................................... SUCCESS [ 19.982 s]
[INFO] Netty/Codec/HTTP2 .................................. SUCCESS [ 38.388 s]
[INFO] Netty/Codec/Memcache ............................... SUCCESS [  7.054 s]
[INFO] Netty/Codec/MQTT ................................... SUCCESS [  7.849 s]
[INFO] Netty/Codec/Redis .................................. SUCCESS [  6.621 s]
[INFO] Netty/Codec/SMTP ................................... SUCCESS [  6.101 s]
[INFO] Netty/Codec/Socks .................................. SUCCESS [  7.935 s]
[INFO] Netty/Codec/Stomp .................................. SUCCESS [  5.794 s]
[INFO] Netty/Codec/XML .................................... SUCCESS [  5.878 s]
[INFO] Netty/Handler/Proxy ................................ SUCCESS [ 17.252 s]
[INFO] Netty/Resolver/DNS ................................. SUCCESS [ 50.226 s]
[INFO] Netty/Transport/RXTX ............................... SUCCESS [  3.073 s]
[INFO] Netty/Transport/SCTP ............................... SUCCESS [  3.790 s]
[INFO] Netty/Transport/UDT ................................ SUCCESS [ 22.633 s]
[INFO] Netty/Example ...................................... SUCCESS [  9.296 s]
[INFO] Netty/Transport/Native/Unix/Common ................. SUCCESS [  7.622 s]
[INFO] Netty/Testsuite .................................... SUCCESS [18:12 min]
[INFO] Netty/Transport/Native/Unix/Common/Tests ........... SUCCESS [  3.209 s]
[INFO] Netty/Transport/Native/Epoll ....................... SUCCESS [06:34 min]
[INFO] Netty/All-in-One ................................... SUCCESS [  3.106 s]
[INFO] Netty/Tarball ...................................... SUCCESS [  0.727 s]
[INFO] Netty/Transport/Native/KQueue ...................... SUCCESS [  6.104 s]
[INFO] Netty/Testsuite/Autobahn ........................... SUCCESS [05:13 min]
[INFO] Netty/Testsuite/Http2 .............................. SUCCESS [ 39.017 s]
[INFO] Netty/Testsuite/OSGI ............................... FAILURE [  7.028 s]
[INFO] Netty/Testsuite/Shading ............................ SKIPPED
[INFO] Netty/Microbench ................................... SKIPPED
[INFO] Netty/BOM .......................................... SKIPPED
[INFO] ------------------------------------------------------------------------
[INFO] BUILD FAILURE
[INFO] ------------------------------------------------------------------------
[INFO] Total time:  43:34 min
[INFO] Finished at: 2019-03-11T11:14:09-04:00
[INFO] ------------------------------------------------------------------------
[ERROR] Failed to execute goal org.apache.maven.plugins:maven-surefire-plugin:2.22.1:test (default-test) on project netty-testsuite-osgi: There are test failures.
[ERROR] 
[ERROR] Please refer to /home/kaveh/Workspace/netty/testsuite-osgi/target/surefire-reports for the individual test results.
[ERROR] Please refer to dump files (if any exist) [date].dump, [date]-jvmRun[N].dump and [date].dumpstream.
[ERROR] -> [Help 1]
[ERROR] 
[ERROR] To see the full stack trace of the errors, re-run Maven with the -e switch.
[ERROR] Re-run Maven using the -X switch to enable full debug logging.
[ERROR] 
[ERROR] For more information about the errors and possible solutions, please read the following articles:
[ERROR] [Help 1] http://cwiki.apache.org/confluence/display/MAVEN/MojoFailureException
[ERROR] 
[ERROR] After correcting the problems, you can resume the build with the command
[ERROR]   mvn <goals> -rf :netty-testsuite-osgi
```

## Another OsgiBundleTest

```
D:\\Workspace\\netty>mvn -version
Apache Maven 3.5.2 (138edd61fd100ec658bfa2d307c43b76940a5d7d; 2017-10-18T03:58:13-04:00)
Maven home: D:\\Dev\\maven\\apache-maven-3.5.2\\bin\\..
Java version: 1.8.0_201, vendor: Oracle Corporation
Java home: D:\\Dev\\Java\\jdk1.8.0_201\\jre
Default locale: en_US, platform encoding: Cp1252
OS name: \"windows 7\", version: \"6.1\", arch: \"amd64\", family: \"windows\"

D:\\Workspace\\netty>java -version
java version \"1.8.0_201\"
Java(TM) SE Runtime Environment (build 1.8.0_201-b09)
Java HotSpot(TM) 64-Bit Server VM (build 25.201-b09, mixed mode)

D:\\Workspace\\netty>mvn clean install

...

[INFO]
[INFO] Results:
[INFO]
[INFO] Tests run: 0, Failures: 0, Errors: 0, Skipped: 0
[INFO]
[INFO] ------------------------------------------------------------------------
[INFO] Reactor Summary:
[INFO]
[INFO] Netty/Dev-Tools .................................... SUCCESS [  3.995 s]
[INFO] Netty .............................................. SUCCESS [ 33.166 s]
[INFO] Netty/Common ....................................... SUCCESS [01:27 min]
[INFO] Netty/Buffer ....................................... SUCCESS [01:07 min]
[INFO] Netty/Resolver ..................................... SUCCESS [ 18.074 s]
[INFO] Netty/Transport .................................... SUCCESS [01:30 min]
[INFO] Netty/Codec ........................................ SUCCESS [ 45.497 s]
[INFO] Netty/Codec/DNS .................................... SUCCESS [ 20.330 s]
[INFO] Netty/Codec/HAProxy ................................ SUCCESS [ 16.666 s]
[INFO] Netty/Handler ...................................... SUCCESS [05:37 min]
[INFO] Netty/Codec/HTTP ................................... SUCCESS [ 35.190 s]
[INFO] Netty/Codec/HTTP2 .................................. SUCCESS [ 48.896 s]
[INFO] Netty/Codec/Memcache ............................... SUCCESS [ 15.582 s]
[INFO] Netty/Codec/MQTT ................................... SUCCESS [ 16.239 s]
[INFO] Netty/Codec/Redis .................................. SUCCESS [ 14.575 s]
[INFO] Netty/Codec/SMTP ................................... SUCCESS [ 14.294 s]
[INFO] Netty/Codec/Socks .................................. SUCCESS [ 17.929 s]
[INFO] Netty/Codec/Stomp .................................. SUCCESS [ 14.702 s]
[INFO] Netty/Codec/XML .................................... SUCCESS [ 14.539 s]
[INFO] Netty/Handler/Proxy ................................ SUCCESS [ 27.006 s]
[INFO] Netty/Resolver/DNS ................................. SUCCESS [01:25 min]
[INFO] Netty/Transport/RXTX ............................... SUCCESS [ 10.928 s]
[INFO] Netty/Transport/SCTP ............................... SUCCESS [ 12.900 s]
[INFO] Netty/Transport/UDT ................................ SUCCESS [ 45.572 s]
[INFO] Netty/Example ...................................... SUCCESS [ 35.135 s]
[INFO] Netty/All-in-One ................................... SUCCESS [01:15 min]
[INFO] Netty/Tarball ...................................... SUCCESS [  7.015 s]
[INFO] Netty/Transport/Native/Unix/Common ................. SUCCESS [ 15.197 s]
[INFO] Netty/Transport/Native/Unix/Common/Tests ........... SUCCESS [ 10.986 s]
[INFO] Netty/Testsuite .................................... SUCCESS [14:02 min]
[INFO] Netty/Transport/Native/Epoll ....................... SUCCESS [ 21.014 s]
[INFO] Netty/Transport/Native/KQueue ...................... SUCCESS [ 18.422 s]
[INFO] Netty/Testsuite/Autobahn ........................... SUCCESS [07:37 min]
[INFO] Netty/Testsuite/Http2 .............................. SUCCESS [01:03 min]
[INFO] Netty/Testsuite/OSGI ............................... FAILURE [02:11 min]
[INFO] Netty/Testsuite/Shading ............................ SKIPPED
[INFO] Netty/Microbench ................................... SKIPPED
[INFO] Netty/BOM .......................................... SKIPPED
[INFO] ------------------------------------------------------------------------
[INFO] BUILD FAILURE
[INFO] ------------------------------------------------------------------------
[INFO] Total time: 46:13 min
[INFO] Finished at: 2019-03-11T12:59:43-04:00
[INFO] Final Memory: 219M/3097M
[INFO] ------------------------------------------------------------------------
[ERROR] Failed to execute goal org.apache.maven.plugins:maven-surefire-plugin:2.22.1:test (default-test) on project netty-testsuite-osgi: Th
ere are test failures.
[ERROR]
[ERROR] Please refer to D:\\Workspace\\netty\\testsuite-osgi\\target\\surefire-reports for the individual test results.
[ERROR] Please refer to dump files (if any exist) [date].dump, [date]-jvmRun[N].dump and [date].dumpstream.
[ERROR] The forked VM terminated without properly saying goodbye. VM crash or System.exit called?
[ERROR] Command was cmd.exe /X /C \"D:\\Dev\\Java\\jdk1.8.0_201\\bin\\java -server -dsa -da -ea:io.netty... -XX:+HeapDumpOnOutOfMemoryError -XX:+P
rintGCDetails -javaagent:D:\\Workspace\\maven-repo/org/mortbay/jetty/alpn/jetty-alpn-agent/2.0.8/jetty-alpn-agent-2.0.8.jar=${jetty.alpnAgent.
option} -D_ -D_ -D_ -D_ -jar C:\\Users\\ghahrk2\\AppData\\Local\\Temp\\surefire5846402945819231811\\surefirebooter3410993510143083575.jar C:\\Users\\
ghahrk2\\AppData\\Local\\Temp\\surefire5846402945819231811 2019-03-11T12-14-47_754-jvmRun1 surefire3963502743181923035tmp surefire_2837620529321
76933038tmp\"
[ERROR] Process Exit Code: 0
[ERROR] Crashed tests:
[ERROR] io.netty.osgitests.OsgiBundleTest
[ERROR] org.apache.maven.surefire.booter.SurefireBooterForkException: The forked VM terminated without properly saying goodbye. VM crash or
System.exit called?
[ERROR] Command was cmd.exe /X /C \"D:\\Dev\\Java\\jdk1.8.0_201\\bin\\java -server -dsa -da -ea:io.netty... -XX:+HeapDumpOnOutOfMemoryError -XX:+P
rintGCDetails -javaagent:D:\\Workspace\\maven-repo/org/mortbay/jetty/alpn/jetty-alpn-agent/2.0.8/jetty-alpn-agent-2.0.8.jar=${jetty.alpnAgent.
option} -D_ -D_ -D_ -D_ -jar C:\\Users\\ghahrk2\\AppData\\Local\\Temp\\surefire5846402945819231811\\surefirebooter3410993510143083575.jar C:\\Users\\
ghahrk2\\AppData\\Local\\Temp\\surefire5846402945819231811 2019-03-11T12-14-47_754-jvmRun1 surefire3963502743181923035tmp surefire_2837620529321
76933038tmp\"
[ERROR] Process Exit Code: 0
[ERROR] Crashed tests:
[ERROR] io.netty.osgitests.OsgiBundleTest
[ERROR]         at org.apache.maven.plugin.surefire.booterclient.ForkStarter.fork(ForkStarter.java:669)
[ERROR]         at org.apache.maven.plugin.surefire.booterclient.ForkStarter.run(ForkStarter.java:282)
[ERROR]         at org.apache.maven.plugin.surefire.booterclient.ForkStarter.run(ForkStarter.java:245)
[ERROR]         at org.apache.maven.plugin.surefire.AbstractSurefireMojo.executeProvider(AbstractSurefireMojo.java:1183)
[ERROR]         at org.apache.maven.plugin.surefire.AbstractSurefireMojo.executeAfterPreconditionsChecked(AbstractSurefireMojo.java:1011)
[ERROR]         at org.apache.maven.plugin.surefire.AbstractSurefireMojo.execute(AbstractSurefireMojo.java:857)
[ERROR]         at org.apache.maven.plugin.DefaultBuildPluginManager.executeMojo(DefaultBuildPluginManager.java:134)
[ERROR]         at org.apache.maven.lifecycle.internal.MojoExecutor.execute(MojoExecutor.java:208)
[ERROR]         at org.apache.maven.lifecycle.internal.MojoExecutor.execute(MojoExecutor.java:154)
[ERROR]         at org.apache.maven.lifecycle.internal.MojoExecutor.execute(MojoExecutor.java:146)
[ERROR]         at org.apache.maven.lifecycle.internal.LifecycleModuleBuilder.buildProject(LifecycleModuleBuilder.java:117)
[ERROR]         at org.apache.maven.lifecycle.internal.LifecycleModuleBuilder.buildProject(LifecycleModuleBuilder.java:81)
[ERROR]         at org.apache.maven.lifecycle.internal.builder.singlethreaded.SingleThreadedBuilder.build(SingleThreadedBuilder.java:51)
[ERROR]         at org.apache.maven.lifecycle.internal.LifecycleStarter.execute(LifecycleStarter.java:128)
[ERROR]         at org.apache.maven.DefaultMaven.doExecute(DefaultMaven.java:309)
[ERROR]         at org.apache.maven.DefaultMaven.doExecute(DefaultMaven.java:194)
[ERROR]         at org.apache.maven.DefaultMaven.execute(DefaultMaven.java:107)
[ERROR]         at org.apache.maven.cli.MavenCli.execute(MavenCli.java:955)
[ERROR]         at org.apache.maven.cli.MavenCli.doMain(MavenCli.java:290)
[ERROR]         at org.apache.maven.cli.MavenCli.main(MavenCli.java:194)
[ERROR]         at sun.reflect.NativeMethodAccessorImpl.invoke0(Native Method)
[ERROR]         at sun.reflect.NativeMethodAccessorImpl.invoke(NativeMethodAccessorImpl.java:62)
[ERROR]         at sun.reflect.DelegatingMethodAccessorImpl.invoke(DelegatingMethodAccessorImpl.java:43)
[ERROR]         at java.lang.reflect.Method.invoke(Method.java:498)
[ERROR]         at org.codehaus.plexus.classworlds.launcher.Launcher.launchEnhanced(Launcher.java:289)
[ERROR]         at org.codehaus.plexus.classworlds.launcher.Launcher.launch(Launcher.java:229)
[ERROR]         at org.codehaus.plexus.classworlds.launcher.Launcher.mainWithExitCode(Launcher.java:415)
[ERROR]         at org.codehaus.plexus.classworlds.launcher.Launcher.main(Launcher.java:356)
[ERROR]
[ERROR] -> [Help 1]
[ERROR]
[ERROR] To see the full stack trace of the errors, re-run Maven with the -e switch.
[ERROR] Re-run Maven using the -X switch to enable full debug logging.
[ERROR]
[ERROR] For more information about the errors and possible solutions, please read the following articles:
[ERROR] [Help 1] http://cwiki.apache.org/confluence/display/MAVEN/MojoExecutionException
[ERROR]
[ERROR] After correcting the problems, you can resume the build with the command
[ERROR]   mvn <goals> -rf :netty-testsuite-osgi
```

## netty-transport-native-epoll
```
[INFO] Executed tasks
[INFO] 
[INFO] --- maven-dependency-plugin:2.10:unpack-dependencies (unpack) @ netty-transport-native-epoll ---
[INFO] Unpacking /home/kaveh/Workspace/netty/transport-native-unix-common/target/classes to /home/kaveh/Workspace/netty/transport-native-epoll/target/unix-common-lib with includes \"META-INF/native/**\" and excludes \"\"
[INFO] ------------------------------------------------------------------------
[INFO] Reactor Summary for Netty 4.1.35.Final-SNAPSHOT:
[INFO] 
[INFO] Netty/Dev-Tools .................................... SUCCESS [ 27.093 s]
[INFO] Netty .............................................. SUCCESS [01:17 min]
[INFO] Netty/Common ....................................... SUCCESS [01:59 min]
[INFO] Netty/Buffer ....................................... SUCCESS [ 56.804 s]
[INFO] Netty/Resolver ..................................... SUCCESS [  6.395 s]
[INFO] Netty/Transport .................................... SUCCESS [01:09 min]
[INFO] Netty/Codec ........................................ SUCCESS [ 29.941 s]
[INFO] Netty/Codec/DNS .................................... SUCCESS [ 14.811 s]
[INFO] Netty/Codec/HAProxy ................................ SUCCESS [  6.541 s]
[INFO] Netty/Handler ...................................... SUCCESS [04:49 min]
[INFO] Netty/Codec/HTTP ................................... SUCCESS [ 18.224 s]
[INFO] Netty/Codec/HTTP2 .................................. SUCCESS [ 37.289 s]
[INFO] Netty/Codec/Memcache ............................... SUCCESS [  6.580 s]
[INFO] Netty/Codec/MQTT ................................... SUCCESS [  7.417 s]
[INFO] Netty/Codec/Redis .................................. SUCCESS [  6.600 s]
[INFO] Netty/Codec/SMTP ................................... SUCCESS [  5.782 s]
[INFO] Netty/Codec/Socks .................................. SUCCESS [  7.485 s]
[INFO] Netty/Codec/Stomp .................................. SUCCESS [  6.118 s]
[INFO] Netty/Codec/XML .................................... SUCCESS [  7.066 s]
[INFO] Netty/Handler/Proxy ................................ SUCCESS [ 17.932 s]
[INFO] Netty/Resolver/DNS ................................. SUCCESS [ 50.563 s]
[INFO] Netty/Transport/RXTX ............................... SUCCESS [  3.372 s]
[INFO] Netty/Transport/SCTP ............................... SUCCESS [  3.698 s]
[INFO] Netty/Transport/UDT ................................ SUCCESS [ 29.846 s]
[INFO] Netty/Example ...................................... SUCCESS [  9.144 s]
[INFO] Netty/Transport/Native/Unix/Common ................. SUCCESS [  7.120 s]
[INFO] Netty/Testsuite .................................... SUCCESS [18:33 min]
[INFO] Netty/Transport/Native/Unix/Common/Tests ........... SUCCESS [  3.190 s]
[INFO] Netty/Transport/Native/Epoll ....................... FAILURE [  1.968 s]
[INFO] Netty/All-in-One ................................... SKIPPED
[INFO] Netty/Tarball ...................................... SKIPPED
[INFO] Netty/Transport/Native/KQueue ...................... SKIPPED
[INFO] Netty/Testsuite/Autobahn ........................... SKIPPED
[INFO] Netty/Testsuite/Http2 .............................. SKIPPED
[INFO] Netty/Testsuite/OSGI ............................... SKIPPED
[INFO] Netty/Testsuite/Shading ............................ SKIPPED
[INFO] Netty/Microbench ................................... SKIPPED
[INFO] Netty/BOM .......................................... SKIPPED
[INFO] ------------------------------------------------------------------------
[INFO] BUILD FAILURE
[INFO] ------------------------------------------------------------------------
[INFO] Total time:  34:07 min
[INFO] Finished at: 2019-03-13T18:10:29-04:00
[INFO] ------------------------------------------------------------------------
[ERROR] Failed to execute goal org.apache.maven.plugins:maven-dependency-plugin:2.10:unpack-dependencies (unpack) on project netty-transport-native-epoll: Artifact has not been packaged yet. When used on reactor artifact, unpack should be executed after packaging: see MDEP-98. -> [Help 1]
[ERROR] 
[ERROR] To see the full stack trace of the errors, re-run Maven with the -e switch.
[ERROR] Re-run Maven using the -X switch to enable full debug logging.
[ERROR] 
[ERROR] For more information about the errors and possible solutions, please read the following articles:
[ERROR] [Help 1] http://cwiki.apache.org/confluence/display/MAVEN/MojoExecutionException
[ERROR] 
[ERROR] After correcting the problems, you can resume the build with the command
[ERROR]   mvn <goals> -rf :netty-transport-native-epoll
```

", "json":"{"url":"https://api.github.com/repos/netty/netty/issues/8938","repository_url":"https://api.github.com/repos/netty/netty","labels_url":"https://api.github.com/repos/netty/netty/issues/8938/labels{/name}","comments_url":"https://api.github.com/repos/netty/netty/issues/8938/comments","events_url":"https://api.github.com/repos/netty/netty/issues/8938/events","html_url":"https://github.com/netty/netty/issues/8938","id":421195528,"node_id":"MDU6SXNzdWU0MjExOTU1Mjg=","number":8938,"title":"Investigating some local build failures","user":{"login":"kavehg","id":441481,"node_id":"MDQ6VXNlcjQ0MTQ4MQ==","avatar_url":"https://avatars1.githubusercontent.com/u/441481?v=4","gravatar_id":"","url":"https://api.github.com/users/kavehg","html_url":"https://github.com/kavehg","followers_url":"https://api.github.com/users/kavehg/followers","following_url":"https://api.github.com/users/kavehg/following{/other_user}","gists_url":"https://api.github.com/users/kavehg/gists{/gist_id}","starred_url":"https://api.github.com/users/kavehg/starred{/owner}{/repo}","subscriptions_url":"https://api.github.com/users/kavehg/subscriptions","organizations_url":"https://api.github.com/users/kavehg/orgs","repos_url":"https://api.github.com/users/kavehg/repos","events_url":"https://api.github.com/users/kavehg/events{/privacy}","received_events_url":"https://api.github.com/users/kavehg/received_events","type":"User","site_admin":false},"labels":[],"state":"closed","locked":false,"assignee":null,"assignees":[],"milestone":null,"comments":2,"created_at":"2019-03-14T19:07:16Z","updated_at":"2019-04-08T16:31:44Z","closed_at":"2019-04-08T16:31:44Z","author_association":"NONE","body":"FYI, I came across these local build failures recently when building on Ubuntu and Win7. Stack traces below\r\nSome of these were discussed in #6666 and #2889 previously. Will update here as I check further\r\n\r\n\r\ntarget (mvn version) | Windows 7 | Ubuntu\r\n------------ | ------------- | -------------\r\ninstall (3.6) | DnsNameResolverTest | BUILD SUCCESS\r\npackage (3.6) | DnsNameResolverTest | OsgiBundleTest: testCanLoadPlatformDependent & testResolvedBundles\r\ncompile (3.6) | BUILD SUCCESS | netty-transport-native-epoll: Artifact has not been packaged yet\r\ntest (3.6) | DnsNameResolverTest | netty-transport-native-epoll: Artifact has not been packaged yet\r\ninstall (3.5.2) | Crashed tests: OsgiBundleTest | BUILD SUCCESS\r\npackage (3.5.2) | DnsNameResolverTest | OsgiBundleTest: testCanLoadPlatformDependent & testResolvedBundles\r\ncompile (3.5.2) | BUILD SUCCESS | netty-transport-native-epoll: Artifact has not been packaged yet\r\ntest (3.5.2) | OsgiBundleTest: testCanLoadPlatformDependent & testResolvedBundles | netty-transport-native-epoll: Artifact has not been packaged yet\r\n\r\n# Stack Traces\r\n\r\n## DnsNameResolverTest\r\n```\r\n(deleted all content in local maven repo)\r\n\r\nD:\\Workspace\\netty>git status\r\nOn branch 4.1\r\nYour branch is up to date with 'origin/4.1'.\r\n\r\nnothing to commit, working tree clean\r\n\r\nD:\\Workspace\\netty>java -version\r\njava version \"1.8.0_201\"\r\nJava(TM) SE Runtime Environment (build 1.8.0_201-b09)\r\nJava HotSpot(TM) 64-Bit Server VM (build 25.201-b09, mixed mode)\r\n\r\nD:\\Workspace\\netty>mvn -version\r\nApache Maven 3.6.0 (97c98ec64a1fdfee7767ce5ffb20918da4f719f3; 2018-10-24T14:41:47-04:00)\r\nMaven home: D:\\Dev\\maven\\apache-maven-3.6.0\\bin\\..\r\nJava version: 1.8.0_201, vendor: Oracle Corporation, runtime: D:\\Dev\\Java\\jdk1.8.0_201\\jre\r\nDefault locale: en_US, platform encoding: Cp1252\r\nOS name: \"windows 7\", version: \"6.1\", arch: \"amd64\", family: \"windows\"\r\n\r\nD:\\Workspace\\netty>mvn clean install\r\n\r\n...\r\n\r\n[INFO] Results:\r\n[INFO]\r\n[INFO] Tests run: 0, Failures: 0, Errors: 0, Skipped: 0\r\n[INFO]\r\n[INFO] ------------------------------------------------------------------------\r\n[INFO] Reactor Summary for Netty 4.1.35.Final-SNAPSHOT:\r\n[INFO]\r\n[INFO] Netty/Dev-Tools .................................... SUCCESS [01:02 min]\r\n[INFO] Netty .............................................. SUCCESS [02:34 min]\r\n[INFO] Netty/Common ....................................... SUCCESS [02:08 min]\r\n[INFO] Netty/Buffer ....................................... SUCCESS [ 59.543 s]\r\n[INFO] Netty/Resolver ..................................... SUCCESS [ 16.462 s]\r\n[INFO] Netty/Transport .................................... SUCCESS [01:30 min]\r\n[INFO] Netty/Codec ........................................ SUCCESS [ 44.831 s]\r\n[INFO] Netty/Codec/DNS .................................... SUCCESS [ 35.330 s]\r\n[INFO] Netty/Codec/HAProxy ................................ SUCCESS [ 16.119 s]\r\n[INFO] Netty/Handler ...................................... SUCCESS [05:37 min]\r\n[INFO] Netty/Codec/HTTP ................................... SUCCESS [ 57.116 s]\r\n[INFO] Netty/Codec/HTTP2 .................................. SUCCESS [ 53.591 s]\r\n[INFO] Netty/Codec/Memcache ............................... SUCCESS [ 17.004 s]\r\n[INFO] Netty/Codec/MQTT ................................... SUCCESS [ 17.742 s]\r\n[INFO] Netty/Codec/Redis .................................. SUCCESS [ 16.426 s]\r\n[INFO] Netty/Codec/SMTP ................................... SUCCESS [ 15.808 s]\r\n[INFO] Netty/Codec/Socks .................................. SUCCESS [ 25.776 s]\r\n[INFO] Netty/Codec/Stomp .................................. SUCCESS [ 16.044 s]\r\n[INFO] Netty/Codec/XML .................................... SUCCESS [ 17.289 s]\r\n[INFO] Netty/Handler/Proxy ................................ SUCCESS [ 29.383 s]\r\n[INFO] Netty/Resolver/DNS ................................. FAILURE [01:39 min]\r\n[INFO] Netty/Transport/RXTX ............................... SKIPPED\r\n[INFO] Netty/Transport/SCTP ............................... SKIPPED\r\n[INFO] Netty/Transport/UDT ................................ SKIPPED\r\n[INFO] Netty/Example ...................................... SKIPPED\r\n[INFO] Netty/All-in-One ................................... SKIPPED\r\n[INFO] Netty/Tarball ...................................... SKIPPED\r\n[INFO] Netty/Transport/Native/Unix/Common ................. SKIPPED\r\n[INFO] Netty/Transport/Native/Unix/Common/Tests ........... SKIPPED\r\n[INFO] Netty/Testsuite .................................... SKIPPED\r\n[INFO] Netty/Transport/Native/Epoll ....................... SKIPPED\r\n[INFO] Netty/Transport/Native/KQueue ...................... SKIPPED\r\n[INFO] Netty/Testsuite/Autobahn ........................... SKIPPED\r\n[INFO] Netty/Testsuite/Http2 .............................. SKIPPED\r\n[INFO] Netty/Testsuite/OSGI ............................... SKIPPED\r\n[INFO] Netty/Testsuite/Shading ............................ SKIPPED\r\n[INFO] Netty/Microbench ................................... SKIPPED\r\n[INFO] Netty/BOM .......................................... SKIPPED\r\n[INFO] ------------------------------------------------------------------------\r\n[INFO] BUILD FAILURE\r\n[INFO] ------------------------------------------------------------------------\r\n[INFO] Total time:  22:01 min\r\n[INFO] Finished at: 2019-03-08T16:18:21-05:00\r\n[INFO] ------------------------------------------------------------------------\r\n[ERROR] Failed to execute goal org.apache.maven.plugins:maven-surefire-plugin:2.22.1:test (default-test) on project netty-resolver-dns: Ther\r\ne are test failures.\r\n[ERROR]\r\n[ERROR] Please refer to D:\\Workspace\\netty\\resolver-dns\\target\\surefire-reports for the individual test results.\r\n[ERROR] Please refer to dump files (if any exist) [date].dump, [date]-jvmRun[N].dump and [date].dumpstream.\r\n[ERROR] The forked VM terminated without properly saying goodbye. VM crash or System.exit called?\r\n[ERROR] Command was cmd.exe /X /C \"D:\\Dev\\Java\\jdk1.8.0_201\\bin\\java -server -dsa -da -ea:io.netty... -XX:+HeapDumpOnOutOfMemoryError -XX:+P\r\nrintGCDetails -javaagent:D:\\Workspace\\maven-repo/org/mortbay/jetty/alpn/jetty-alpn-agent/2.0.8/jetty-alpn-agent-2.0.8.jar=${jetty.alpnAgent.\r\noption} -D_ -D_ -D_ -D_ -jar C:\\Users\\me\\AppData\\Local\\Temp\\surefire2981375370496165066\\surefirebooter2259591755124786764.jar C:\\Users\\\r\nme\\AppData\\Local\\Temp\\surefire2981375370496165066 2019-03-08T16-01-16_683-jvmRun1 surefire8572862168761554587tmp surefire_1872323104475\r\n55049720tmp\"\r\n[ERROR] Process Exit Code: 0\r\n[ERROR] Crashed tests:\r\n[ERROR] io.netty.resolver.dns.DnsNameResolverTest\r\n[ERROR] org.apache.maven.surefire.booter.SurefireBooterForkException: The forked VM terminated without properly saying goodbye. VM crash or\r\nSystem.exit called?\r\n[ERROR] Command was cmd.exe /X /C \"D:\\Dev\\Java\\jdk1.8.0_201\\bin\\java -server -dsa -da -ea:io.netty... -XX:+HeapDumpOnOutOfMemoryError -XX:+P\r\nrintGCDetails -javaagent:D:\\Workspace\\maven-repo/org/mortbay/jetty/alpn/jetty-alpn-agent/2.0.8/jetty-alpn-agent-2.0.8.jar=${jetty.alpnAgent.\r\noption} -D_ -D_ -D_ -D_ -jar C:\\Users\\me\\AppData\\Local\\Temp\\surefire2981375370496165066\\surefirebooter2259591755124786764.jar C:\\Users\\\r\nme\\AppData\\Local\\Temp\\surefire2981375370496165066 2019-03-08T16-01-16_683-jvmRun1 surefire8572862168761554587tmp surefire_1872323104475\r\n55049720tmp\"\r\n[ERROR] Process Exit Code: 0\r\n[ERROR] Crashed tests:\r\n[ERROR] io.netty.resolver.dns.DnsNameResolverTest\r\n[ERROR]         at org.apache.maven.plugin.surefire.booterclient.ForkStarter.fork(ForkStarter.java:669)\r\n[ERROR]         at org.apache.maven.plugin.surefire.booterclient.ForkStarter.run(ForkStarter.java:282)\r\n[ERROR]         at org.apache.maven.plugin.surefire.booterclient.ForkStarter.run(ForkStarter.java:245)\r\n[ERROR]         at org.apache.maven.plugin.surefire.AbstractSurefireMojo.executeProvider(AbstractSurefireMojo.java:1183)\r\n[ERROR]         at org.apache.maven.plugin.surefire.AbstractSurefireMojo.executeAfterPreconditionsChecked(AbstractSurefireMojo.java:1011)\r\n[ERROR]         at org.apache.maven.plugin.surefire.AbstractSurefireMojo.execute(AbstractSurefireMojo.java:857)\r\n[ERROR]         at org.apache.maven.plugin.DefaultBuildPluginManager.executeMojo(DefaultBuildPluginManager.java:137)\r\n[ERROR]         at org.apache.maven.lifecycle.internal.MojoExecutor.execute(MojoExecutor.java:210)\r\n[ERROR]         at org.apache.maven.lifecycle.internal.MojoExecutor.execute(MojoExecutor.java:156)\r\n[ERROR]         at org.apache.maven.lifecycle.internal.MojoExecutor.execute(MojoExecutor.java:148)\r\n[ERROR]         at org.apache.maven.lifecycle.internal.LifecycleModuleBuilder.buildProject(LifecycleModuleBuilder.java:117)\r\n[ERROR]         at org.apache.maven.lifecycle.internal.LifecycleModuleBuilder.buildProject(LifecycleModuleBuilder.java:81)\r\n[ERROR]         at org.apache.maven.lifecycle.internal.builder.singlethreaded.SingleThreadedBuilder.build(SingleThreadedBuilder.java:56)\r\n[ERROR]         at org.apache.maven.lifecycle.internal.LifecycleStarter.execute(LifecycleStarter.java:128)\r\n[ERROR]         at org.apache.maven.DefaultMaven.doExecute(DefaultMaven.java:305)\r\n[ERROR]         at org.apache.maven.DefaultMaven.doExecute(DefaultMaven.java:192)\r\n[ERROR]         at org.apache.maven.DefaultMaven.execute(DefaultMaven.java:105)\r\n[ERROR]         at org.apache.maven.cli.MavenCli.execute(MavenCli.java:956)\r\n[ERROR]         at org.apache.maven.cli.MavenCli.doMain(MavenCli.java:288)\r\n[ERROR]         at org.apache.maven.cli.MavenCli.main(MavenCli.java:192)\r\n[ERROR]         at sun.reflect.NativeMethodAccessorImpl.invoke0(Native Method)\r\n[ERROR]         at sun.reflect.NativeMethodAccessorImpl.invoke(NativeMethodAccessorImpl.java:62)\r\n[ERROR]         at sun.reflect.DelegatingMethodAccessorImpl.invoke(DelegatingMethodAccessorImpl.java:43)\r\n[ERROR]         at java.lang.reflect.Method.invoke(Method.java:498)\r\n[ERROR]         at org.codehaus.plexus.classworlds.launcher.Launcher.launchEnhanced(Launcher.java:289)\r\n[ERROR]         at org.codehaus.plexus.classworlds.launcher.Launcher.launch(Launcher.java:229)\r\n[ERROR]         at org.codehaus.plexus.classworlds.launcher.Launcher.mainWithExitCode(Launcher.java:415)\r\n[ERROR]         at org.codehaus.plexus.classworlds.launcher.Launcher.main(Launcher.java:356)\r\n[ERROR]\r\n[ERROR] -> [Help 1]\r\n[ERROR]\r\n[ERROR] To see the full stack trace of the errors, re-run Maven with the -e switch.\r\n[ERROR] Re-run Maven using the -X switch to enable full debug logging.\r\n[ERROR]\r\n[ERROR] For more information about the errors and possible solutions, please read the following articles:\r\n[ERROR] [Help 1] http://cwiki.apache.org/confluence/display/MAVEN/MojoExecutionException\r\n[ERROR]\r\n[ERROR] After correcting the problems, you can resume the build with the command\r\n[ERROR]   mvn <goals> -rf :netty-resolver-dns\r\n```\r\n\r\n## OsgiBundleTest\r\n\r\n```\r\nkaveh@ubuntu:~/Workspace/netty$ uname -a\r\nLinux ubuntu 4.18.0-16-generic #17-Ubuntu SMP Fri Feb 8 00:06:57 UTC 2019 x86_64 x86_64 x86_64 GNU/Linux\r\n\r\nkaveh@ubuntu:~/Workspace/netty$ java -version\r\njava version \"1.8.0_191\"\r\nJava(TM) SE Runtime Environment (build 1.8.0_191-b12)\r\nJava HotSpot(TM) 64-Bit Server VM (build 25.191-b12, mixed mode)\r\n\r\nkaveh@ubuntu:~/Workspace/netty$ mvn -version\r\nApache Maven 3.6.0 (97c98ec64a1fdfee7767ce5ffb20918da4f719f3; 2018-10-24T14:41:47-04:00)\r\nMaven home: /home/kaveh/.sdkman/candidates/maven/current\r\nJava version: 1.8.0_191, vendor: Oracle Corporation, runtime: /home/kaveh/.sdkman/candidates/java/8.0.191-oracle/jre\r\nDefault locale: en_US, platform encoding: UTF-8\r\nOS name: \"linux\", version: \"4.18.0-16-generic\", arch: \"amd64\", family: \"unix\"\r\n\r\n\r\nkaveh@ubuntu:~/Workspace/netty$ mvn clean package\r\n\r\n...\r\n\r\n\r\n11:14:08.758 [main] DEBUG o.o.p.e.n.i.NativeTestContainer - user.language = en\r\n11:14:08.758 [main] DEBUG o.o.p.e.n.i.NativeTestContainer - user.name = kaveh\r\n11:14:08.758 [main] DEBUG o.o.p.e.n.i.NativeTestContainer - user.timezone = America/New_York\r\nERROR: Error creating bundle cache.\r\njava.lang.Exception: Unable to lock bundle cache: java.nio.channels.OverlappingFileLockException\r\n\tat org.apache.felix.framework.cache.BundleCache.<init>(BundleCache.java:176)\r\n\tat org.apache.felix.framework.Felix.init(Felix.java:692)\r\n\tat org.apache.felix.framework.Felix.init(Felix.java:626)\r\n\tat org.ops4j.pax.exam.nat.internal.NativeTestContainer.start(NativeTestContainer.java:192)\r\n\tat org.ops4j.pax.exam.spi.reactors.AllConfinedStagedReactor.invoke(AllConfinedStagedReactor.java:79)\r\n\tat org.ops4j.pax.exam.junit.impl.ProbeRunner$2.evaluate(ProbeRunner.java:267)\r\n\tat org.junit.runners.ParentRunner.runLeaf(ParentRunner.java:325)\r\n\tat org.junit.runners.BlockJUnit4ClassRunner.runChild(BlockJUnit4ClassRunner.java:78)\r\n\tat org.junit.runners.BlockJUnit4ClassRunner.runChild(BlockJUnit4ClassRunner.java:57)\r\n\tat org.junit.runners.ParentRunner$3.run(ParentRunner.java:290)\r\n\tat org.junit.runners.ParentRunner$1.schedule(ParentRunner.java:71)\r\n\tat org.junit.runners.ParentRunner.runChildren(ParentRunner.java:288)\r\n\tat org.junit.runners.ParentRunner.access$000(ParentRunner.java:58)\r\n\tat org.junit.runners.ParentRunner$2.evaluate(ParentRunner.java:268)\r\n\tat org.junit.runners.ParentRunner.run(ParentRunner.java:363)\r\n\tat org.ops4j.pax.exam.junit.impl.ProbeRunner.run(ProbeRunner.java:98)\r\n\tat org.ops4j.pax.exam.junit.PaxExam.run(PaxExam.java:93)\r\n\tat org.apache.maven.surefire.junit4.JUnit4Provider.execute(JUnit4Provider.java:365)\r\n\tat org.apache.maven.surefire.junit4.JUnit4Provider.executeWithRerun(JUnit4Provider.java:273)\r\n\tat org.apache.maven.surefire.junit4.JUnit4Provider.executeTestSet(JUnit4Provider.java:238)\r\n\tat org.apache.maven.surefire.junit4.JUnit4Provider.invoke(JUnit4Provider.java:159)\r\n\tat org.apache.maven.surefire.booter.ForkedBooter.invokeProviderInSameClassLoader(ForkedBooter.java:384)\r\n\tat org.apache.maven.surefire.booter.ForkedBooter.runSuitesInProcess(ForkedBooter.java:345)\r\n\tat org.apache.maven.surefire.booter.ForkedBooter.execute(ForkedBooter.java:126)\r\n\tat org.apache.maven.surefire.booter.ForkedBooter.main(ForkedBooter.java:418)\r\n11:14:08.787 [main] INFO  o.o.p.e.spi.reactors.ReactorManager - suite finished\r\n[ERROR] Tests run: 2, Failures: 0, Errors: 2, Skipped: 0, Time elapsed: 2.268 s <<< FAILURE! - in io.netty.osgitests.OsgiBundleTest\r\n[ERROR] testCanLoadPlatformDependent(io.netty.osgitests.OsgiBundleTest)  Time elapsed: 1.731 s  <<< ERROR!\r\njava.io.IOException: Error resolving artifact io.netty:netty-codec-mqtt:jar:4.1.35.Final-SNAPSHOT: Could not find artifact io.netty:netty-codec-mqtt:jar:4.1.35.Final-SNAPSHOT\r\n\tat org.ops4j.pax.url.mvn.internal.AetherBasedResolver.resolve(AetherBasedResolver.java:626)\r\n\tat org.ops4j.pax.url.mvn.internal.AetherBasedResolver.resolve(AetherBasedResolver.java:570)\r\n\tat org.ops4j.pax.url.mvn.internal.AetherBasedResolver.resolve(AetherBasedResolver.java:548)\r\n\tat org.ops4j.pax.url.mvn.internal.AetherBasedResolver.resolve(AetherBasedResolver.java:523)\r\n\tat org.ops4j.pax.url.mvn.internal.Connection.getInputStream(Connection.java:123)\r\n\tat org.apache.felix.framework.util.SecureAction.getURLConnectionInputStream(SecureAction.java:525)\r\n\tat org.apache.felix.framework.cache.JarRevision.initialize(JarRevision.java:166)\r\n\tat org.apache.felix.framework.cache.JarRevision.<init>(JarRevision.java:77)\r\n\tat org.apache.felix.framework.cache.BundleArchive.createRevisionFromLocation(BundleArchive.java:878)\r\n\tat org.apache.felix.framework.cache.BundleArchive.reviseInternal(BundleArchive.java:550)\r\n\tat org.apache.felix.framework.cache.BundleArchive.<init>(BundleArchive.java:153)\r\n\tat org.apache.felix.framework.cache.BundleCache.create(BundleCache.java:277)\r\n\tat org.apache.felix.framework.Felix.installBundle(Felix.java:3009)\r\n\tat org.apache.felix.framework.BundleContextImpl.installBundle(BundleContextImpl.java:167)\r\n\tat org.apache.felix.framework.BundleContextImpl.installBundle(BundleContextImpl.java:140)\r\n\tat org.ops4j.pax.exam.nat.internal.NativeTestContainer.installAndStartBundles(NativeTestContainer.java:340)\r\n\tat org.ops4j.pax.exam.nat.internal.NativeTestContainer.start(NativeTestContainer.java:209)\r\n\tat org.ops4j.pax.exam.spi.reactors.AllConfinedStagedReactor.invoke(AllConfinedStagedReactor.java:79)\r\n\tat org.ops4j.pax.exam.junit.impl.ProbeRunner$2.evaluate(ProbeRunner.java:267)\r\n\tat org.junit.runners.ParentRunner.runLeaf(ParentRunner.java:325)\r\n\tat org.junit.runners.BlockJUnit4ClassRunner.runChild(BlockJUnit4ClassRunner.java:78)\r\n\tat org.junit.runners.BlockJUnit4ClassRunner.runChild(BlockJUnit4ClassRunner.java:57)\r\n\tat org.junit.runners.ParentRunner$3.run(ParentRunner.java:290)\r\n\tat org.junit.runners.ParentRunner$1.schedule(ParentRunner.java:71)\r\n\tat org.junit.runners.ParentRunner.runChildren(ParentRunner.java:288)\r\n\tat org.junit.runners.ParentRunner.access$000(ParentRunner.java:58)\r\n\tat org.junit.runners.ParentRunner$2.evaluate(ParentRunner.java:268)\r\n\tat org.junit.runners.ParentRunner.run(ParentRunner.java:363)\r\n\tat org.ops4j.pax.exam.junit.impl.ProbeRunner.run(ProbeRunner.java:98)\r\n\tat org.ops4j.pax.exam.junit.PaxExam.run(PaxExam.java:93)\r\n\tat org.apache.maven.surefire.junit4.JUnit4Provider.execute(JUnit4Provider.java:365)\r\n\tat org.apache.maven.surefire.junit4.JUnit4Provider.executeWithRerun(JUnit4Provider.java:273)\r\n\tat org.apache.maven.surefire.junit4.JUnit4Provider.executeTestSet(JUnit4Provider.java:238)\r\n\tat org.apache.maven.surefire.junit4.JUnit4Provider.invoke(JUnit4Provider.java:159)\r\n\tat org.apache.maven.surefire.booter.ForkedBooter.invokeProviderInSameClassLoader(ForkedBooter.java:384)\r\n\tat org.apache.maven.surefire.booter.ForkedBooter.runSuitesInProcess(ForkedBooter.java:345)\r\n\tat org.apache.maven.surefire.booter.ForkedBooter.execute(ForkedBooter.java:126)\r\n\tat org.apache.maven.surefire.booter.ForkedBooter.main(ForkedBooter.java:418)\r\n\r\n[ERROR] testResolvedBundles(io.netty.osgitests.OsgiBundleTest)  Time elapsed: 0.081 s  <<< ERROR!\r\njava.lang.Exception: Unable to lock bundle cache: java.nio.channels.OverlappingFileLockException\r\n\tat org.apache.felix.framework.cache.BundleCache.<init>(BundleCache.java:176)\r\n\tat org.apache.felix.framework.Felix.init(Felix.java:692)\r\n\tat org.apache.felix.framework.Felix.init(Felix.java:626)\r\n\tat org.ops4j.pax.exam.nat.internal.NativeTestContainer.start(NativeTestContainer.java:192)\r\n\tat org.ops4j.pax.exam.spi.reactors.AllConfinedStagedReactor.invoke(AllConfinedStagedReactor.java:79)\r\n\tat org.ops4j.pax.exam.junit.impl.ProbeRunner$2.evaluate(ProbeRunner.java:267)\r\n\tat org.junit.runners.ParentRunner.runLeaf(ParentRunner.java:325)\r\n\tat org.junit.runners.BlockJUnit4ClassRunner.runChild(BlockJUnit4ClassRunner.java:78)\r\n\tat org.junit.runners.BlockJUnit4ClassRunner.runChild(BlockJUnit4ClassRunner.java:57)\r\n\tat org.junit.runners.ParentRunner$3.run(ParentRunner.java:290)\r\n\tat org.junit.runners.ParentRunner$1.schedule(ParentRunner.java:71)\r\n\tat org.junit.runners.ParentRunner.runChildren(ParentRunner.java:288)\r\n\tat org.junit.runners.ParentRunner.access$000(ParentRunner.java:58)\r\n\tat org.junit.runners.ParentRunner$2.evaluate(ParentRunner.java:268)\r\n\tat org.junit.runners.ParentRunner.run(ParentRunner.java:363)\r\n\tat org.ops4j.pax.exam.junit.impl.ProbeRunner.run(ProbeRunner.java:98)\r\n\tat org.ops4j.pax.exam.junit.PaxExam.run(PaxExam.java:93)\r\n\tat org.apache.maven.surefire.junit4.JUnit4Provider.execute(JUnit4Provider.java:365)\r\n\tat org.apache.maven.surefire.junit4.JUnit4Provider.executeWithRerun(JUnit4Provider.java:273)\r\n\tat org.apache.maven.surefire.junit4.JUnit4Provider.executeTestSet(JUnit4Provider.java:238)\r\n\tat org.apache.maven.surefire.junit4.JUnit4Provider.invoke(JUnit4Provider.java:159)\r\n\tat org.apache.maven.surefire.booter.ForkedBooter.invokeProviderInSameClassLoader(ForkedBooter.java:384)\r\n\tat org.apache.maven.surefire.booter.ForkedBooter.runSuitesInProcess(ForkedBooter.java:345)\r\n\tat org.apache.maven.surefire.booter.ForkedBooter.execute(ForkedBooter.java:126)\r\n\tat org.apache.maven.surefire.booter.ForkedBooter.main(ForkedBooter.java:418)\r\n\r\n[INFO] \r\n[INFO] Results:\r\n[INFO] \r\n[ERROR] Errors: \r\n[ERROR]   OsgiBundleTest.testCanLoadPlatformDependent » IO Error resolving artifact io.n...\r\n[ERROR]   OsgiBundleTest.testResolvedBundles »  Unable to lock bundle cache: java.nio.ch...\r\n[INFO] \r\n[ERROR] Tests run: 2, Failures: 0, Errors: 2, Skipped: 0\r\n[INFO] \r\n[INFO] ------------------------------------------------------------------------\r\n[INFO] Reactor Summary for Netty 4.1.35.Final-SNAPSHOT:\r\n[INFO] \r\n[INFO] Netty/Dev-Tools .................................... SUCCESS [  1.847 s]\r\n[INFO] Netty .............................................. SUCCESS [ 10.528 s]\r\n[INFO] Netty/Common ....................................... SUCCESS [01:17 min]\r\n[INFO] Netty/Buffer ....................................... SUCCESS [ 56.859 s]\r\n[INFO] Netty/Resolver ..................................... SUCCESS [  6.250 s]\r\n[INFO] Netty/Transport .................................... SUCCESS [01:08 min]\r\n[INFO] Netty/Codec ........................................ SUCCESS [ 28.005 s]\r\n[INFO] Netty/Codec/DNS .................................... SUCCESS [  7.007 s]\r\n[INFO] Netty/Codec/HAProxy ................................ SUCCESS [  6.693 s]\r\n[INFO] Netty/Handler ...................................... SUCCESS [04:30 min]\r\n[INFO] Netty/Codec/HTTP ................................... SUCCESS [ 19.982 s]\r\n[INFO] Netty/Codec/HTTP2 .................................. SUCCESS [ 38.388 s]\r\n[INFO] Netty/Codec/Memcache ............................... SUCCESS [  7.054 s]\r\n[INFO] Netty/Codec/MQTT ................................... SUCCESS [  7.849 s]\r\n[INFO] Netty/Codec/Redis .................................. SUCCESS [  6.621 s]\r\n[INFO] Netty/Codec/SMTP ................................... SUCCESS [  6.101 s]\r\n[INFO] Netty/Codec/Socks .................................. SUCCESS [  7.935 s]\r\n[INFO] Netty/Codec/Stomp .................................. SUCCESS [  5.794 s]\r\n[INFO] Netty/Codec/XML .................................... SUCCESS [  5.878 s]\r\n[INFO] Netty/Handler/Proxy ................................ SUCCESS [ 17.252 s]\r\n[INFO] Netty/Resolver/DNS ................................. SUCCESS [ 50.226 s]\r\n[INFO] Netty/Transport/RXTX ............................... SUCCESS [  3.073 s]\r\n[INFO] Netty/Transport/SCTP ............................... SUCCESS [  3.790 s]\r\n[INFO] Netty/Transport/UDT ................................ SUCCESS [ 22.633 s]\r\n[INFO] Netty/Example ...................................... SUCCESS [  9.296 s]\r\n[INFO] Netty/Transport/Native/Unix/Common ................. SUCCESS [  7.622 s]\r\n[INFO] Netty/Testsuite .................................... SUCCESS [18:12 min]\r\n[INFO] Netty/Transport/Native/Unix/Common/Tests ........... SUCCESS [  3.209 s]\r\n[INFO] Netty/Transport/Native/Epoll ....................... SUCCESS [06:34 min]\r\n[INFO] Netty/All-in-One ................................... SUCCESS [  3.106 s]\r\n[INFO] Netty/Tarball ...................................... SUCCESS [  0.727 s]\r\n[INFO] Netty/Transport/Native/KQueue ...................... SUCCESS [  6.104 s]\r\n[INFO] Netty/Testsuite/Autobahn ........................... SUCCESS [05:13 min]\r\n[INFO] Netty/Testsuite/Http2 .............................. SUCCESS [ 39.017 s]\r\n[INFO] Netty/Testsuite/OSGI ............................... FAILURE [  7.028 s]\r\n[INFO] Netty/Testsuite/Shading ............................ SKIPPED\r\n[INFO] Netty/Microbench ................................... SKIPPED\r\n[INFO] Netty/BOM .......................................... SKIPPED\r\n[INFO] ------------------------------------------------------------------------\r\n[INFO] BUILD FAILURE\r\n[INFO] ------------------------------------------------------------------------\r\n[INFO] Total time:  43:34 min\r\n[INFO] Finished at: 2019-03-11T11:14:09-04:00\r\n[INFO] ------------------------------------------------------------------------\r\n[ERROR] Failed to execute goal org.apache.maven.plugins:maven-surefire-plugin:2.22.1:test (default-test) on project netty-testsuite-osgi: There are test failures.\r\n[ERROR] \r\n[ERROR] Please refer to /home/kaveh/Workspace/netty/testsuite-osgi/target/surefire-reports for the individual test results.\r\n[ERROR] Please refer to dump files (if any exist) [date].dump, [date]-jvmRun[N].dump and [date].dumpstream.\r\n[ERROR] -> [Help 1]\r\n[ERROR] \r\n[ERROR] To see the full stack trace of the errors, re-run Maven with the -e switch.\r\n[ERROR] Re-run Maven using the -X switch to enable full debug logging.\r\n[ERROR] \r\n[ERROR] For more information about the errors and possible solutions, please read the following articles:\r\n[ERROR] [Help 1] http://cwiki.apache.org/confluence/display/MAVEN/MojoFailureException\r\n[ERROR] \r\n[ERROR] After correcting the problems, you can resume the build with the command\r\n[ERROR]   mvn <goals> -rf :netty-testsuite-osgi\r\n```\r\n\r\n## Another OsgiBundleTest\r\n\r\n```\r\nD:\\Workspace\\netty>mvn -version\r\nApache Maven 3.5.2 (138edd61fd100ec658bfa2d307c43b76940a5d7d; 2017-10-18T03:58:13-04:00)\r\nMaven home: D:\\Dev\\maven\\apache-maven-3.5.2\\bin\\..\r\nJava version: 1.8.0_201, vendor: Oracle Corporation\r\nJava home: D:\\Dev\\Java\\jdk1.8.0_201\\jre\r\nDefault locale: en_US, platform encoding: Cp1252\r\nOS name: \"windows 7\", version: \"6.1\", arch: \"amd64\", family: \"windows\"\r\n\r\nD:\\Workspace\\netty>java -version\r\njava version \"1.8.0_201\"\r\nJava(TM) SE Runtime Environment (build 1.8.0_201-b09)\r\nJava HotSpot(TM) 64-Bit Server VM (build 25.201-b09, mixed mode)\r\n\r\nD:\\Workspace\\netty>mvn clean install\r\n\r\n...\r\n\r\n[INFO]\r\n[INFO] Results:\r\n[INFO]\r\n[INFO] Tests run: 0, Failures: 0, Errors: 0, Skipped: 0\r\n[INFO]\r\n[INFO] ------------------------------------------------------------------------\r\n[INFO] Reactor Summary:\r\n[INFO]\r\n[INFO] Netty/Dev-Tools .................................... SUCCESS [  3.995 s]\r\n[INFO] Netty .............................................. SUCCESS [ 33.166 s]\r\n[INFO] Netty/Common ....................................... SUCCESS [01:27 min]\r\n[INFO] Netty/Buffer ....................................... SUCCESS [01:07 min]\r\n[INFO] Netty/Resolver ..................................... SUCCESS [ 18.074 s]\r\n[INFO] Netty/Transport .................................... SUCCESS [01:30 min]\r\n[INFO] Netty/Codec ........................................ SUCCESS [ 45.497 s]\r\n[INFO] Netty/Codec/DNS .................................... SUCCESS [ 20.330 s]\r\n[INFO] Netty/Codec/HAProxy ................................ SUCCESS [ 16.666 s]\r\n[INFO] Netty/Handler ...................................... SUCCESS [05:37 min]\r\n[INFO] Netty/Codec/HTTP ................................... SUCCESS [ 35.190 s]\r\n[INFO] Netty/Codec/HTTP2 .................................. SUCCESS [ 48.896 s]\r\n[INFO] Netty/Codec/Memcache ............................... SUCCESS [ 15.582 s]\r\n[INFO] Netty/Codec/MQTT ................................... SUCCESS [ 16.239 s]\r\n[INFO] Netty/Codec/Redis .................................. SUCCESS [ 14.575 s]\r\n[INFO] Netty/Codec/SMTP ................................... SUCCESS [ 14.294 s]\r\n[INFO] Netty/Codec/Socks .................................. SUCCESS [ 17.929 s]\r\n[INFO] Netty/Codec/Stomp .................................. SUCCESS [ 14.702 s]\r\n[INFO] Netty/Codec/XML .................................... SUCCESS [ 14.539 s]\r\n[INFO] Netty/Handler/Proxy ................................ SUCCESS [ 27.006 s]\r\n[INFO] Netty/Resolver/DNS ................................. SUCCESS [01:25 min]\r\n[INFO] Netty/Transport/RXTX ............................... SUCCESS [ 10.928 s]\r\n[INFO] Netty/Transport/SCTP ............................... SUCCESS [ 12.900 s]\r\n[INFO] Netty/Transport/UDT ................................ SUCCESS [ 45.572 s]\r\n[INFO] Netty/Example ...................................... SUCCESS [ 35.135 s]\r\n[INFO] Netty/All-in-One ................................... SUCCESS [01:15 min]\r\n[INFO] Netty/Tarball ...................................... SUCCESS [  7.015 s]\r\n[INFO] Netty/Transport/Native/Unix/Common ................. SUCCESS [ 15.197 s]\r\n[INFO] Netty/Transport/Native/Unix/Common/Tests ........... SUCCESS [ 10.986 s]\r\n[INFO] Netty/Testsuite .................................... SUCCESS [14:02 min]\r\n[INFO] Netty/Transport/Native/Epoll ....................... SUCCESS [ 21.014 s]\r\n[INFO] Netty/Transport/Native/KQueue ...................... SUCCESS [ 18.422 s]\r\n[INFO] Netty/Testsuite/Autobahn ........................... SUCCESS [07:37 min]\r\n[INFO] Netty/Testsuite/Http2 .............................. SUCCESS [01:03 min]\r\n[INFO] Netty/Testsuite/OSGI ............................... FAILURE [02:11 min]\r\n[INFO] Netty/Testsuite/Shading ............................ SKIPPED\r\n[INFO] Netty/Microbench ................................... SKIPPED\r\n[INFO] Netty/BOM .......................................... SKIPPED\r\n[INFO] ------------------------------------------------------------------------\r\n[INFO] BUILD FAILURE\r\n[INFO] ------------------------------------------------------------------------\r\n[INFO] Total time: 46:13 min\r\n[INFO] Finished at: 2019-03-11T12:59:43-04:00\r\n[INFO] Final Memory: 219M/3097M\r\n[INFO] ------------------------------------------------------------------------\r\n[ERROR] Failed to execute goal org.apache.maven.plugins:maven-surefire-plugin:2.22.1:test (default-test) on project netty-testsuite-osgi: Th\r\nere are test failures.\r\n[ERROR]\r\n[ERROR] Please refer to D:\\Workspace\\netty\\testsuite-osgi\\target\\surefire-reports for the individual test results.\r\n[ERROR] Please refer to dump files (if any exist) [date].dump, [date]-jvmRun[N].dump and [date].dumpstream.\r\n[ERROR] The forked VM terminated without properly saying goodbye. VM crash or System.exit called?\r\n[ERROR] Command was cmd.exe /X /C \"D:\\Dev\\Java\\jdk1.8.0_201\\bin\\java -server -dsa -da -ea:io.netty... -XX:+HeapDumpOnOutOfMemoryError -XX:+P\r\nrintGCDetails -javaagent:D:\\Workspace\\maven-repo/org/mortbay/jetty/alpn/jetty-alpn-agent/2.0.8/jetty-alpn-agent-2.0.8.jar=${jetty.alpnAgent.\r\noption} -D_ -D_ -D_ -D_ -jar C:\\Users\\ghahrk2\\AppData\\Local\\Temp\\surefire5846402945819231811\\surefirebooter3410993510143083575.jar C:\\Users\\\r\nghahrk2\\AppData\\Local\\Temp\\surefire5846402945819231811 2019-03-11T12-14-47_754-jvmRun1 surefire3963502743181923035tmp surefire_2837620529321\r\n76933038tmp\"\r\n[ERROR] Process Exit Code: 0\r\n[ERROR] Crashed tests:\r\n[ERROR] io.netty.osgitests.OsgiBundleTest\r\n[ERROR] org.apache.maven.surefire.booter.SurefireBooterForkException: The forked VM terminated without properly saying goodbye. VM crash or\r\nSystem.exit called?\r\n[ERROR] Command was cmd.exe /X /C \"D:\\Dev\\Java\\jdk1.8.0_201\\bin\\java -server -dsa -da -ea:io.netty... -XX:+HeapDumpOnOutOfMemoryError -XX:+P\r\nrintGCDetails -javaagent:D:\\Workspace\\maven-repo/org/mortbay/jetty/alpn/jetty-alpn-agent/2.0.8/jetty-alpn-agent-2.0.8.jar=${jetty.alpnAgent.\r\noption} -D_ -D_ -D_ -D_ -jar C:\\Users\\ghahrk2\\AppData\\Local\\Temp\\surefire5846402945819231811\\surefirebooter3410993510143083575.jar C:\\Users\\\r\nghahrk2\\AppData\\Local\\Temp\\surefire5846402945819231811 2019-03-11T12-14-47_754-jvmRun1 surefire3963502743181923035tmp surefire_2837620529321\r\n76933038tmp\"\r\n[ERROR] Process Exit Code: 0\r\n[ERROR] Crashed tests:\r\n[ERROR] io.netty.osgitests.OsgiBundleTest\r\n[ERROR]         at org.apache.maven.plugin.surefire.booterclient.ForkStarter.fork(ForkStarter.java:669)\r\n[ERROR]         at org.apache.maven.plugin.surefire.booterclient.ForkStarter.run(ForkStarter.java:282)\r\n[ERROR]         at org.apache.maven.plugin.surefire.booterclient.ForkStarter.run(ForkStarter.java:245)\r\n[ERROR]         at org.apache.maven.plugin.surefire.AbstractSurefireMojo.executeProvider(AbstractSurefireMojo.java:1183)\r\n[ERROR]         at org.apache.maven.plugin.surefire.AbstractSurefireMojo.executeAfterPreconditionsChecked(AbstractSurefireMojo.java:1011)\r\n[ERROR]         at org.apache.maven.plugin.surefire.AbstractSurefireMojo.execute(AbstractSurefireMojo.java:857)\r\n[ERROR]         at org.apache.maven.plugin.DefaultBuildPluginManager.executeMojo(DefaultBuildPluginManager.java:134)\r\n[ERROR]         at org.apache.maven.lifecycle.internal.MojoExecutor.execute(MojoExecutor.java:208)\r\n[ERROR]         at org.apache.maven.lifecycle.internal.MojoExecutor.execute(MojoExecutor.java:154)\r\n[ERROR]         at org.apache.maven.lifecycle.internal.MojoExecutor.execute(MojoExecutor.java:146)\r\n[ERROR]         at org.apache.maven.lifecycle.internal.LifecycleModuleBuilder.buildProject(LifecycleModuleBuilder.java:117)\r\n[ERROR]         at org.apache.maven.lifecycle.internal.LifecycleModuleBuilder.buildProject(LifecycleModuleBuilder.java:81)\r\n[ERROR]         at org.apache.maven.lifecycle.internal.builder.singlethreaded.SingleThreadedBuilder.build(SingleThreadedBuilder.java:51)\r\n[ERROR]         at org.apache.maven.lifecycle.internal.LifecycleStarter.execute(LifecycleStarter.java:128)\r\n[ERROR]         at org.apache.maven.DefaultMaven.doExecute(DefaultMaven.java:309)\r\n[ERROR]         at org.apache.maven.DefaultMaven.doExecute(DefaultMaven.java:194)\r\n[ERROR]         at org.apache.maven.DefaultMaven.execute(DefaultMaven.java:107)\r\n[ERROR]         at org.apache.maven.cli.MavenCli.execute(MavenCli.java:955)\r\n[ERROR]         at org.apache.maven.cli.MavenCli.doMain(MavenCli.java:290)\r\n[ERROR]         at org.apache.maven.cli.MavenCli.main(MavenCli.java:194)\r\n[ERROR]         at sun.reflect.NativeMethodAccessorImpl.invoke0(Native Method)\r\n[ERROR]         at sun.reflect.NativeMethodAccessorImpl.invoke(NativeMethodAccessorImpl.java:62)\r\n[ERROR]         at sun.reflect.DelegatingMethodAccessorImpl.invoke(DelegatingMethodAccessorImpl.java:43)\r\n[ERROR]         at java.lang.reflect.Method.invoke(Method.java:498)\r\n[ERROR]         at org.codehaus.plexus.classworlds.launcher.Launcher.launchEnhanced(Launcher.java:289)\r\n[ERROR]         at org.codehaus.plexus.classworlds.launcher.Launcher.launch(Launcher.java:229)\r\n[ERROR]         at org.codehaus.plexus.classworlds.launcher.Launcher.mainWithExitCode(Launcher.java:415)\r\n[ERROR]         at org.codehaus.plexus.classworlds.launcher.Launcher.main(Launcher.java:356)\r\n[ERROR]\r\n[ERROR] -> [Help 1]\r\n[ERROR]\r\n[ERROR] To see the full stack trace of the errors, re-run Maven with the -e switch.\r\n[ERROR] Re-run Maven using the -X switch to enable full debug logging.\r\n[ERROR]\r\n[ERROR] For more information about the errors and possible solutions, please read the following articles:\r\n[ERROR] [Help 1] http://cwiki.apache.org/confluence/display/MAVEN/MojoExecutionException\r\n[ERROR]\r\n[ERROR] After correcting the problems, you can resume the build with the command\r\n[ERROR]   mvn <goals> -rf :netty-testsuite-osgi\r\n```\r\n\r\n## netty-transport-native-epoll\r\n```\r\n[INFO] Executed tasks\r\n[INFO] \r\n[INFO] --- maven-dependency-plugin:2.10:unpack-dependencies (unpack) @ netty-transport-native-epoll ---\r\n[INFO] Unpacking /home/kaveh/Workspace/netty/transport-native-unix-common/target/classes to /home/kaveh/Workspace/netty/transport-native-epoll/target/unix-common-lib with includes \"META-INF/native/**\" and excludes \"\"\r\n[INFO] ------------------------------------------------------------------------\r\n[INFO] Reactor Summary for Netty 4.1.35.Final-SNAPSHOT:\r\n[INFO] \r\n[INFO] Netty/Dev-Tools .................................... SUCCESS [ 27.093 s]\r\n[INFO] Netty .............................................. SUCCESS [01:17 min]\r\n[INFO] Netty/Common ....................................... SUCCESS [01:59 min]\r\n[INFO] Netty/Buffer ....................................... SUCCESS [ 56.804 s]\r\n[INFO] Netty/Resolver ..................................... SUCCESS [  6.395 s]\r\n[INFO] Netty/Transport .................................... SUCCESS [01:09 min]\r\n[INFO] Netty/Codec ........................................ SUCCESS [ 29.941 s]\r\n[INFO] Netty/Codec/DNS .................................... SUCCESS [ 14.811 s]\r\n[INFO] Netty/Codec/HAProxy ................................ SUCCESS [  6.541 s]\r\n[INFO] Netty/Handler ...................................... SUCCESS [04:49 min]\r\n[INFO] Netty/Codec/HTTP ................................... SUCCESS [ 18.224 s]\r\n[INFO] Netty/Codec/HTTP2 .................................. SUCCESS [ 37.289 s]\r\n[INFO] Netty/Codec/Memcache ............................... SUCCESS [  6.580 s]\r\n[INFO] Netty/Codec/MQTT ................................... SUCCESS [  7.417 s]\r\n[INFO] Netty/Codec/Redis .................................. SUCCESS [  6.600 s]\r\n[INFO] Netty/Codec/SMTP ................................... SUCCESS [  5.782 s]\r\n[INFO] Netty/Codec/Socks .................................. SUCCESS [  7.485 s]\r\n[INFO] Netty/Codec/Stomp .................................. SUCCESS [  6.118 s]\r\n[INFO] Netty/Codec/XML .................................... SUCCESS [  7.066 s]\r\n[INFO] Netty/Handler/Proxy ................................ SUCCESS [ 17.932 s]\r\n[INFO] Netty/Resolver/DNS ................................. SUCCESS [ 50.563 s]\r\n[INFO] Netty/Transport/RXTX ............................... SUCCESS [  3.372 s]\r\n[INFO] Netty/Transport/SCTP ............................... SUCCESS [  3.698 s]\r\n[INFO] Netty/Transport/UDT ................................ SUCCESS [ 29.846 s]\r\n[INFO] Netty/Example ...................................... SUCCESS [  9.144 s]\r\n[INFO] Netty/Transport/Native/Unix/Common ................. SUCCESS [  7.120 s]\r\n[INFO] Netty/Testsuite .................................... SUCCESS [18:33 min]\r\n[INFO] Netty/Transport/Native/Unix/Common/Tests ........... SUCCESS [  3.190 s]\r\n[INFO] Netty/Transport/Native/Epoll ....................... FAILURE [  1.968 s]\r\n[INFO] Netty/All-in-One ................................... SKIPPED\r\n[INFO] Netty/Tarball ...................................... SKIPPED\r\n[INFO] Netty/Transport/Native/KQueue ...................... SKIPPED\r\n[INFO] Netty/Testsuite/Autobahn ........................... SKIPPED\r\n[INFO] Netty/Testsuite/Http2 .............................. SKIPPED\r\n[INFO] Netty/Testsuite/OSGI ............................... SKIPPED\r\n[INFO] Netty/Testsuite/Shading ............................ SKIPPED\r\n[INFO] Netty/Microbench ................................... SKIPPED\r\n[INFO] Netty/BOM .......................................... SKIPPED\r\n[INFO] ------------------------------------------------------------------------\r\n[INFO] BUILD FAILURE\r\n[INFO] ------------------------------------------------------------------------\r\n[INFO] Total time:  34:07 min\r\n[INFO] Finished at: 2019-03-13T18:10:29-04:00\r\n[INFO] ------------------------------------------------------------------------\r\n[ERROR] Failed to execute goal org.apache.maven.plugins:maven-dependency-plugin:2.10:unpack-dependencies (unpack) on project netty-transport-native-epoll: Artifact has not been packaged yet. When used on reactor artifact, unpack should be executed after packaging: see MDEP-98. -> [Help 1]\r\n[ERROR] \r\n[ERROR] To see the full stack trace of the errors, re-run Maven with the -e switch.\r\n[ERROR] Re-run Maven using the -X switch to enable full debug logging.\r\n[ERROR] \r\n[ERROR] For more information about the errors and possible solutions, please read the following articles:\r\n[ERROR] [Help 1] http://cwiki.apache.org/confluence/display/MAVEN/MojoExecutionException\r\n[ERROR] \r\n[ERROR] After correcting the problems, you can resume the build with the command\r\n[ERROR]   mvn <goals> -rf :netty-transport-native-epoll\r\n```\r\n\r\n","closed_by":{"login":"kavehg","id":441481,"node_id":"MDQ6VXNlcjQ0MTQ4MQ==","avatar_url":"https://avatars1.githubusercontent.com/u/441481?v=4","gravatar_id":"","url":"https://api.github.com/users/kavehg","html_url":"https://github.com/kavehg","followers_url":"https://api.github.com/users/kavehg/followers","following_url":"https://api.github.com/users/kavehg/following{/other_user}","gists_url":"https://api.github.com/users/kavehg/gists{/gist_id}","starred_url":"https://api.github.com/users/kavehg/starred{/owner}{/repo}","subscriptions_url":"https://api.github.com/users/kavehg/subscriptions","organizations_url":"https://api.github.com/users/kavehg/orgs","repos_url":"https://api.github.com/users/kavehg/repos","events_url":"https://api.github.com/users/kavehg/events{/privacy}","received_events_url":"https://api.github.com/users/kavehg/received_events","type":"User","site_admin":false}}", "commentIds":["474900933","480905163"], "labels":[]}