{"id":"998", "title":"Crash on 4.2.2 because error inflating ImageButton which contains vector resource", "body":"java.lang.RuntimeException: Unable to start activity ComponentInfo{com.github.pockethub/com.github.pockethub.ui.WelcomeActivity}: android.view.InflateException: Binary XML file line #92: Error inflating class ImageButton
                                                                          at android.app.ActivityThread.performLaunchActivity(ActivityThread.java:2180)
                                                                          at android.app.ActivityThread.handleLaunchActivity(ActivityThread.java:2230)
                                                                          at android.app.ActivityThread.access$600(ActivityThread.java:141)
                                                                          at android.app.ActivityThread$H.handleMessage(ActivityThread.java:1234)
                                                                          at android.os.Handler.dispatchMessage(Handler.java:99)
                                                                          at android.os.Looper.loop(Looper.java:137)
                                                                          at android.app.ActivityThread.main(ActivityThread.java:5041)
                                                                          at java.lang.reflect.Method.invokeNative(Native Method)
                                                                          at java.lang.reflect.Method.invoke(Method.java:511)
                                                                          at com.android.internal.os.ZygoteInit$MethodAndArgsCaller.run(ZygoteInit.java:793)
                                                                          at com.android.internal.os.ZygoteInit.main(ZygoteInit.java:560)
                                                                          at dalvik.system.NativeStart.main(Native Method)
                                                                       Caused by: android.view.InflateException: Binary XML file line #92: Error inflating class ImageButton
                                                                          at android.view.LayoutInflater.createViewFromTag(LayoutInflater.java:704)
                                                                          at android.view.LayoutInflater.rInflate(LayoutInflater.java:746)
                                                                          at android.view.LayoutInflater.rInflate(LayoutInflater.java:749)
                                                                          at android.view.LayoutInflater.rInflate(LayoutInflater.java:749)
                                                                          at android.view.LayoutInflater.inflate(LayoutInflater.java:489)
                                                                          at android.view.LayoutInflater.inflate(LayoutInflater.java:396)
                                                                          at android.view.LayoutInflater.inflate(LayoutInflater.java:352)
                                                                          at android.support.v7.app.AppCompatDelegateImplV7.setContentView(AppCompatDelegateImplV7.java:267)
                                                                          at android.support.v7.app.AppCompatActivity.setContentView(AppCompatActivity.java:129)
                                                                          at com.github.pockethub.ui.DotPagerActivity.onCreate(DotPagerActivity.java:73)
                                                                          at com.github.pockethub.ui.WelcomeActivity.onCreate(WelcomeActivity.java:59)
                                                                          at android.app.Activity.performCreate(Activity.java:5104)
                                                                          at android.app.Instrumentation.callActivityOnCreate(Instrumentation.java:1080)
                                                                          at android.app.ActivityThread.performLaunchActivity(ActivityThread.java:2144)
                                                                          at android.app.ActivityThread.handleLaunchActivity(ActivityThread.java:2230) 
                                                                          at android.app.ActivityThread.access$600(ActivityThread.java:141) 
                                                                          at android.app.ActivityThread$H.handleMessage(ActivityThread.java:1234) 
                                                                          at android.os.Handler.dispatchMessage(Handler.java:99) 
                                                                          at android.os.Looper.loop(Looper.java:137) 
                                                                          at android.app.ActivityThread.main(ActivityThread.java:5041) 
                                                                          at java.lang.reflect.Method.invokeNative(Native Method) 
                                                                          at java.lang.reflect.Method.invoke(Method.java:511) 
                                                                          at com.android.internal.os.ZygoteInit$MethodAndArgsCaller.run(ZygoteInit.java:793) 
                                                                          at com.android.internal.os.ZygoteInit.main(ZygoteInit.java:560) 
                                                                          at dalvik.system.NativeStart.main(Native Method) 
                                                                       Caused by: android.content.res.Resources$NotFoundException: File res/drawable/ic_arrow_right.xml from drawable resource ID #0x7f02005a
                                                                          at android.content.res.Resources.loadDrawable(Resources.java:1953)
                                                                          at android.content.res.TypedArray.getDrawable(TypedArray.java:601)
                                                                          at android.widget.ImageView.<init>(ImageView.java:120)
                                                                          at android.widget.ImageButton.<init>(ImageButton.java:87)
                                                                          at android.support.v7.widget.AppCompatImageButton.<init>(AppCompatImageButton.java:57)
                                                                          at android.support.v7.widget.AppCompatImageButton.<init>(AppCompatImageButton.java:53)
                                                                          at android.support.v7.app.AppCompatViewInflater.createView(AppCompatViewInflater.java:118)
                                                                          at android.support.v7.app.AppCompatDelegateImplV7.createView(AppCompatDelegateImplV7.java:963)
                                                                          at android.support.v7.app.AppCompatDelegateImplV7.onCreateView(AppCompatDelegateImplV7.java:1022)
                                                                          at android.support.v4.view.LayoutInflaterCompatHC$FactoryWrapperHC.onCreateView(LayoutInflaterCompatHC.java:44)
                                                                          at android.view.LayoutInflater.createViewFromTag(LayoutInflater.java:675)
                                                                          at android.view.LayoutInflater.rInflate(LayoutInflater.java:746) 
                                                                          at android.view.LayoutInflater.rInflate(LayoutInflater.java:749) 
                                                                          at android.view.LayoutInflater.rInflate(LayoutInflater.java:749) 
                                                                          at android.view.LayoutInflater.inflate(LayoutInflater.java:489) 
                                                                          at android.view.LayoutInflater.inflate(LayoutInflater.java:396) 
                                                                          at android.view.LayoutInflater.inflate(LayoutInflater.java:352) 
                                                                          at android.support.v7.app.AppCompatDelegateImplV7.setContentView(AppCompatDelegateImplV7.java:267) 
                                                                          at android.support.v7.app.AppCompatActivity.setContentView(AppCompatActivity.java:129) 
                                                                          at com.github.pockethub.ui.DotPagerActivity.onCreate(DotPagerActivity.java:73) 
                                                                          at com.github.pockethub.ui.WelcomeActivity.onCreate(WelcomeActivity.java:59) 
                                                                          at android.app.Activity.performCreate(Activity.java:5104) 
                                                                          at android.app.Instrumentation.callActivityOnCreate(Instrumentation.java:1080) 
                                                                          at android.app.ActivityThread.performLaunchActivity(ActivityThread.java:2144) 
                                                                          at android.app.ActivityThread.handleLaunchActivity(ActivityThread.java:2230) 
                                                                          at android.app.ActivityThread.access$600(ActivityThread.java:141) 
                                                                          at android.app.ActivityThread$H.handleMessage(ActivityThread.java:1234) 
                                                                          at android.os.Handler.dispatchMessage(Handler.java:99) 
                                                                          at android.os.Looper.loop(Looper.java:137) 
                                                                          at android.app.ActivityThread.main(ActivityThread.java:5041) 
                                                                          at java.lang.reflect.Method.invokeNative(Native Method) 
                                                                          at java.lang.reflect.Method.invoke(Method.java:511) 
                                                                          at com.android.internal.os.ZygoteInit$MethodAndArgsCaller.run(ZygoteInit.java:793) 
                                                                          at com.android.internal.os.ZygoteInit.main(ZygoteInit.java:560) 
                                                                          at dalvik.system.NativeStart.main(Native Method) 
                                                                       Caused by: org.xmlpull.v1.XmlPullParserException: Binary XML file line #17: invalid drawable tag vector
                                                                          at android.graphics.drawable.Drawable.createFromXmlInner(Drawable.java:881)
                                                                          at android.graphics.drawable.Drawable.createFromXml(Drawable.java:822)
                                                                          at android.content.res.Resources.loadDrawable(Resources.java:1950)
                                                                          at android.content.res.TypedArray.getDrawable(TypedArray.java:601) 
                                                                          at android.widget.ImageView.<init>(ImageView.java:120) 
                                                                          at android.widget.ImageButton.<init>(ImageButton.java:87) 
                                                                          at android.support.v7.widget.AppCompatImageButton.<init>(AppCompatImageButton.java:57) 
                                                                          at android.support.v7.widget.AppCompatImageButton.<init>(AppCompatImageButton.java:53) 
                                                                          at android.support.v7.app.AppCompatViewInflater.createView(AppCompatViewInflater.java:118) 
                                                                          at android.support.v7.app.AppCompatDelegateImplV7.createView(AppCompatDelegateImplV7.java:963) 
                                                                          at android.support.v7.app.AppCompatDelegateImplV7.onCreateView(AppCompatDelegateImplV7.java:1022) 
                                                                          at android.support.v4.view.LayoutInflaterCompatHC$FactoryWrapperHC.onCreateView(LayoutInflaterCompatHC.java:44) 
                                                                          at android.view.LayoutInflater.createViewFromTag(LayoutInflater.java:675) 
                                                                          at android.view.LayoutInflater.rInflate(LayoutInflater.java:746) 
                                                                          at android.view.LayoutInflater.rInflate(LayoutInflater.java:749) 
                                                                          at android.view.LayoutInflater.rInflate(LayoutInflater.java:749) 
                                                                          at android.view.LayoutInflater.inflate(LayoutInflater.java:489) 
                                                                          at android.view.LayoutInflater.inflate(LayoutInflater.java:396) 
                                                                          at android.view.LayoutInflater.inflate(LayoutInflater.java:352) 
                                                                          at android.support.v7.app.AppCompatDelegateImplV7.setContentView(AppCompatDelegateImplV7.java:267) 
                                                                          at android.support.v7.app.AppCompatActivity.setContentView(AppCompatActivity.java:129) 
                                                                          at com.github.pockethub.ui.DotPagerActivity.onCreate(DotPagerActivity.java:73) 
                                                                          at com.github.pockethub.ui.WelcomeActivity.onCreate(WelcomeActivity.java:59) 
                                                                          at android.app.Activity.performCreate(Activity.java:5104) 
                                                                          at android.app.Instrumentation.callActivityOnCreate(Instrumentation.java:1080) 
                                                                          at android.app.ActivityThread.performLaunchActivity(ActivityThread.java:2144) 
                                                                          at android.app.ActivityThread.handleLaunchActivity(ActivityThread.java:2230) 
                                                                          at android.app.ActivityThread.access$600(ActivityThread.java:141) 
                                                                          at android.app.ActivityThread$H.handleMessage(ActivityThread.java:1234) 
                                                                          at android.os.Handler.dispatchMessage(Handler.java:99) 
                                                                          at android.os.Looper.loop(Looper.java:137) 
                                                                          at android.app.ActivityThread.main(ActivityThread.java:5041) 
                                                                          at java.lang.reflect.Method.invokeNative(Native Method) 
                                                                          at java.lang.reflect.Method.invoke(Method.java:511) 
                                                                          at com.android.internal.os.ZygoteInit$MethodAndArgsCaller.run(ZygoteInit.java:793) 
                                                                          at com.android.internal.os.ZygoteInit.main(ZygoteInit.java:560) 
                                                                          at dalvik.system.NativeStart.main(Native Method) 
", "json":"{"url":"https://api.github.com/repos/pockethub/PocketHub/issues/998","repository_url":"https://api.github.com/repos/pockethub/PocketHub","labels_url":"https://api.github.com/repos/pockethub/PocketHub/issues/998/labels{/name}","comments_url":"https://api.github.com/repos/pockethub/PocketHub/issues/998/comments","events_url":"https://api.github.com/repos/pockethub/PocketHub/issues/998/events","html_url":"https://github.com/pockethub/PocketHub/issues/998","id":148327339,"node_id":"MDU6SXNzdWUxNDgzMjczMzk=","number":998,"title":"Crash on 4.2.2 because error inflating ImageButton which contains vector resource","user":{"login":"markzhai","id":1106500,"node_id":"MDQ6VXNlcjExMDY1MDA=","avatar_url":"https://avatars1.githubusercontent.com/u/1106500?v=4","gravatar_id":"","url":"https://api.github.com/users/markzhai","html_url":"https://github.com/markzhai","followers_url":"https://api.github.com/users/markzhai/followers","following_url":"https://api.github.com/users/markzhai/following{/other_user}","gists_url":"https://api.github.com/users/markzhai/gists{/gist_id}","starred_url":"https://api.github.com/users/markzhai/starred{/owner}{/repo}","subscriptions_url":"https://api.github.com/users/markzhai/subscriptions","organizations_url":"https://api.github.com/users/markzhai/orgs","repos_url":"https://api.github.com/users/markzhai/repos","events_url":"https://api.github.com/users/markzhai/events{/privacy}","received_events_url":"https://api.github.com/users/markzhai/received_events","type":"User","site_admin":false},"labels":[],"state":"closed","locked":false,"assignee":null,"assignees":[],"milestone":null,"comments":4,"created_at":"2016-04-14T11:12:00Z","updated_at":"2018-02-01T17:39:36Z","closed_at":"2016-04-14T13:47:08Z","author_association":"CONTRIBUTOR","body":"java.lang.RuntimeException: Unable to start activity ComponentInfo{com.github.pockethub/com.github.pockethub.ui.WelcomeActivity}: android.view.InflateException: Binary XML file line #92: Error inflating class ImageButton\n                                                                          at android.app.ActivityThread.performLaunchActivity(ActivityThread.java:2180)\n                                                                          at android.app.ActivityThread.handleLaunchActivity(ActivityThread.java:2230)\n                                                                          at android.app.ActivityThread.access$600(ActivityThread.java:141)\n                                                                          at android.app.ActivityThread$H.handleMessage(ActivityThread.java:1234)\n                                                                          at android.os.Handler.dispatchMessage(Handler.java:99)\n                                                                          at android.os.Looper.loop(Looper.java:137)\n                                                                          at android.app.ActivityThread.main(ActivityThread.java:5041)\n                                                                          at java.lang.reflect.Method.invokeNative(Native Method)\n                                                                          at java.lang.reflect.Method.invoke(Method.java:511)\n                                                                          at com.android.internal.os.ZygoteInit$MethodAndArgsCaller.run(ZygoteInit.java:793)\n                                                                          at com.android.internal.os.ZygoteInit.main(ZygoteInit.java:560)\n                                                                          at dalvik.system.NativeStart.main(Native Method)\n                                                                       Caused by: android.view.InflateException: Binary XML file line #92: Error inflating class ImageButton\n                                                                          at android.view.LayoutInflater.createViewFromTag(LayoutInflater.java:704)\n                                                                          at android.view.LayoutInflater.rInflate(LayoutInflater.java:746)\n                                                                          at android.view.LayoutInflater.rInflate(LayoutInflater.java:749)\n                                                                          at android.view.LayoutInflater.rInflate(LayoutInflater.java:749)\n                                                                          at android.view.LayoutInflater.inflate(LayoutInflater.java:489)\n                                                                          at android.view.LayoutInflater.inflate(LayoutInflater.java:396)\n                                                                          at android.view.LayoutInflater.inflate(LayoutInflater.java:352)\n                                                                          at android.support.v7.app.AppCompatDelegateImplV7.setContentView(AppCompatDelegateImplV7.java:267)\n                                                                          at android.support.v7.app.AppCompatActivity.setContentView(AppCompatActivity.java:129)\n                                                                          at com.github.pockethub.ui.DotPagerActivity.onCreate(DotPagerActivity.java:73)\n                                                                          at com.github.pockethub.ui.WelcomeActivity.onCreate(WelcomeActivity.java:59)\n                                                                          at android.app.Activity.performCreate(Activity.java:5104)\n                                                                          at android.app.Instrumentation.callActivityOnCreate(Instrumentation.java:1080)\n                                                                          at android.app.ActivityThread.performLaunchActivity(ActivityThread.java:2144)\n                                                                          at android.app.ActivityThread.handleLaunchActivity(ActivityThread.java:2230) \n                                                                          at android.app.ActivityThread.access$600(ActivityThread.java:141) \n                                                                          at android.app.ActivityThread$H.handleMessage(ActivityThread.java:1234) \n                                                                          at android.os.Handler.dispatchMessage(Handler.java:99) \n                                                                          at android.os.Looper.loop(Looper.java:137) \n                                                                          at android.app.ActivityThread.main(ActivityThread.java:5041) \n                                                                          at java.lang.reflect.Method.invokeNative(Native Method) \n                                                                          at java.lang.reflect.Method.invoke(Method.java:511) \n                                                                          at com.android.internal.os.ZygoteInit$MethodAndArgsCaller.run(ZygoteInit.java:793) \n                                                                          at com.android.internal.os.ZygoteInit.main(ZygoteInit.java:560) \n                                                                          at dalvik.system.NativeStart.main(Native Method) \n                                                                       Caused by: android.content.res.Resources$NotFoundException: File res/drawable/ic_arrow_right.xml from drawable resource ID #0x7f02005a\n                                                                          at android.content.res.Resources.loadDrawable(Resources.java:1953)\n                                                                          at android.content.res.TypedArray.getDrawable(TypedArray.java:601)\n                                                                          at android.widget.ImageView.<init>(ImageView.java:120)\n                                                                          at android.widget.ImageButton.<init>(ImageButton.java:87)\n                                                                          at android.support.v7.widget.AppCompatImageButton.<init>(AppCompatImageButton.java:57)\n                                                                          at android.support.v7.widget.AppCompatImageButton.<init>(AppCompatImageButton.java:53)\n                                                                          at android.support.v7.app.AppCompatViewInflater.createView(AppCompatViewInflater.java:118)\n                                                                          at android.support.v7.app.AppCompatDelegateImplV7.createView(AppCompatDelegateImplV7.java:963)\n                                                                          at android.support.v7.app.AppCompatDelegateImplV7.onCreateView(AppCompatDelegateImplV7.java:1022)\n                                                                          at android.support.v4.view.LayoutInflaterCompatHC$FactoryWrapperHC.onCreateView(LayoutInflaterCompatHC.java:44)\n                                                                          at android.view.LayoutInflater.createViewFromTag(LayoutInflater.java:675)\n                                                                          at android.view.LayoutInflater.rInflate(LayoutInflater.java:746) \n                                                                          at android.view.LayoutInflater.rInflate(LayoutInflater.java:749) \n                                                                          at android.view.LayoutInflater.rInflate(LayoutInflater.java:749) \n                                                                          at android.view.LayoutInflater.inflate(LayoutInflater.java:489) \n                                                                          at android.view.LayoutInflater.inflate(LayoutInflater.java:396) \n                                                                          at android.view.LayoutInflater.inflate(LayoutInflater.java:352) \n                                                                          at android.support.v7.app.AppCompatDelegateImplV7.setContentView(AppCompatDelegateImplV7.java:267) \n                                                                          at android.support.v7.app.AppCompatActivity.setContentView(AppCompatActivity.java:129) \n                                                                          at com.github.pockethub.ui.DotPagerActivity.onCreate(DotPagerActivity.java:73) \n                                                                          at com.github.pockethub.ui.WelcomeActivity.onCreate(WelcomeActivity.java:59) \n                                                                          at android.app.Activity.performCreate(Activity.java:5104) \n                                                                          at android.app.Instrumentation.callActivityOnCreate(Instrumentation.java:1080) \n                                                                          at android.app.ActivityThread.performLaunchActivity(ActivityThread.java:2144) \n                                                                          at android.app.ActivityThread.handleLaunchActivity(ActivityThread.java:2230) \n                                                                          at android.app.ActivityThread.access$600(ActivityThread.java:141) \n                                                                          at android.app.ActivityThread$H.handleMessage(ActivityThread.java:1234) \n                                                                          at android.os.Handler.dispatchMessage(Handler.java:99) \n                                                                          at android.os.Looper.loop(Looper.java:137) \n                                                                          at android.app.ActivityThread.main(ActivityThread.java:5041) \n                                                                          at java.lang.reflect.Method.invokeNative(Native Method) \n                                                                          at java.lang.reflect.Method.invoke(Method.java:511) \n                                                                          at com.android.internal.os.ZygoteInit$MethodAndArgsCaller.run(ZygoteInit.java:793) \n                                                                          at com.android.internal.os.ZygoteInit.main(ZygoteInit.java:560) \n                                                                          at dalvik.system.NativeStart.main(Native Method) \n                                                                       Caused by: org.xmlpull.v1.XmlPullParserException: Binary XML file line #17: invalid drawable tag vector\n                                                                          at android.graphics.drawable.Drawable.createFromXmlInner(Drawable.java:881)\n                                                                          at android.graphics.drawable.Drawable.createFromXml(Drawable.java:822)\n                                                                          at android.content.res.Resources.loadDrawable(Resources.java:1950)\n                                                                          at android.content.res.TypedArray.getDrawable(TypedArray.java:601) \n                                                                          at android.widget.ImageView.<init>(ImageView.java:120) \n                                                                          at android.widget.ImageButton.<init>(ImageButton.java:87) \n                                                                          at android.support.v7.widget.AppCompatImageButton.<init>(AppCompatImageButton.java:57) \n                                                                          at android.support.v7.widget.AppCompatImageButton.<init>(AppCompatImageButton.java:53) \n                                                                          at android.support.v7.app.AppCompatViewInflater.createView(AppCompatViewInflater.java:118) \n                                                                          at android.support.v7.app.AppCompatDelegateImplV7.createView(AppCompatDelegateImplV7.java:963) \n                                                                          at android.support.v7.app.AppCompatDelegateImplV7.onCreateView(AppCompatDelegateImplV7.java:1022) \n                                                                          at android.support.v4.view.LayoutInflaterCompatHC$FactoryWrapperHC.onCreateView(LayoutInflaterCompatHC.java:44) \n                                                                          at android.view.LayoutInflater.createViewFromTag(LayoutInflater.java:675) \n                                                                          at android.view.LayoutInflater.rInflate(LayoutInflater.java:746) \n                                                                          at android.view.LayoutInflater.rInflate(LayoutInflater.java:749) \n                                                                          at android.view.LayoutInflater.rInflate(LayoutInflater.java:749) \n                                                                          at android.view.LayoutInflater.inflate(LayoutInflater.java:489) \n                                                                          at android.view.LayoutInflater.inflate(LayoutInflater.java:396) \n                                                                          at android.view.LayoutInflater.inflate(LayoutInflater.java:352) \n                                                                          at android.support.v7.app.AppCompatDelegateImplV7.setContentView(AppCompatDelegateImplV7.java:267) \n                                                                          at android.support.v7.app.AppCompatActivity.setContentView(AppCompatActivity.java:129) \n                                                                          at com.github.pockethub.ui.DotPagerActivity.onCreate(DotPagerActivity.java:73) \n                                                                          at com.github.pockethub.ui.WelcomeActivity.onCreate(WelcomeActivity.java:59) \n                                                                          at android.app.Activity.performCreate(Activity.java:5104) \n                                                                          at android.app.Instrumentation.callActivityOnCreate(Instrumentation.java:1080) \n                                                                          at android.app.ActivityThread.performLaunchActivity(ActivityThread.java:2144) \n                                                                          at android.app.ActivityThread.handleLaunchActivity(ActivityThread.java:2230) \n                                                                          at android.app.ActivityThread.access$600(ActivityThread.java:141) \n                                                                          at android.app.ActivityThread$H.handleMessage(ActivityThread.java:1234) \n                                                                          at android.os.Handler.dispatchMessage(Handler.java:99) \n                                                                          at android.os.Looper.loop(Looper.java:137) \n                                                                          at android.app.ActivityThread.main(ActivityThread.java:5041) \n                                                                          at java.lang.reflect.Method.invokeNative(Native Method) \n                                                                          at java.lang.reflect.Method.invoke(Method.java:511) \n                                                                          at com.android.internal.os.ZygoteInit$MethodAndArgsCaller.run(ZygoteInit.java:793) \n                                                                          at com.android.internal.os.ZygoteInit.main(ZygoteInit.java:560) \n                                                                          at dalvik.system.NativeStart.main(Native Method) \n","closed_by":{"login":"Meisolsson","id":3757908,"node_id":"MDQ6VXNlcjM3NTc5MDg=","avatar_url":"https://avatars3.githubusercontent.com/u/3757908?v=4","gravatar_id":"","url":"https://api.github.com/users/Meisolsson","html_url":"https://github.com/Meisolsson","followers_url":"https://api.github.com/users/Meisolsson/followers","following_url":"https://api.github.com/users/Meisolsson/following{/other_user}","gists_url":"https://api.github.com/users/Meisolsson/gists{/gist_id}","starred_url":"https://api.github.com/users/Meisolsson/starred{/owner}{/repo}","subscriptions_url":"https://api.github.com/users/Meisolsson/subscriptions","organizations_url":"https://api.github.com/users/Meisolsson/orgs","repos_url":"https://api.github.com/users/Meisolsson/repos","events_url":"https://api.github.com/users/Meisolsson/events{/privacy}","received_events_url":"https://api.github.com/users/Meisolsson/received_events","type":"User","site_admin":false}}", "commentIds":["209885361","209950640","362343081","362343765"], "labels":[]}